[2021-01-25T22:18:19.987-0300][gc,heap] Heap region size: 1M
[2021-01-25T22:18:20.003-0300][gc     ] Using G1
[2021-01-25T22:18:20.003-0300][gc,heap,coops] Heap address: 0x00000000c0000000, size: 1024 MB, Compressed Oops mode: 32-bit
[2021-01-25T22:18:21.554-0300][gc,start     ] GC(0) Pause Young (Concurrent Start) (Metadata GC Threshold)
[2021-01-25T22:18:21.554-0300][gc,task      ] GC(0) Using 4 workers of 4 for evacuation
[2021-01-25T22:18:21.567-0300][gc,phases    ] GC(0)   Pre Evacuate Collection Set: 0,0ms
[2021-01-25T22:18:21.567-0300][gc,phases    ] GC(0)   Evacuate Collection Set: 12,7ms
[2021-01-25T22:18:21.567-0300][gc,phases    ] GC(0)   Post Evacuate Collection Set: 0,5ms
[2021-01-25T22:18:21.567-0300][gc,phases    ] GC(0)   Other: 0,5ms
[2021-01-25T22:18:21.567-0300][gc,heap      ] GC(0) Eden regions: 41->0(44)
[2021-01-25T22:18:21.567-0300][gc,heap      ] GC(0) Survivor regions: 0->7(7)
[2021-01-25T22:18:21.567-0300][gc,heap      ] GC(0) Old regions: 0->0
[2021-01-25T22:18:21.567-0300][gc,heap      ] GC(0) Humongous regions: 0->0
[2021-01-25T22:18:21.567-0300][gc,metaspace ] GC(0) Metaspace: 20737K->20737K(1069056K)
[2021-01-25T22:18:21.567-0300][gc           ] GC(0) Pause Young (Concurrent Start) (Metadata GC Threshold) 40M->6M(1024M) 13,880ms
[2021-01-25T22:18:21.567-0300][gc,cpu       ] GC(0) User=0,02s Sys=0,01s Real=0,01s
[2021-01-25T22:18:21.568-0300][gc           ] GC(1) Concurrent Cycle
[2021-01-25T22:18:21.568-0300][gc,marking   ] GC(1) Concurrent Clear Claimed Marks
[2021-01-25T22:18:21.568-0300][gc,marking   ] GC(1) Concurrent Clear Claimed Marks 0,037ms
[2021-01-25T22:18:21.568-0300][gc,marking   ] GC(1) Concurrent Scan Root Regions
[2021-01-25T22:18:21.572-0300][gc,marking   ] GC(1) Concurrent Scan Root Regions 3,559ms
[2021-01-25T22:18:21.572-0300][gc,marking   ] GC(1) Concurrent Mark (1,588s)
[2021-01-25T22:18:21.572-0300][gc,marking   ] GC(1) Concurrent Mark From Roots
[2021-01-25T22:18:21.572-0300][gc,task      ] GC(1) Using 1 workers of 1 for marking
[2021-01-25T22:18:21.573-0300][gc,marking   ] GC(1) Concurrent Mark From Roots 1,463ms
[2021-01-25T22:18:21.573-0300][gc,marking   ] GC(1) Concurrent Preclean
[2021-01-25T22:18:21.573-0300][gc,marking   ] GC(1) Concurrent Preclean 0,063ms
[2021-01-25T22:18:21.573-0300][gc,marking   ] GC(1) Concurrent Mark (1,588s, 1,589s) 1,577ms
[2021-01-25T22:18:21.573-0300][gc,start     ] GC(1) Pause Remark
[2021-01-25T22:18:21.576-0300][gc,stringtable] GC(1) Cleaned string and symbol table, strings: 7585 processed, 0 removed, symbols: 64262 processed, 34 removed
[2021-01-25T22:18:21.577-0300][gc            ] GC(1) Pause Remark 6M->6M(1024M) 3,252ms
[2021-01-25T22:18:21.577-0300][gc,cpu        ] GC(1) User=0,01s Sys=0,00s Real=0,00s
[2021-01-25T22:18:21.577-0300][gc,marking    ] GC(1) Concurrent Rebuild Remembered Sets
[2021-01-25T22:18:21.577-0300][gc,marking    ] GC(1) Concurrent Rebuild Remembered Sets 0,100ms
[2021-01-25T22:18:21.577-0300][gc,start      ] GC(1) Pause Cleanup
[2021-01-25T22:18:21.577-0300][gc            ] GC(1) Pause Cleanup 6M->6M(1024M) 0,182ms
[2021-01-25T22:18:21.577-0300][gc,cpu        ] GC(1) User=0,00s Sys=0,00s Real=0,00s
[2021-01-25T22:18:21.577-0300][gc,marking    ] GC(1) Concurrent Cleanup for Next Mark
[2021-01-25T22:18:21.588-0300][gc,marking    ] GC(1) Concurrent Cleanup for Next Mark 11,250ms
[2021-01-25T22:18:21.589-0300][gc            ] GC(1) Concurrent Cycle 20,503ms
[2021-01-25T22:18:22.624-0300][gc,start      ] GC(2) Pause Young (Normal) (G1 Evacuation Pause)
[2021-01-25T22:18:22.624-0300][gc,task       ] GC(2) Using 4 workers of 4 for evacuation
[2021-01-25T22:18:22.634-0300][gc,phases     ] GC(2)   Pre Evacuate Collection Set: 0,0ms
[2021-01-25T22:18:22.634-0300][gc,phases     ] GC(2)   Evacuate Collection Set: 9,7ms
[2021-01-25T22:18:22.634-0300][gc,phases     ] GC(2)   Post Evacuate Collection Set: 0,5ms
[2021-01-25T22:18:22.634-0300][gc,phases     ] GC(2)   Other: 0,1ms
[2021-01-25T22:18:22.634-0300][gc,heap       ] GC(2) Eden regions: 44->0(48)
[2021-01-25T22:18:22.634-0300][gc,heap       ] GC(2) Survivor regions: 7->3(7)
[2021-01-25T22:18:22.634-0300][gc,heap       ] GC(2) Old regions: 0->7
[2021-01-25T22:18:22.634-0300][gc,heap       ] GC(2) Humongous regions: 129->129
[2021-01-25T22:18:22.634-0300][gc,metaspace  ] GC(2) Metaspace: 30731K->30731K(1077248K)
[2021-01-25T22:18:22.634-0300][gc            ] GC(2) Pause Young (Normal) (G1 Evacuation Pause) 179M->137M(1024M) 10,485ms
[2021-01-25T22:18:22.634-0300][gc,cpu        ] GC(2) User=0,03s Sys=0,01s Real=0,02s
[2021-01-25T22:18:23.544-0300][gc,start      ] GC(3) Pause Young (Concurrent Start) (Metadata GC Threshold)
[2021-01-25T22:18:23.544-0300][gc,task       ] GC(3) Using 4 workers of 4 for evacuation
[2021-01-25T22:18:23.554-0300][gc,phases     ] GC(3)   Pre Evacuate Collection Set: 0,1ms
[2021-01-25T22:18:23.554-0300][gc,phases     ] GC(3)   Evacuate Collection Set: 8,8ms
[2021-01-25T22:18:23.554-0300][gc,phases     ] GC(3)   Post Evacuate Collection Set: 0,4ms
[2021-01-25T22:18:23.554-0300][gc,phases     ] GC(3)   Other: 0,3ms
[2021-01-25T22:18:23.554-0300][gc,heap       ] GC(3) Eden regions: 25->0(46)
[2021-01-25T22:18:23.554-0300][gc,heap       ] GC(3) Survivor regions: 3->5(7)
[2021-01-25T22:18:23.554-0300][gc,heap       ] GC(3) Old regions: 7->7
[2021-01-25T22:18:23.554-0300][gc,heap       ] GC(3) Humongous regions: 129->129
[2021-01-25T22:18:23.554-0300][gc,metaspace  ] GC(3) Metaspace: 34967K->34967K(1081344K)
[2021-01-25T22:18:23.554-0300][gc            ] GC(3) Pause Young (Concurrent Start) (Metadata GC Threshold) 162M->139M(1024M) 9,683ms
[2021-01-25T22:18:23.554-0300][gc,cpu        ] GC(3) User=0,02s Sys=0,00s Real=0,02s
[2021-01-25T22:18:23.554-0300][gc            ] GC(4) Concurrent Cycle
[2021-01-25T22:18:23.554-0300][gc,marking    ] GC(4) Concurrent Clear Claimed Marks
[2021-01-25T22:18:23.554-0300][gc,marking    ] GC(4) Concurrent Clear Claimed Marks 0,077ms
[2021-01-25T22:18:23.554-0300][gc,marking    ] GC(4) Concurrent Scan Root Regions
[2021-01-25T22:18:23.557-0300][gc,marking    ] GC(4) Concurrent Scan Root Regions 3,334ms
[2021-01-25T22:18:23.557-0300][gc,marking    ] GC(4) Concurrent Mark (3,573s)
[2021-01-25T22:18:23.557-0300][gc,marking    ] GC(4) Concurrent Mark From Roots
[2021-01-25T22:18:23.557-0300][gc,task       ] GC(4) Using 1 workers of 1 for marking
[2021-01-25T22:18:23.578-0300][gc,marking    ] GC(4) Concurrent Mark From Roots 20,633ms
[2021-01-25T22:18:23.578-0300][gc,marking    ] GC(4) Concurrent Preclean
[2021-01-25T22:18:23.578-0300][gc,marking    ] GC(4) Concurrent Preclean 0,135ms
[2021-01-25T22:18:23.578-0300][gc,marking    ] GC(4) Concurrent Mark (3,573s, 3,594s) 20,842ms
[2021-01-25T22:18:23.579-0300][gc,start      ] GC(4) Pause Remark
[2021-01-25T22:18:23.586-0300][gc,stringtable] GC(4) Cleaned string and symbol table, strings: 13173 processed, 7 removed, symbols: 100029 processed, 27 removed
[2021-01-25T22:18:23.586-0300][gc            ] GC(4) Pause Remark 140M->140M(1024M) 6,820ms
[2021-01-25T22:18:23.586-0300][gc,cpu        ] GC(4) User=0,02s Sys=0,00s Real=0,01s
[2021-01-25T22:18:23.586-0300][gc,marking    ] GC(4) Concurrent Rebuild Remembered Sets
[2021-01-25T22:18:23.603-0300][gc,marking    ] GC(4) Concurrent Rebuild Remembered Sets 16,613ms
[2021-01-25T22:18:23.603-0300][gc,start      ] GC(4) Pause Cleanup
[2021-01-25T22:18:23.604-0300][gc            ] GC(4) Pause Cleanup 141M->141M(1024M) 0,381ms
[2021-01-25T22:18:23.604-0300][gc,cpu        ] GC(4) User=0,00s Sys=0,00s Real=0,00s
[2021-01-25T22:18:23.610-0300][gc,marking    ] GC(4) Concurrent Cleanup for Next Mark
[2021-01-25T22:18:23.641-0300][gc,marking    ] GC(4) Concurrent Cleanup for Next Mark 31,418ms
[2021-01-25T22:18:23.641-0300][gc            ] GC(4) Concurrent Cycle 87,321ms
[2021-01-25T22:48:13.120-0300][gc,start      ] GC(5) Pause Young (Normal) (G1 Evacuation Pause)
[2021-01-25T22:48:13.121-0300][gc,task       ] GC(5) Using 4 workers of 4 for evacuation
[2021-01-25T22:48:13.145-0300][gc,mmu        ] GC(5) MMU target violated: 21,0ms (20,0ms/21,0ms)
[2021-01-25T22:48:13.145-0300][gc,phases     ] GC(5)   Pre Evacuate Collection Set: 0,0ms
[2021-01-25T22:48:13.145-0300][gc,phases     ] GC(5)   Evacuate Collection Set: 22,7ms
[2021-01-25T22:48:13.145-0300][gc,phases     ] GC(5)   Post Evacuate Collection Set: 1,4ms
[2021-01-25T22:48:13.145-0300][gc,phases     ] GC(5)   Other: 0,6ms
[2021-01-25T22:48:13.145-0300][gc,heap       ] GC(5) Eden regions: 46->0(46)
[2021-01-25T22:48:13.145-0300][gc,heap       ] GC(5) Survivor regions: 5->5(7)
[2021-01-25T22:48:13.145-0300][gc,heap       ] GC(5) Old regions: 7->9
[2021-01-25T22:48:13.145-0300][gc,heap       ] GC(5) Humongous regions: 129->129
[2021-01-25T22:48:13.145-0300][gc,metaspace  ] GC(5) Metaspace: 42272K->42272K(1087488K)
[2021-01-25T22:48:13.145-0300][gc            ] GC(5) Pause Young (Normal) (G1 Evacuation Pause) 185M->141M(1024M) 24,915ms
[2021-01-25T22:48:13.145-0300][gc,cpu        ] GC(5) User=0,03s Sys=0,00s Real=0,02s
[2021-01-25T22:56:48.483-0300][gc,start      ] GC(6) Pause Young (Normal) (G1 Evacuation Pause)
[2021-01-25T22:56:48.483-0300][gc,task       ] GC(6) Using 4 workers of 4 for evacuation
[2021-01-25T22:56:48.502-0300][gc,phases     ] GC(6)   Pre Evacuate Collection Set: 0,0ms
[2021-01-25T22:56:48.502-0300][gc,phases     ] GC(6)   Evacuate Collection Set: 16,0ms
[2021-01-25T22:56:48.502-0300][gc,phases     ] GC(6)   Post Evacuate Collection Set: 2,4ms
[2021-01-25T22:56:48.502-0300][gc,phases     ] GC(6)   Other: 0,7ms
[2021-01-25T22:56:48.502-0300][gc,heap       ] GC(6) Eden regions: 46->0(47)
[2021-01-25T22:56:48.502-0300][gc,heap       ] GC(6) Survivor regions: 5->4(7)
[2021-01-25T22:56:48.502-0300][gc,heap       ] GC(6) Old regions: 9->11
[2021-01-25T22:56:48.502-0300][gc,heap       ] GC(6) Humongous regions: 129->129
[2021-01-25T22:56:48.502-0300][gc,metaspace  ] GC(6) Metaspace: 43608K->43608K(1089536K)
[2021-01-25T22:56:48.502-0300][gc            ] GC(6) Pause Young (Normal) (G1 Evacuation Pause) 187M->143M(1024M) 19,324ms
[2021-01-25T22:56:48.502-0300][gc,cpu        ] GC(6) User=0,04s Sys=0,00s Real=0,02s
[2021-01-25T23:02:38.260-0300][gc,start      ] GC(7) Pause Young (Normal) (G1 Evacuation Pause)
[2021-01-25T23:02:38.322-0300][gc,task       ] GC(7) Using 4 workers of 4 for evacuation
[2021-01-25T23:02:38.332-0300][gc,phases     ] GC(7)   Pre Evacuate Collection Set: 0,0ms
[2021-01-25T23:02:38.332-0300][gc,phases     ] GC(7)   Evacuate Collection Set: 8,3ms
[2021-01-25T23:02:38.332-0300][gc,phases     ] GC(7)   Post Evacuate Collection Set: 1,4ms
[2021-01-25T23:02:38.332-0300][gc,phases     ] GC(7)   Other: 62,9ms
[2021-01-25T23:02:38.332-0300][gc,heap       ] GC(7) Eden regions: 47->0(47)
[2021-01-25T23:02:38.332-0300][gc,heap       ] GC(7) Survivor regions: 4->4(7)
[2021-01-25T23:02:38.332-0300][gc,heap       ] GC(7) Old regions: 11->13
[2021-01-25T23:02:38.332-0300][gc,heap       ] GC(7) Humongous regions: 129->129
[2021-01-25T23:02:38.332-0300][gc,metaspace  ] GC(7) Metaspace: 43813K->43813K(1089536K)
[2021-01-25T23:02:38.332-0300][gc            ] GC(7) Pause Young (Normal) (G1 Evacuation Pause) 190M->144M(1024M) 72,706ms
[2021-01-25T23:02:38.332-0300][gc,cpu        ] GC(7) User=0,03s Sys=0,00s Real=0,07s
[2021-01-25T23:07:13.650-0300][gc,start      ] GC(8) Pause Young (Normal) (G1 Evacuation Pause)
[2021-01-25T23:07:13.650-0300][gc,task       ] GC(8) Using 4 workers of 4 for evacuation
[2021-01-25T23:07:13.666-0300][gc,phases     ] GC(8)   Pre Evacuate Collection Set: 0,2ms
[2021-01-25T23:07:13.666-0300][gc,phases     ] GC(8)   Evacuate Collection Set: 13,4ms
[2021-01-25T23:07:13.666-0300][gc,phases     ] GC(8)   Post Evacuate Collection Set: 1,9ms
[2021-01-25T23:07:13.666-0300][gc,phases     ] GC(8)   Other: 1,1ms
[2021-01-25T23:07:13.666-0300][gc,heap       ] GC(8) Eden regions: 47->0(48)
[2021-01-25T23:07:13.666-0300][gc,heap       ] GC(8) Survivor regions: 4->3(7)
[2021-01-25T23:07:13.666-0300][gc,heap       ] GC(8) Old regions: 13->13
[2021-01-25T23:07:13.666-0300][gc,heap       ] GC(8) Humongous regions: 129->129
[2021-01-25T23:07:13.666-0300][gc,metaspace  ] GC(8) Metaspace: 44536K->44536K(1089536K)
[2021-01-25T23:07:13.666-0300][gc            ] GC(8) Pause Young (Normal) (G1 Evacuation Pause) 191M->144M(1024M) 16,657ms
[2021-01-25T23:07:13.666-0300][gc,cpu        ] GC(8) User=0,02s Sys=0,00s Real=0,02s
[2021-01-25T23:07:13.736-0300][gc,heap,exit  ] Heap
[2021-01-25T23:07:13.736-0300][gc,heap,exit  ]  garbage-first heap   total 1048576K, used 148689K [0x00000000c0000000, 0x0000000100000000)
[2021-01-25T23:07:13.736-0300][gc,heap,exit  ]   region size 1024K, 5 young (5120K), 3 survivors (3072K)
[2021-01-25T23:07:13.736-0300][gc,heap,exit  ]  Metaspace       used 44566K, capacity 46226K, committed 46288K, reserved 1089536K
[2021-01-25T23:07:13.736-0300][gc,heap,exit  ]   class space    used 5000K, capacity 5757K, committed 5760K, reserved 1048576K
