[2020-12-29T19:34:06.300-0300][gc,heap] Heap region size: 1M
[2020-12-29T19:34:06.318-0300][gc     ] Using G1
[2020-12-29T19:34:06.318-0300][gc,heap,coops] Heap address: 0x00000000c0000000, size: 1024 MB, Compressed Oops mode: 32-bit
[2020-12-29T19:34:08.329-0300][gc,start     ] GC(0) Pause Young (Concurrent Start) (Metadata GC Threshold)
[2020-12-29T19:34:08.329-0300][gc,task      ] GC(0) Using 4 workers of 4 for evacuation
[2020-12-29T19:34:08.359-0300][gc,mmu       ] GC(0) MMU target violated: 21,0ms (20,0ms/21,0ms)
[2020-12-29T19:34:08.359-0300][gc,phases    ] GC(0)   Pre Evacuate Collection Set: 0,1ms
[2020-12-29T19:34:08.359-0300][gc,phases    ] GC(0)   Evacuate Collection Set: 28,5ms
[2020-12-29T19:34:08.359-0300][gc,phases    ] GC(0)   Post Evacuate Collection Set: 0,8ms
[2020-12-29T19:34:08.359-0300][gc,phases    ] GC(0)   Other: 1,0ms
[2020-12-29T19:34:08.359-0300][gc,heap      ] GC(0) Eden regions: 42->0(44)
[2020-12-29T19:34:08.359-0300][gc,heap      ] GC(0) Survivor regions: 0->7(7)
[2020-12-29T19:34:08.359-0300][gc,heap      ] GC(0) Old regions: 0->0
[2020-12-29T19:34:08.359-0300][gc,heap      ] GC(0) Humongous regions: 0->0
[2020-12-29T19:34:08.359-0300][gc,metaspace ] GC(0) Metaspace: 20828K->20828K(1069056K)
[2020-12-29T19:34:08.359-0300][gc           ] GC(0) Pause Young (Concurrent Start) (Metadata GC Threshold) 41M->6M(1024M) 30,558ms
[2020-12-29T19:34:08.359-0300][gc,cpu       ] GC(0) User=0,04s Sys=0,01s Real=0,03s
[2020-12-29T19:34:08.360-0300][gc           ] GC(1) Concurrent Cycle
[2020-12-29T19:34:08.360-0300][gc,marking   ] GC(1) Concurrent Clear Claimed Marks
[2020-12-29T19:34:08.360-0300][gc,marking   ] GC(1) Concurrent Clear Claimed Marks 0,041ms
[2020-12-29T19:34:08.360-0300][gc,marking   ] GC(1) Concurrent Scan Root Regions
[2020-12-29T19:34:08.365-0300][gc,marking   ] GC(1) Concurrent Scan Root Regions 5,242ms
[2020-12-29T19:34:08.365-0300][gc,marking   ] GC(1) Concurrent Mark (2,069s)
[2020-12-29T19:34:08.365-0300][gc,marking   ] GC(1) Concurrent Mark From Roots
[2020-12-29T19:34:08.365-0300][gc,task      ] GC(1) Using 1 workers of 1 for marking
[2020-12-29T19:34:08.367-0300][gc,marking   ] GC(1) Concurrent Mark From Roots 1,712ms
[2020-12-29T19:34:08.367-0300][gc,marking   ] GC(1) Concurrent Preclean
[2020-12-29T19:34:08.367-0300][gc,marking   ] GC(1) Concurrent Preclean 0,214ms
[2020-12-29T19:34:08.367-0300][gc,marking   ] GC(1) Concurrent Mark (2,069s, 2,072s) 2,151ms
[2020-12-29T19:34:08.369-0300][gc,start     ] GC(1) Pause Remark
[2020-12-29T19:34:08.376-0300][gc,stringtable] GC(1) Cleaned string and symbol table, strings: 7611 processed, 0 removed, symbols: 64409 processed, 33 removed
[2020-12-29T19:34:08.376-0300][gc            ] GC(1) Pause Remark 6M->6M(1024M) 6,785ms
[2020-12-29T19:34:08.376-0300][gc,cpu        ] GC(1) User=0,02s Sys=0,00s Real=0,00s
[2020-12-29T19:34:08.385-0300][gc,marking    ] GC(1) Concurrent Rebuild Remembered Sets
[2020-12-29T19:34:08.386-0300][gc,marking    ] GC(1) Concurrent Rebuild Remembered Sets 0,338ms
[2020-12-29T19:34:08.386-0300][gc,start      ] GC(1) Pause Cleanup
[2020-12-29T19:34:08.386-0300][gc            ] GC(1) Pause Cleanup 6M->6M(1024M) 0,415ms
[2020-12-29T19:34:08.386-0300][gc,cpu        ] GC(1) User=0,00s Sys=0,00s Real=0,00s
[2020-12-29T19:34:08.386-0300][gc,marking    ] GC(1) Concurrent Cleanup for Next Mark
[2020-12-29T19:34:08.402-0300][gc,marking    ] GC(1) Concurrent Cleanup for Next Mark 15,773ms
[2020-12-29T19:34:08.402-0300][gc            ] GC(1) Concurrent Cycle 42,677ms
[2020-12-29T19:34:09.750-0300][gc,start      ] GC(2) Pause Young (Normal) (G1 Evacuation Pause)
[2020-12-29T19:34:09.750-0300][gc,task       ] GC(2) Using 4 workers of 4 for evacuation
[2020-12-29T19:34:09.771-0300][gc,mmu        ] GC(2) MMU target violated: 21,0ms (20,0ms/21,0ms)
[2020-12-29T19:34:09.771-0300][gc,phases     ] GC(2)   Pre Evacuate Collection Set: 0,0ms
[2020-12-29T19:34:09.771-0300][gc,phases     ] GC(2)   Evacuate Collection Set: 20,9ms
[2020-12-29T19:34:09.771-0300][gc,phases     ] GC(2)   Post Evacuate Collection Set: 0,6ms
[2020-12-29T19:34:09.771-0300][gc,phases     ] GC(2)   Other: 0,3ms
[2020-12-29T19:34:09.771-0300][gc,heap       ] GC(2) Eden regions: 44->0(48)
[2020-12-29T19:34:09.771-0300][gc,heap       ] GC(2) Survivor regions: 7->3(7)
[2020-12-29T19:34:09.771-0300][gc,heap       ] GC(2) Old regions: 0->7
[2020-12-29T19:34:09.771-0300][gc,heap       ] GC(2) Humongous regions: 129->129
[2020-12-29T19:34:09.771-0300][gc,metaspace  ] GC(2) Metaspace: 30771K->30771K(1077248K)
[2020-12-29T19:34:09.771-0300][gc            ] GC(2) Pause Young (Normal) (G1 Evacuation Pause) 179M->137M(1024M) 21,959ms
[2020-12-29T19:34:09.772-0300][gc,cpu        ] GC(2) User=0,05s Sys=0,00s Real=0,02s
[2020-12-29T19:34:10.751-0300][gc,start      ] GC(3) Pause Young (Concurrent Start) (Metadata GC Threshold)
[2020-12-29T19:34:10.751-0300][gc,task       ] GC(3) Using 4 workers of 4 for evacuation
[2020-12-29T19:34:10.783-0300][gc,mmu        ] GC(3) MMU target violated: 21,0ms (20,0ms/21,0ms)
[2020-12-29T19:34:10.783-0300][gc,phases     ] GC(3)   Pre Evacuate Collection Set: 0,1ms
[2020-12-29T19:34:10.783-0300][gc,phases     ] GC(3)   Evacuate Collection Set: 30,8ms
[2020-12-29T19:34:10.783-0300][gc,phases     ] GC(3)   Post Evacuate Collection Set: 0,6ms
[2020-12-29T19:34:10.783-0300][gc,phases     ] GC(3)   Other: 0,4ms
[2020-12-29T19:34:10.783-0300][gc,heap       ] GC(3) Eden regions: 25->0(46)
[2020-12-29T19:34:10.783-0300][gc,heap       ] GC(3) Survivor regions: 3->5(7)
[2020-12-29T19:34:10.783-0300][gc,heap       ] GC(3) Old regions: 7->7
[2020-12-29T19:34:10.783-0300][gc,heap       ] GC(3) Humongous regions: 129->129
[2020-12-29T19:34:10.783-0300][gc,metaspace  ] GC(3) Metaspace: 35091K->35091K(1081344K)
[2020-12-29T19:34:10.783-0300][gc            ] GC(3) Pause Young (Concurrent Start) (Metadata GC Threshold) 162M->140M(1024M) 31,967ms
[2020-12-29T19:34:10.783-0300][gc,cpu        ] GC(3) User=0,04s Sys=0,00s Real=0,03s
[2020-12-29T19:34:10.783-0300][gc            ] GC(4) Concurrent Cycle
[2020-12-29T19:34:10.783-0300][gc,marking    ] GC(4) Concurrent Clear Claimed Marks
[2020-12-29T19:34:10.783-0300][gc,marking    ] GC(4) Concurrent Clear Claimed Marks 0,070ms
[2020-12-29T19:34:10.783-0300][gc,marking    ] GC(4) Concurrent Scan Root Regions
[2020-12-29T19:34:10.788-0300][gc,marking    ] GC(4) Concurrent Scan Root Regions 4,984ms
[2020-12-29T19:34:10.788-0300][gc,marking    ] GC(4) Concurrent Mark (4,493s)
[2020-12-29T19:34:10.788-0300][gc,marking    ] GC(4) Concurrent Mark From Roots
[2020-12-29T19:34:10.788-0300][gc,task       ] GC(4) Using 1 workers of 1 for marking
[2020-12-29T19:34:10.837-0300][gc,marking    ] GC(4) Concurrent Mark From Roots 48,485ms
[2020-12-29T19:34:10.837-0300][gc,marking    ] GC(4) Concurrent Preclean
[2020-12-29T19:34:10.837-0300][gc,marking    ] GC(4) Concurrent Preclean 0,168ms
[2020-12-29T19:34:10.837-0300][gc,marking    ] GC(4) Concurrent Mark (4,493s, 4,542s) 48,749ms
[2020-12-29T19:34:10.839-0300][gc,start      ] GC(4) Pause Remark
[2020-12-29T19:34:10.858-0300][gc,stringtable] GC(4) Cleaned string and symbol table, strings: 13260 processed, 7 removed, symbols: 100056 processed, 29 removed
[2020-12-29T19:34:10.858-0300][gc            ] GC(4) Pause Remark 141M->141M(1024M) 18,890ms
[2020-12-29T19:34:10.858-0300][gc,cpu        ] GC(4) User=0,03s Sys=0,00s Real=0,02s
[2020-12-29T19:34:10.858-0300][gc,marking    ] GC(4) Concurrent Rebuild Remembered Sets
[2020-12-29T19:34:10.905-0300][gc,marking    ] GC(4) Concurrent Rebuild Remembered Sets 46,699ms
[2020-12-29T19:34:10.912-0300][gc,start      ] GC(4) Pause Cleanup
[2020-12-29T19:34:10.912-0300][gc            ] GC(4) Pause Cleanup 142M->142M(1024M) 0,497ms
[2020-12-29T19:34:10.912-0300][gc,cpu        ] GC(4) User=0,00s Sys=0,00s Real=0,00s
[2020-12-29T19:34:10.912-0300][gc,marking    ] GC(4) Concurrent Cleanup for Next Mark
[2020-12-29T19:34:10.938-0300][gc,marking    ] GC(4) Concurrent Cleanup for Next Mark 25,830ms
[2020-12-29T19:34:10.938-0300][gc            ] GC(4) Concurrent Cycle 155,050ms
[2020-12-29T19:41:18.314-0300][gc,start      ] GC(5) Pause Young (Normal) (G1 Evacuation Pause)
[2020-12-29T19:41:18.315-0300][gc,task       ] GC(5) Using 4 workers of 4 for evacuation
[2020-12-29T19:41:18.346-0300][gc,mmu        ] GC(5) MMU target violated: 21,0ms (20,0ms/21,0ms)
[2020-12-29T19:41:18.346-0300][gc,phases     ] GC(5)   Pre Evacuate Collection Set: 0,0ms
[2020-12-29T19:41:18.346-0300][gc,phases     ] GC(5)   Evacuate Collection Set: 30,5ms
[2020-12-29T19:41:18.346-0300][gc,phases     ] GC(5)   Post Evacuate Collection Set: 0,7ms
[2020-12-29T19:41:18.346-0300][gc,phases     ] GC(5)   Other: 0,6ms
[2020-12-29T19:41:18.346-0300][gc,heap       ] GC(5) Eden regions: 46->0(46)
[2020-12-29T19:41:18.346-0300][gc,heap       ] GC(5) Survivor regions: 5->5(7)
[2020-12-29T19:41:18.346-0300][gc,heap       ] GC(5) Old regions: 7->9
[2020-12-29T19:41:18.346-0300][gc,heap       ] GC(5) Humongous regions: 129->129
[2020-12-29T19:41:18.346-0300][gc,metaspace  ] GC(5) Metaspace: 41074K->41074K(1087488K)
[2020-12-29T19:41:18.346-0300][gc            ] GC(5) Pause Young (Normal) (G1 Evacuation Pause) 186M->141M(1024M) 31,925ms
[2020-12-29T19:41:18.346-0300][gc,cpu        ] GC(5) User=0,05s Sys=0,00s Real=0,03s
[2020-12-29T21:07:54.898-0300][gc,start      ] GC(6) Pause Young (Normal) (G1 Evacuation Pause)
[2020-12-29T21:07:54.977-0300][gc,task       ] GC(6) Using 4 workers of 4 for evacuation
[2020-12-29T21:07:54.989-0300][gc,phases     ] GC(6)   Pre Evacuate Collection Set: 0,0ms
[2020-12-29T21:07:54.989-0300][gc,phases     ] GC(6)   Evacuate Collection Set: 10,6ms
[2020-12-29T21:07:54.989-0300][gc,phases     ] GC(6)   Post Evacuate Collection Set: 0,7ms
[2020-12-29T21:07:54.990-0300][gc,phases     ] GC(6)   Other: 80,0ms
[2020-12-29T21:07:54.999-0300][gc,heap       ] GC(6) Eden regions: 46->0(49)
[2020-12-29T21:07:54.999-0300][gc,heap       ] GC(6) Survivor regions: 5->2(7)
[2020-12-29T21:07:54.999-0300][gc,heap       ] GC(6) Old regions: 9->11
[2020-12-29T21:07:54.999-0300][gc,heap       ] GC(6) Humongous regions: 129->129
[2020-12-29T21:07:54.999-0300][gc,metaspace  ] GC(6) Metaspace: 41447K->41447K(1087488K)
[2020-12-29T21:07:54.999-0300][gc            ] GC(6) Pause Young (Normal) (G1 Evacuation Pause) 187M->141M(1024M) 101,336ms
[2020-12-29T21:07:54.999-0300][gc,cpu        ] GC(6) User=0,04s Sys=0,00s Real=0,10s
[2020-12-29T21:31:12.908-0300][gc,start      ] GC(7) Pause Young (Normal) (G1 Evacuation Pause)
[2020-12-29T21:31:12.924-0300][gc,task       ] GC(7) Using 4 workers of 4 for evacuation
[2020-12-29T21:31:12.946-0300][gc,mmu        ] GC(7) MMU target violated: 21,0ms (20,0ms/21,0ms)
[2020-12-29T21:31:12.946-0300][gc,phases     ] GC(7)   Pre Evacuate Collection Set: 0,0ms
[2020-12-29T21:31:12.947-0300][gc,phases     ] GC(7)   Evacuate Collection Set: 13,4ms
[2020-12-29T21:31:12.947-0300][gc,phases     ] GC(7)   Post Evacuate Collection Set: 9,0ms
[2020-12-29T21:31:12.947-0300][gc,phases     ] GC(7)   Other: 15,7ms
[2020-12-29T21:31:12.947-0300][gc,heap       ] GC(7) Eden regions: 49->0(48)
[2020-12-29T21:31:12.947-0300][gc,heap       ] GC(7) Survivor regions: 2->3(7)
[2020-12-29T21:31:12.947-0300][gc,heap       ] GC(7) Old regions: 11->11
[2020-12-29T21:31:12.947-0300][gc,heap       ] GC(7) Humongous regions: 129->129
[2020-12-29T21:31:12.947-0300][gc,metaspace  ] GC(7) Metaspace: 42666K->42666K(1087488K)
[2020-12-29T21:31:12.947-0300][gc            ] GC(7) Pause Young (Normal) (G1 Evacuation Pause) 190M->142M(1024M) 38,291ms
[2020-12-29T21:31:12.947-0300][gc,cpu        ] GC(7) User=0,04s Sys=0,01s Real=0,04s
[2020-12-29T21:31:55.181-0300][gc,start      ] GC(8) Pause Young (Normal) (G1 Evacuation Pause)
[2020-12-29T21:31:55.181-0300][gc,task       ] GC(8) Using 4 workers of 4 for evacuation
[2020-12-29T21:31:55.208-0300][gc,mmu        ] GC(8) MMU target violated: 21,0ms (20,0ms/21,0ms)
[2020-12-29T21:31:55.208-0300][gc,phases     ] GC(8)   Pre Evacuate Collection Set: 0,0ms
[2020-12-29T21:31:55.208-0300][gc,phases     ] GC(8)   Evacuate Collection Set: 9,2ms
[2020-12-29T21:31:55.208-0300][gc,phases     ] GC(8)   Post Evacuate Collection Set: 17,1ms
[2020-12-29T21:31:55.208-0300][gc,phases     ] GC(8)   Other: 0,4ms
[2020-12-29T21:31:55.208-0300][gc,heap       ] GC(8) Eden regions: 48->0(48)
[2020-12-29T21:31:55.208-0300][gc,heap       ] GC(8) Survivor regions: 3->3(7)
[2020-12-29T21:31:55.208-0300][gc,heap       ] GC(8) Old regions: 11->11
[2020-12-29T21:31:55.208-0300][gc,heap       ] GC(8) Humongous regions: 129->129
[2020-12-29T21:31:55.208-0300][gc,metaspace  ] GC(8) Metaspace: 42693K->42693K(1087488K)
[2020-12-29T21:31:55.208-0300][gc            ] GC(8) Pause Young (Normal) (G1 Evacuation Pause) 190M->142M(1024M) 26,905ms
[2020-12-29T21:31:55.208-0300][gc,cpu        ] GC(8) User=0,04s Sys=0,00s Real=0,03s
[2020-12-29T21:32:43.995-0300][gc,start      ] GC(9) Pause Young (Normal) (G1 Evacuation Pause)
[2020-12-29T21:32:43.996-0300][gc,task       ] GC(9) Using 4 workers of 4 for evacuation
[2020-12-29T21:32:44.025-0300][gc,mmu        ] GC(9) MMU target violated: 21,0ms (20,0ms/21,0ms)
[2020-12-29T21:32:44.025-0300][gc,phases     ] GC(9)   Pre Evacuate Collection Set: 0,0ms
[2020-12-29T21:32:44.025-0300][gc,phases     ] GC(9)   Evacuate Collection Set: 23,8ms
[2020-12-29T21:32:44.025-0300][gc,phases     ] GC(9)   Post Evacuate Collection Set: 5,1ms
[2020-12-29T21:32:44.025-0300][gc,phases     ] GC(9)   Other: 0,8ms
[2020-12-29T21:32:44.025-0300][gc,heap       ] GC(9) Eden regions: 48->0(48)
[2020-12-29T21:32:44.025-0300][gc,heap       ] GC(9) Survivor regions: 3->3(7)
[2020-12-29T21:32:44.025-0300][gc,heap       ] GC(9) Old regions: 11->11
[2020-12-29T21:32:44.025-0300][gc,heap       ] GC(9) Humongous regions: 129->129
[2020-12-29T21:32:44.025-0300][gc,metaspace  ] GC(9) Metaspace: 42694K->42694K(1087488K)
[2020-12-29T21:32:44.025-0300][gc            ] GC(9) Pause Young (Normal) (G1 Evacuation Pause) 190M->142M(1024M) 30,240ms
[2020-12-29T21:32:44.026-0300][gc,cpu        ] GC(9) User=0,03s Sys=0,00s Real=0,03s
[2020-12-29T21:48:34.377-0300][gc,heap,exit  ] Heap
[2020-12-29T21:48:34.377-0300][gc,heap,exit  ]  garbage-first heap   total 1048576K, used 168453K [0x00000000c0000000, 0x0000000100000000)
[2020-12-29T21:48:34.377-0300][gc,heap,exit  ]   region size 1024K, 27 young (27648K), 3 survivors (3072K)
[2020-12-29T21:48:34.377-0300][gc,heap,exit  ]  Metaspace       used 43413K, capacity 45071K, committed 45184K, reserved 1089536K
[2020-12-29T21:48:34.377-0300][gc,heap,exit  ]   class space    used 4936K, capacity 5714K, committed 5760K, reserved 1048576K
