[2021-01-25T22:18:29.970-0300][gc,heap] Heap region size: 1M
[2021-01-25T22:18:29.982-0300][gc     ] Using G1
[2021-01-25T22:18:29.982-0300][gc,heap,coops] Heap address: 0x00000000c0000000, size: 1024 MB, Compressed Oops mode: 32-bit
[2021-01-25T22:18:31.291-0300][gc,start     ] GC(0) Pause Young (Concurrent Start) (Metadata GC Threshold)
[2021-01-25T22:18:31.291-0300][gc,task      ] GC(0) Using 4 workers of 4 for evacuation
[2021-01-25T22:18:31.300-0300][gc,phases    ] GC(0)   Pre Evacuate Collection Set: 0,0ms
[2021-01-25T22:18:31.300-0300][gc,phases    ] GC(0)   Evacuate Collection Set: 7,3ms
[2021-01-25T22:18:31.300-0300][gc,phases    ] GC(0)   Post Evacuate Collection Set: 0,6ms
[2021-01-25T22:18:31.300-0300][gc,phases    ] GC(0)   Other: 0,7ms
[2021-01-25T22:18:31.300-0300][gc,heap      ] GC(0) Eden regions: 42->0(44)
[2021-01-25T22:18:31.300-0300][gc,heap      ] GC(0) Survivor regions: 0->7(7)
[2021-01-25T22:18:31.300-0300][gc,heap      ] GC(0) Old regions: 0->0
[2021-01-25T22:18:31.300-0300][gc,heap      ] GC(0) Humongous regions: 0->0
[2021-01-25T22:18:31.300-0300][gc,metaspace ] GC(0) Metaspace: 20832K->20832K(1069056K)
[2021-01-25T22:18:31.300-0300][gc           ] GC(0) Pause Young (Concurrent Start) (Metadata GC Threshold) 41M->6M(1024M) 8,809ms
[2021-01-25T22:18:31.300-0300][gc,cpu       ] GC(0) User=0,03s Sys=0,00s Real=0,01s
[2021-01-25T22:18:31.300-0300][gc           ] GC(1) Concurrent Cycle
[2021-01-25T22:18:31.300-0300][gc,marking   ] GC(1) Concurrent Clear Claimed Marks
[2021-01-25T22:18:31.300-0300][gc,marking   ] GC(1) Concurrent Clear Claimed Marks 0,040ms
[2021-01-25T22:18:31.300-0300][gc,marking   ] GC(1) Concurrent Scan Root Regions
[2021-01-25T22:18:31.306-0300][gc,marking   ] GC(1) Concurrent Scan Root Regions 5,674ms
[2021-01-25T22:18:31.306-0300][gc,marking   ] GC(1) Concurrent Mark (1,339s)
[2021-01-25T22:18:31.306-0300][gc,marking   ] GC(1) Concurrent Mark From Roots
[2021-01-25T22:18:31.306-0300][gc,task      ] GC(1) Using 1 workers of 1 for marking
[2021-01-25T22:18:31.307-0300][gc,marking   ] GC(1) Concurrent Mark From Roots 1,068ms
[2021-01-25T22:18:31.307-0300][gc,marking   ] GC(1) Concurrent Preclean
[2021-01-25T22:18:31.307-0300][gc,marking   ] GC(1) Concurrent Preclean 0,089ms
[2021-01-25T22:18:31.307-0300][gc,marking   ] GC(1) Concurrent Mark (1,339s, 1,340s) 1,229ms
[2021-01-25T22:18:31.307-0300][gc,start     ] GC(1) Pause Remark
[2021-01-25T22:18:31.309-0300][gc,stringtable] GC(1) Cleaned string and symbol table, strings: 7604 processed, 0 removed, symbols: 64394 processed, 33 removed
[2021-01-25T22:18:31.309-0300][gc            ] GC(1) Pause Remark 6M->6M(1024M) 2,336ms
[2021-01-25T22:18:31.309-0300][gc,cpu        ] GC(1) User=0,01s Sys=0,00s Real=0,00s
[2021-01-25T22:18:31.309-0300][gc,marking    ] GC(1) Concurrent Rebuild Remembered Sets
[2021-01-25T22:18:31.309-0300][gc,marking    ] GC(1) Concurrent Rebuild Remembered Sets 0,135ms
[2021-01-25T22:18:31.310-0300][gc,start      ] GC(1) Pause Cleanup
[2021-01-25T22:18:31.310-0300][gc            ] GC(1) Pause Cleanup 6M->6M(1024M) 0,266ms
[2021-01-25T22:18:31.310-0300][gc,cpu        ] GC(1) User=0,00s Sys=0,00s Real=0,00s
[2021-01-25T22:18:31.310-0300][gc,marking    ] GC(1) Concurrent Cleanup for Next Mark
[2021-01-25T22:18:31.321-0300][gc,marking    ] GC(1) Concurrent Cleanup for Next Mark 11,093ms
[2021-01-25T22:18:31.321-0300][gc            ] GC(1) Concurrent Cycle 21,296ms
[2021-01-25T22:18:32.483-0300][gc,start      ] GC(2) Pause Young (Normal) (G1 Evacuation Pause)
[2021-01-25T22:18:32.483-0300][gc,task       ] GC(2) Using 4 workers of 4 for evacuation
[2021-01-25T22:18:32.495-0300][gc,phases     ] GC(2)   Pre Evacuate Collection Set: 0,0ms
[2021-01-25T22:18:32.495-0300][gc,phases     ] GC(2)   Evacuate Collection Set: 11,1ms
[2021-01-25T22:18:32.495-0300][gc,phases     ] GC(2)   Post Evacuate Collection Set: 0,6ms
[2021-01-25T22:18:32.495-0300][gc,phases     ] GC(2)   Other: 0,2ms
[2021-01-25T22:18:32.495-0300][gc,heap       ] GC(2) Eden regions: 44->0(48)
[2021-01-25T22:18:32.495-0300][gc,heap       ] GC(2) Survivor regions: 7->3(7)
[2021-01-25T22:18:32.495-0300][gc,heap       ] GC(2) Old regions: 0->7
[2021-01-25T22:18:32.495-0300][gc,heap       ] GC(2) Humongous regions: 129->129
[2021-01-25T22:18:32.496-0300][gc,metaspace  ] GC(2) Metaspace: 30779K->30779K(1077248K)
[2021-01-25T22:18:32.496-0300][gc            ] GC(2) Pause Young (Normal) (G1 Evacuation Pause) 179M->137M(1024M) 12,070ms
[2021-01-25T22:18:32.496-0300][gc,cpu        ] GC(2) User=0,02s Sys=0,02s Real=0,02s
[2021-01-25T22:18:33.191-0300][gc,start      ] GC(3) Pause Young (Concurrent Start) (Metadata GC Threshold)
[2021-01-25T22:18:33.191-0300][gc,task       ] GC(3) Using 4 workers of 4 for evacuation
[2021-01-25T22:18:33.199-0300][gc,phases     ] GC(3)   Pre Evacuate Collection Set: 0,1ms
[2021-01-25T22:18:33.199-0300][gc,phases     ] GC(3)   Evacuate Collection Set: 6,4ms
[2021-01-25T22:18:33.199-0300][gc,phases     ] GC(3)   Post Evacuate Collection Set: 0,6ms
[2021-01-25T22:18:33.199-0300][gc,phases     ] GC(3)   Other: 0,2ms
[2021-01-25T22:18:33.199-0300][gc,heap       ] GC(3) Eden regions: 25->0(46)
[2021-01-25T22:18:33.199-0300][gc,heap       ] GC(3) Survivor regions: 3->5(7)
[2021-01-25T22:18:33.199-0300][gc,heap       ] GC(3) Old regions: 7->7
[2021-01-25T22:18:33.199-0300][gc,heap       ] GC(3) Humongous regions: 129->129
[2021-01-25T22:18:33.199-0300][gc,metaspace  ] GC(3) Metaspace: 35015K->35015K(1081344K)
[2021-01-25T22:18:33.199-0300][gc            ] GC(3) Pause Young (Concurrent Start) (Metadata GC Threshold) 162M->139M(1024M) 7,449ms
[2021-01-25T22:18:33.199-0300][gc,cpu        ] GC(3) User=0,02s Sys=0,00s Real=0,01s
[2021-01-25T22:18:33.199-0300][gc            ] GC(4) Concurrent Cycle
[2021-01-25T22:18:33.199-0300][gc,marking    ] GC(4) Concurrent Clear Claimed Marks
[2021-01-25T22:18:33.199-0300][gc,marking    ] GC(4) Concurrent Clear Claimed Marks 0,077ms
[2021-01-25T22:18:33.199-0300][gc,marking    ] GC(4) Concurrent Scan Root Regions
[2021-01-25T22:18:33.203-0300][gc,marking    ] GC(4) Concurrent Scan Root Regions 3,973ms
[2021-01-25T22:18:33.203-0300][gc,marking    ] GC(4) Concurrent Mark (3,237s)
[2021-01-25T22:18:33.203-0300][gc,marking    ] GC(4) Concurrent Mark From Roots
[2021-01-25T22:18:33.203-0300][gc,task       ] GC(4) Using 1 workers of 1 for marking
[2021-01-25T22:18:33.218-0300][gc,marking    ] GC(4) Concurrent Mark From Roots 14,733ms
[2021-01-25T22:18:33.218-0300][gc,marking    ] GC(4) Concurrent Preclean
[2021-01-25T22:18:33.218-0300][gc,marking    ] GC(4) Concurrent Preclean 0,127ms
[2021-01-25T22:18:33.218-0300][gc,marking    ] GC(4) Concurrent Mark (3,237s, 3,251s) 14,939ms
[2021-01-25T22:18:33.221-0300][gc,start      ] GC(4) Pause Remark
[2021-01-25T22:18:33.225-0300][gc,stringtable] GC(4) Cleaned string and symbol table, strings: 13189 processed, 7 removed, symbols: 100118 processed, 28 removed
[2021-01-25T22:18:33.225-0300][gc            ] GC(4) Pause Remark 140M->140M(1024M) 4,204ms
[2021-01-25T22:18:33.225-0300][gc,cpu        ] GC(4) User=0,01s Sys=0,00s Real=0,00s
[2021-01-25T22:18:33.225-0300][gc,marking    ] GC(4) Concurrent Rebuild Remembered Sets
[2021-01-25T22:18:33.233-0300][gc,marking    ] GC(4) Concurrent Rebuild Remembered Sets 8,129ms
[2021-01-25T22:18:33.234-0300][gc,start      ] GC(4) Pause Cleanup
[2021-01-25T22:18:33.234-0300][gc            ] GC(4) Pause Cleanup 142M->142M(1024M) 0,228ms
[2021-01-25T22:18:33.234-0300][gc,cpu        ] GC(4) User=0,00s Sys=0,00s Real=0,00s
[2021-01-25T22:18:33.234-0300][gc,marking    ] GC(4) Concurrent Cleanup for Next Mark
[2021-01-25T22:18:33.245-0300][gc,marking    ] GC(4) Concurrent Cleanup for Next Mark 11,084ms
[2021-01-25T22:18:33.245-0300][gc            ] GC(4) Concurrent Cycle 46,043ms
[2021-01-25T22:48:50.205-0300][gc,start      ] GC(5) Pause Young (Concurrent Start) (G1 Evacuation Pause)
[2021-01-25T22:48:50.205-0300][gc,task       ] GC(5) Using 4 workers of 4 for evacuation
[2021-01-25T22:48:50.226-0300][gc,mmu        ] GC(5) MMU target violated: 21,0ms (20,0ms/21,0ms)
[2021-01-25T22:48:50.227-0300][gc,phases     ] GC(5)   Pre Evacuate Collection Set: 0,1ms
[2021-01-25T22:48:50.227-0300][gc,phases     ] GC(5)   Evacuate Collection Set: 20,2ms
[2021-01-25T22:48:50.227-0300][gc,phases     ] GC(5)   Post Evacuate Collection Set: 0,6ms
[2021-01-25T22:48:50.227-0300][gc,phases     ] GC(5)   Other: 1,0ms
[2021-01-25T22:48:50.227-0300][gc,heap       ] GC(5) Eden regions: 46->0(46)
[2021-01-25T22:48:50.227-0300][gc,heap       ] GC(5) Survivor regions: 5->5(7)
[2021-01-25T22:48:50.227-0300][gc,heap       ] GC(5) Old regions: 7->9
[2021-01-25T22:48:50.227-0300][gc,heap       ] GC(5) Humongous regions: 129->129
[2021-01-25T22:48:50.227-0300][gc,metaspace  ] GC(5) Metaspace: 41999K->41999K(1087488K)
[2021-01-25T22:48:50.227-0300][gc            ] GC(5) Pause Young (Concurrent Start) (G1 Evacuation Pause) 185M->141M(1024M) 22,002ms
[2021-01-25T22:48:50.227-0300][gc,cpu        ] GC(5) User=0,06s Sys=0,00s Real=0,03s
[2021-01-25T22:48:50.227-0300][gc            ] GC(6) Concurrent Cycle
[2021-01-25T22:48:50.227-0300][gc,marking    ] GC(6) Concurrent Clear Claimed Marks
[2021-01-25T22:48:50.227-0300][gc,marking    ] GC(6) Concurrent Clear Claimed Marks 0,122ms
[2021-01-25T22:48:50.227-0300][gc,marking    ] GC(6) Concurrent Scan Root Regions
[2021-01-25T22:48:50.232-0300][gc,marking    ] GC(6) Concurrent Scan Root Regions 5,209ms
[2021-01-25T22:48:50.232-0300][gc,marking    ] GC(6) Concurrent Mark (1820,266s)
[2021-01-25T22:48:50.232-0300][gc,marking    ] GC(6) Concurrent Mark From Roots
[2021-01-25T22:48:50.232-0300][gc,task       ] GC(6) Using 1 workers of 1 for marking
[2021-01-25T22:48:50.242-0300][gc,marking    ] GC(6) Concurrent Mark From Roots 9,503ms
[2021-01-25T22:48:50.242-0300][gc,marking    ] GC(6) Concurrent Preclean
[2021-01-25T22:48:50.242-0300][gc,marking    ] GC(6) Concurrent Preclean 0,153ms
[2021-01-25T22:48:50.242-0300][gc,marking    ] GC(6) Concurrent Mark (1820,266s, 1820,275s) 9,722ms
[2021-01-25T22:48:50.242-0300][gc,start      ] GC(6) Pause Remark
[2021-01-25T22:48:50.250-0300][gc,stringtable] GC(6) Cleaned string and symbol table, strings: 14439 processed, 271 removed, symbols: 112604 processed, 12 removed
[2021-01-25T22:48:50.251-0300][gc            ] GC(6) Pause Remark 142M->142M(1024M) 9,175ms
[2021-01-25T22:48:50.251-0300][gc,cpu        ] GC(6) User=0,02s Sys=0,00s Real=0,01s
[2021-01-25T22:48:50.251-0300][gc,marking    ] GC(6) Concurrent Rebuild Remembered Sets
[2021-01-25T22:48:50.258-0300][gc,marking    ] GC(6) Concurrent Rebuild Remembered Sets 6,410ms
[2021-01-25T22:48:50.258-0300][gc,start      ] GC(6) Pause Cleanup
[2021-01-25T22:48:50.258-0300][gc            ] GC(6) Pause Cleanup 142M->142M(1024M) 0,162ms
[2021-01-25T22:48:50.258-0300][gc,cpu        ] GC(6) User=0,00s Sys=0,00s Real=0,00s
[2021-01-25T22:48:50.258-0300][gc,marking    ] GC(6) Concurrent Cleanup for Next Mark
[2021-01-25T22:48:50.260-0300][gc,marking    ] GC(6) Concurrent Cleanup for Next Mark 1,651ms
[2021-01-25T22:48:50.260-0300][gc            ] GC(6) Concurrent Cycle 33,072ms
[2021-01-25T22:58:45.977-0300][gc,start      ] GC(7) Pause Young (Normal) (G1 Evacuation Pause)
[2021-01-25T22:58:45.979-0300][gc,task       ] GC(7) Using 4 workers of 4 for evacuation
[2021-01-25T22:58:45.996-0300][gc,phases     ] GC(7)   Pre Evacuate Collection Set: 0,1ms
[2021-01-25T22:58:45.996-0300][gc,phases     ] GC(7)   Evacuate Collection Set: 15,1ms
[2021-01-25T22:58:45.996-0300][gc,phases     ] GC(7)   Post Evacuate Collection Set: 0,7ms
[2021-01-25T22:58:45.996-0300][gc,phases     ] GC(7)   Other: 2,8ms
[2021-01-25T22:58:45.996-0300][gc,heap       ] GC(7) Eden regions: 46->0(45)
[2021-01-25T22:58:45.996-0300][gc,heap       ] GC(7) Survivor regions: 5->6(7)
[2021-01-25T22:58:45.996-0300][gc,heap       ] GC(7) Old regions: 9->11
[2021-01-25T22:58:45.996-0300][gc,heap       ] GC(7) Humongous regions: 129->129
[2021-01-25T22:58:45.996-0300][gc,metaspace  ] GC(7) Metaspace: 42786K->42786K(1087488K)
[2021-01-25T22:58:45.996-0300][gc            ] GC(7) Pause Young (Normal) (G1 Evacuation Pause) 187M->144M(1024M) 18,738ms
[2021-01-25T22:58:45.996-0300][gc,cpu        ] GC(7) User=0,05s Sys=0,00s Real=0,02s
[2021-01-25T23:01:47.142-0300][gc,start      ] GC(8) Pause Young (Normal) (G1 Evacuation Pause)
[2021-01-25T23:01:47.142-0300][gc,task       ] GC(8) Using 4 workers of 4 for evacuation
[2021-01-25T23:01:47.155-0300][gc,phases     ] GC(8)   Pre Evacuate Collection Set: 0,1ms
[2021-01-25T23:01:47.155-0300][gc,phases     ] GC(8)   Evacuate Collection Set: 12,1ms
[2021-01-25T23:01:47.156-0300][gc,phases     ] GC(8)   Post Evacuate Collection Set: 0,9ms
[2021-01-25T23:01:47.156-0300][gc,phases     ] GC(8)   Other: 0,6ms
[2021-01-25T23:01:47.156-0300][gc,heap       ] GC(8) Eden regions: 45->0(47)
[2021-01-25T23:01:47.156-0300][gc,heap       ] GC(8) Survivor regions: 6->4(7)
[2021-01-25T23:01:47.156-0300][gc,heap       ] GC(8) Old regions: 11->13
[2021-01-25T23:01:47.156-0300][gc,heap       ] GC(8) Humongous regions: 129->129
[2021-01-25T23:01:47.156-0300][gc,metaspace  ] GC(8) Metaspace: 42964K->42964K(1089536K)
[2021-01-25T23:01:47.156-0300][gc            ] GC(8) Pause Young (Normal) (G1 Evacuation Pause) 189M->144M(1024M) 13,729ms
[2021-01-25T23:01:47.156-0300][gc,cpu        ] GC(8) User=0,04s Sys=0,00s Real=0,02s
[2021-01-25T23:03:46.162-0300][gc,start      ] GC(9) Pause Young (Normal) (G1 Evacuation Pause)
[2021-01-25T23:03:46.211-0300][gc,task       ] GC(9) Using 4 workers of 4 for evacuation
[2021-01-25T23:03:46.217-0300][gc,phases     ] GC(9)   Pre Evacuate Collection Set: 0,0ms
[2021-01-25T23:03:46.217-0300][gc,phases     ] GC(9)   Evacuate Collection Set: 5,5ms
[2021-01-25T23:03:46.217-0300][gc,phases     ] GC(9)   Post Evacuate Collection Set: 0,8ms
[2021-01-25T23:03:46.217-0300][gc,phases     ] GC(9)   Other: 49,4ms
[2021-01-25T23:03:46.217-0300][gc,heap       ] GC(9) Eden regions: 47->0(46)
[2021-01-25T23:03:46.217-0300][gc,heap       ] GC(9) Survivor regions: 4->5(7)
[2021-01-25T23:03:46.217-0300][gc,heap       ] GC(9) Old regions: 13->13
[2021-01-25T23:03:46.218-0300][gc,heap       ] GC(9) Humongous regions: 129->129
[2021-01-25T23:03:46.218-0300][gc,metaspace  ] GC(9) Metaspace: 42982K->42982K(1089536K)
[2021-01-25T23:03:46.218-0300][gc            ] GC(9) Pause Young (Normal) (G1 Evacuation Pause) 191M->145M(1024M) 55,952ms
[2021-01-25T23:03:46.218-0300][gc,cpu        ] GC(9) User=0,02s Sys=0,00s Real=0,06s
[2021-01-25T23:05:45.775-0300][gc,start      ] GC(10) Pause Young (Normal) (G1 Evacuation Pause)
[2021-01-25T23:05:45.775-0300][gc,task       ] GC(10) Using 4 workers of 4 for evacuation
[2021-01-25T23:05:45.782-0300][gc,phases     ] GC(10)   Pre Evacuate Collection Set: 0,0ms
[2021-01-25T23:05:45.782-0300][gc,phases     ] GC(10)   Evacuate Collection Set: 5,8ms
[2021-01-25T23:05:45.782-0300][gc,phases     ] GC(10)   Post Evacuate Collection Set: 0,8ms
[2021-01-25T23:05:45.782-0300][gc,phases     ] GC(10)   Other: 0,6ms
[2021-01-25T23:05:45.782-0300][gc,heap       ] GC(10) Eden regions: 46->0(48)
[2021-01-25T23:05:45.782-0300][gc,heap       ] GC(10) Survivor regions: 5->3(7)
[2021-01-25T23:05:45.782-0300][gc,heap       ] GC(10) Old regions: 13->14
[2021-01-25T23:05:45.782-0300][gc,heap       ] GC(10) Humongous regions: 129->129
[2021-01-25T23:05:45.782-0300][gc,metaspace  ] GC(10) Metaspace: 43003K->43003K(1089536K)
[2021-01-25T23:05:45.782-0300][gc            ] GC(10) Pause Young (Normal) (G1 Evacuation Pause) 191M->145M(1024M) 7,447ms
[2021-01-25T23:05:45.782-0300][gc,cpu        ] GC(10) User=0,02s Sys=0,00s Real=0,00s
[2021-01-25T23:07:35.455-0300][gc,heap,exit  ] Heap
[2021-01-25T23:07:35.455-0300][gc,heap,exit  ]  garbage-first heap   total 1048576K, used 177214K [0x00000000c0000000, 0x0000000100000000)
[2021-01-25T23:07:35.455-0300][gc,heap,exit  ]   region size 1024K, 32 young (32768K), 3 survivors (3072K)
[2021-01-25T23:07:35.455-0300][gc,heap,exit  ]  Metaspace       used 45156K, capacity 46965K, committed 47312K, reserved 1091584K
[2021-01-25T23:07:35.455-0300][gc,heap,exit  ]   class space    used 5206K, capacity 6048K, committed 6144K, reserved 1048576K
