[2021-01-25T22:17:35.523-0300][gc,heap] Heap region size: 1M
[2021-01-25T22:17:35.536-0300][gc     ] Using G1
[2021-01-25T22:17:35.536-0300][gc,heap,coops] Heap address: 0x00000000c0000000, size: 1024 MB, Compressed Oops mode: 32-bit
[2021-01-25T22:17:37.857-0300][gc,start     ] GC(0) Pause Young (Concurrent Start) (Metadata GC Threshold)
[2021-01-25T22:17:37.860-0300][gc,task      ] GC(0) Using 4 workers of 4 for evacuation
[2021-01-25T22:17:37.873-0300][gc,phases    ] GC(0)   Pre Evacuate Collection Set: 0,0ms
[2021-01-25T22:17:37.873-0300][gc,phases    ] GC(0)   Evacuate Collection Set: 12,2ms
[2021-01-25T22:17:37.873-0300][gc,phases    ] GC(0)   Post Evacuate Collection Set: 0,6ms
[2021-01-25T22:17:37.873-0300][gc,phases    ] GC(0)   Other: 3,5ms
[2021-01-25T22:17:37.873-0300][gc,heap      ] GC(0) Eden regions: 41->0(44)
[2021-01-25T22:17:37.873-0300][gc,heap      ] GC(0) Survivor regions: 0->7(7)
[2021-01-25T22:17:37.873-0300][gc,heap      ] GC(0) Old regions: 0->0
[2021-01-25T22:17:37.873-0300][gc,heap      ] GC(0) Humongous regions: 0->0
[2021-01-25T22:17:37.873-0300][gc,metaspace ] GC(0) Metaspace: 20649K->20649K(1069056K)
[2021-01-25T22:17:37.873-0300][gc           ] GC(0) Pause Young (Concurrent Start) (Metadata GC Threshold) 40M->6M(1024M) 16,476ms
[2021-01-25T22:17:37.873-0300][gc,cpu       ] GC(0) User=0,03s Sys=0,00s Real=0,01s
[2021-01-25T22:17:37.873-0300][gc           ] GC(1) Concurrent Cycle
[2021-01-25T22:17:37.873-0300][gc,marking   ] GC(1) Concurrent Clear Claimed Marks
[2021-01-25T22:17:37.873-0300][gc,marking   ] GC(1) Concurrent Clear Claimed Marks 0,046ms
[2021-01-25T22:17:37.873-0300][gc,marking   ] GC(1) Concurrent Scan Root Regions
[2021-01-25T22:17:37.877-0300][gc,marking   ] GC(1) Concurrent Scan Root Regions 3,902ms
[2021-01-25T22:17:37.877-0300][gc,marking   ] GC(1) Concurrent Mark (2,392s)
[2021-01-25T22:17:37.877-0300][gc,marking   ] GC(1) Concurrent Mark From Roots
[2021-01-25T22:17:37.877-0300][gc,task      ] GC(1) Using 1 workers of 1 for marking
[2021-01-25T22:17:37.878-0300][gc,marking   ] GC(1) Concurrent Mark From Roots 1,027ms
[2021-01-25T22:17:37.878-0300][gc,marking   ] GC(1) Concurrent Preclean
[2021-01-25T22:17:37.879-0300][gc,marking   ] GC(1) Concurrent Preclean 0,075ms
[2021-01-25T22:17:37.879-0300][gc,marking   ] GC(1) Concurrent Mark (2,392s, 2,394s) 1,172ms
[2021-01-25T22:17:37.879-0300][gc,start     ] GC(1) Pause Remark
[2021-01-25T22:17:37.881-0300][gc,stringtable] GC(1) Cleaned string and symbol table, strings: 7559 processed, 0 removed, symbols: 64007 processed, 36 removed
[2021-01-25T22:17:37.881-0300][gc            ] GC(1) Pause Remark 6M->6M(1024M) 2,484ms
[2021-01-25T22:17:37.881-0300][gc,cpu        ] GC(1) User=0,01s Sys=0,00s Real=0,00s
[2021-01-25T22:17:37.881-0300][gc,marking    ] GC(1) Concurrent Rebuild Remembered Sets
[2021-01-25T22:17:37.881-0300][gc,marking    ] GC(1) Concurrent Rebuild Remembered Sets 0,111ms
[2021-01-25T22:17:37.881-0300][gc,start      ] GC(1) Pause Cleanup
[2021-01-25T22:17:37.882-0300][gc            ] GC(1) Pause Cleanup 6M->6M(1024M) 0,179ms
[2021-01-25T22:17:37.882-0300][gc,cpu        ] GC(1) User=0,00s Sys=0,00s Real=0,00s
[2021-01-25T22:17:37.882-0300][gc,marking    ] GC(1) Concurrent Cleanup for Next Mark
[2021-01-25T22:17:37.893-0300][gc,marking    ] GC(1) Concurrent Cleanup for Next Mark 11,148ms
[2021-01-25T22:17:37.893-0300][gc            ] GC(1) Concurrent Cycle 19,544ms
[2021-01-25T22:17:42.080-0300][gc,start      ] GC(2) Pause Young (Normal) (G1 Evacuation Pause)
[2021-01-25T22:17:42.080-0300][gc,task       ] GC(2) Using 4 workers of 4 for evacuation
[2021-01-25T22:17:42.098-0300][gc,phases     ] GC(2)   Pre Evacuate Collection Set: 0,0ms
[2021-01-25T22:17:42.099-0300][gc,phases     ] GC(2)   Evacuate Collection Set: 14,9ms
[2021-01-25T22:17:42.099-0300][gc,phases     ] GC(2)   Post Evacuate Collection Set: 3,0ms
[2021-01-25T22:17:42.099-0300][gc,phases     ] GC(2)   Other: 0,4ms
[2021-01-25T22:17:42.099-0300][gc,heap       ] GC(2) Eden regions: 44->0(49)
[2021-01-25T22:17:42.099-0300][gc,heap       ] GC(2) Survivor regions: 7->2(7)
[2021-01-25T22:17:42.099-0300][gc,heap       ] GC(2) Old regions: 0->7
[2021-01-25T22:17:42.099-0300][gc,heap       ] GC(2) Humongous regions: 0->0
[2021-01-25T22:17:42.099-0300][gc,metaspace  ] GC(2) Metaspace: 29335K->29335K(1075200K)
[2021-01-25T22:17:42.099-0300][gc            ] GC(2) Pause Young (Normal) (G1 Evacuation Pause) 50M->7M(1024M) 18,493ms
[2021-01-25T22:17:42.099-0300][gc,cpu        ] GC(2) User=0,03s Sys=0,01s Real=0,02s
[2021-01-25T22:17:44.165-0300][gc,start      ] GC(3) Pause Young (Concurrent Start) (Metadata GC Threshold)
[2021-01-25T22:17:44.165-0300][gc,task       ] GC(3) Using 4 workers of 4 for evacuation
[2021-01-25T22:17:44.171-0300][gc,phases     ] GC(3)   Pre Evacuate Collection Set: 0,1ms
[2021-01-25T22:17:44.171-0300][gc,phases     ] GC(3)   Evacuate Collection Set: 5,6ms
[2021-01-25T22:17:44.171-0300][gc,phases     ] GC(3)   Post Evacuate Collection Set: 0,4ms
[2021-01-25T22:17:44.171-0300][gc,phases     ] GC(3)   Other: 0,2ms
[2021-01-25T22:17:44.171-0300][gc,heap       ] GC(3) Eden regions: 35->0(46)
[2021-01-25T22:17:44.171-0300][gc,heap       ] GC(3) Survivor regions: 2->5(7)
[2021-01-25T22:17:44.171-0300][gc,heap       ] GC(3) Old regions: 7->7
[2021-01-25T22:17:44.171-0300][gc,heap       ] GC(3) Humongous regions: 129->129
[2021-01-25T22:17:44.171-0300][gc,metaspace  ] GC(3) Metaspace: 34896K->34896K(1081344K)
[2021-01-25T22:17:44.171-0300][gc            ] GC(3) Pause Young (Concurrent Start) (Metadata GC Threshold) 171M->139M(1024M) 6,474ms
[2021-01-25T22:17:44.171-0300][gc,cpu        ] GC(3) User=0,02s Sys=0,00s Real=0,01s
[2021-01-25T22:17:44.171-0300][gc            ] GC(4) Concurrent Cycle
[2021-01-25T22:17:44.171-0300][gc,marking    ] GC(4) Concurrent Clear Claimed Marks
[2021-01-25T22:17:44.171-0300][gc,marking    ] GC(4) Concurrent Clear Claimed Marks 0,089ms
[2021-01-25T22:17:44.171-0300][gc,marking    ] GC(4) Concurrent Scan Root Regions
[2021-01-25T22:17:44.176-0300][gc,marking    ] GC(4) Concurrent Scan Root Regions 4,569ms
[2021-01-25T22:17:44.176-0300][gc,marking    ] GC(4) Concurrent Mark (8,691s)
[2021-01-25T22:17:44.176-0300][gc,marking    ] GC(4) Concurrent Mark From Roots
[2021-01-25T22:17:44.176-0300][gc,task       ] GC(4) Using 1 workers of 1 for marking
[2021-01-25T22:17:44.189-0300][gc,marking    ] GC(4) Concurrent Mark From Roots 13,135ms
[2021-01-25T22:17:44.189-0300][gc,marking    ] GC(4) Concurrent Preclean
[2021-01-25T22:17:44.190-0300][gc,marking    ] GC(4) Concurrent Preclean 0,293ms
[2021-01-25T22:17:44.190-0300][gc,marking    ] GC(4) Concurrent Mark (8,691s, 8,705s) 13,641ms
[2021-01-25T22:17:44.190-0300][gc,start      ] GC(4) Pause Remark
[2021-01-25T22:17:44.197-0300][gc,stringtable] GC(4) Cleaned string and symbol table, strings: 11836 processed, 6 removed, symbols: 97229 processed, 23 removed
[2021-01-25T22:17:44.197-0300][gc            ] GC(4) Pause Remark 140M->140M(1024M) 7,625ms
[2021-01-25T22:17:44.198-0300][gc,cpu        ] GC(4) User=0,02s Sys=0,00s Real=0,01s
[2021-01-25T22:17:44.198-0300][gc,marking    ] GC(4) Concurrent Rebuild Remembered Sets
[2021-01-25T22:17:44.204-0300][gc,marking    ] GC(4) Concurrent Rebuild Remembered Sets 6,125ms
[2021-01-25T22:17:44.204-0300][gc,start      ] GC(4) Pause Cleanup
[2021-01-25T22:17:44.204-0300][gc            ] GC(4) Pause Cleanup 141M->141M(1024M) 0,189ms
[2021-01-25T22:17:44.204-0300][gc,cpu        ] GC(4) User=0,00s Sys=0,00s Real=0,00s
[2021-01-25T22:17:44.204-0300][gc,marking    ] GC(4) Concurrent Cleanup for Next Mark
[2021-01-25T22:17:44.213-0300][gc,marking    ] GC(4) Concurrent Cleanup for Next Mark 9,387ms
[2021-01-25T22:17:44.213-0300][gc            ] GC(4) Concurrent Cycle 42,303ms
[2021-01-25T22:17:48.878-0300][gc,start      ] GC(5) Pause Young (Normal) (G1 Evacuation Pause)
[2021-01-25T22:17:48.878-0300][gc,task       ] GC(5) Using 4 workers of 4 for evacuation
[2021-01-25T22:17:48.894-0300][gc,phases     ] GC(5)   Pre Evacuate Collection Set: 0,0ms
[2021-01-25T22:17:48.894-0300][gc,phases     ] GC(5)   Evacuate Collection Set: 15,6ms
[2021-01-25T22:17:48.894-0300][gc,phases     ] GC(5)   Post Evacuate Collection Set: 0,8ms
[2021-01-25T22:17:48.894-0300][gc,phases     ] GC(5)   Other: 0,3ms
[2021-01-25T22:17:48.894-0300][gc,heap       ] GC(5) Eden regions: 46->0(45)
[2021-01-25T22:17:48.894-0300][gc,heap       ] GC(5) Survivor regions: 5->6(7)
[2021-01-25T22:17:48.894-0300][gc,heap       ] GC(5) Old regions: 7->8
[2021-01-25T22:17:48.894-0300][gc,heap       ] GC(5) Humongous regions: 135->135
[2021-01-25T22:17:48.894-0300][gc,metaspace  ] GC(5) Metaspace: 43227K->43227K(1089536K)
[2021-01-25T22:17:48.894-0300][gc            ] GC(5) Pause Young (Normal) (G1 Evacuation Pause) 191M->148M(1024M) 16,885ms
[2021-01-25T22:17:48.894-0300][gc,cpu        ] GC(5) User=0,04s Sys=0,00s Real=0,02s
[2021-01-25T22:24:16.080-0300][gc,start      ] GC(6) Pause Young (Normal) (G1 Evacuation Pause)
[2021-01-25T22:24:16.082-0300][gc,task       ] GC(6) Using 4 workers of 4 for evacuation
[2021-01-25T22:24:16.116-0300][gc,mmu        ] GC(6) MMU target violated: 21,0ms (20,0ms/21,0ms)
[2021-01-25T22:24:16.116-0300][gc,phases     ] GC(6)   Pre Evacuate Collection Set: 1,3ms
[2021-01-25T22:24:16.116-0300][gc,phases     ] GC(6)   Evacuate Collection Set: 27,5ms
[2021-01-25T22:24:16.116-0300][gc,phases     ] GC(6)   Post Evacuate Collection Set: 2,7ms
[2021-01-25T22:24:16.116-0300][gc,phases     ] GC(6)   Other: 16,6ms
[2021-01-25T22:24:16.116-0300][gc,heap       ] GC(6) Eden regions: 45->0(47)
[2021-01-25T22:24:16.116-0300][gc,heap       ] GC(6) Survivor regions: 6->4(7)
[2021-01-25T22:24:16.116-0300][gc,heap       ] GC(6) Old regions: 8->11
[2021-01-25T22:24:16.116-0300][gc,heap       ] GC(6) Humongous regions: 147->129
[2021-01-25T22:24:16.119-0300][gc,metaspace  ] GC(6) Metaspace: 45196K->45196K(1091584K)
[2021-01-25T22:24:16.120-0300][gc            ] GC(6) Pause Young (Normal) (G1 Evacuation Pause) 205M->143M(1024M) 40,132ms
[2021-01-25T22:24:16.120-0300][gc,cpu        ] GC(6) User=0,07s Sys=0,00s Real=0,04s
[2021-01-25T22:44:01.031-0300][gc,start      ] GC(7) Pause Young (Normal) (G1 Evacuation Pause)
[2021-01-25T22:44:01.056-0300][gc,task       ] GC(7) Using 4 workers of 4 for evacuation
[2021-01-25T22:44:01.062-0300][gc,phases     ] GC(7)   Pre Evacuate Collection Set: 0,0ms
[2021-01-25T22:44:01.062-0300][gc,phases     ] GC(7)   Evacuate Collection Set: 4,4ms
[2021-01-25T22:44:01.062-0300][gc,phases     ] GC(7)   Post Evacuate Collection Set: 1,5ms
[2021-01-25T22:44:01.062-0300][gc,phases     ] GC(7)   Other: 24,7ms
[2021-01-25T22:44:01.062-0300][gc,heap       ] GC(7) Eden regions: 47->0(47)
[2021-01-25T22:44:01.062-0300][gc,heap       ] GC(7) Survivor regions: 4->4(7)
[2021-01-25T22:44:01.062-0300][gc,heap       ] GC(7) Old regions: 11->11
[2021-01-25T22:44:01.062-0300][gc,heap       ] GC(7) Humongous regions: 129->129
[2021-01-25T22:44:01.062-0300][gc,metaspace  ] GC(7) Metaspace: 45391K->45391K(1091584K)
[2021-01-25T22:44:01.062-0300][gc            ] GC(7) Pause Young (Normal) (G1 Evacuation Pause) 190M->143M(1024M) 30,681ms
[2021-01-25T22:44:01.062-0300][gc,cpu        ] GC(7) User=0,02s Sys=0,00s Real=0,03s
[2021-01-25T22:53:56.057-0300][gc,start      ] GC(8) Pause Young (Normal) (G1 Evacuation Pause)
[2021-01-25T22:53:56.061-0300][gc,task       ] GC(8) Using 4 workers of 4 for evacuation
[2021-01-25T22:53:56.070-0300][gc,phases     ] GC(8)   Pre Evacuate Collection Set: 0,0ms
[2021-01-25T22:53:56.071-0300][gc,phases     ] GC(8)   Evacuate Collection Set: 8,3ms
[2021-01-25T22:53:56.071-0300][gc,phases     ] GC(8)   Post Evacuate Collection Set: 1,3ms
[2021-01-25T22:53:56.071-0300][gc,phases     ] GC(8)   Other: 3,6ms
[2021-01-25T22:53:56.071-0300][gc,heap       ] GC(8) Eden regions: 47->0(46)
[2021-01-25T22:53:56.071-0300][gc,heap       ] GC(8) Survivor regions: 4->5(7)
[2021-01-25T22:53:56.071-0300][gc,heap       ] GC(8) Old regions: 11->11
[2021-01-25T22:53:56.071-0300][gc,heap       ] GC(8) Humongous regions: 129->129
[2021-01-25T22:53:56.071-0300][gc,metaspace  ] GC(8) Metaspace: 47793K->47793K(1093632K)
[2021-01-25T22:53:56.071-0300][gc            ] GC(8) Pause Young (Normal) (G1 Evacuation Pause) 190M->144M(1024M) 13,395ms
[2021-01-25T22:53:56.071-0300][gc,cpu        ] GC(8) User=0,03s Sys=0,00s Real=0,01s
[2021-01-25T23:01:29.153-0300][gc,start      ] GC(9) Pause Young (Normal) (G1 Evacuation Pause)
[2021-01-25T23:01:29.155-0300][gc,task       ] GC(9) Using 4 workers of 4 for evacuation
[2021-01-25T23:01:29.168-0300][gc,phases     ] GC(9)   Pre Evacuate Collection Set: 0,0ms
[2021-01-25T23:01:29.168-0300][gc,phases     ] GC(9)   Evacuate Collection Set: 10,5ms
[2021-01-25T23:01:29.168-0300][gc,phases     ] GC(9)   Post Evacuate Collection Set: 2,3ms
[2021-01-25T23:01:29.168-0300][gc,phases     ] GC(9)   Other: 2,0ms
[2021-01-25T23:01:29.168-0300][gc,heap       ] GC(9) Eden regions: 46->0(48)
[2021-01-25T23:01:29.168-0300][gc,heap       ] GC(9) Survivor regions: 5->3(7)
[2021-01-25T23:01:29.168-0300][gc,heap       ] GC(9) Old regions: 11->14
[2021-01-25T23:01:29.168-0300][gc,heap       ] GC(9) Humongous regions: 129->129
[2021-01-25T23:01:29.168-0300][gc,metaspace  ] GC(9) Metaspace: 48298K->48298K(1093632K)
[2021-01-25T23:01:29.168-0300][gc            ] GC(9) Pause Young (Normal) (G1 Evacuation Pause) 190M->144M(1024M) 14,946ms
[2021-01-25T23:01:29.168-0300][gc,cpu        ] GC(9) User=0,03s Sys=0,00s Real=0,02s
[2021-01-25T23:05:15.565-0300][gc,start      ] GC(10) Pause Young (Normal) (G1 Evacuation Pause)
[2021-01-25T23:05:15.585-0300][gc,task       ] GC(10) Using 4 workers of 4 for evacuation
[2021-01-25T23:05:15.598-0300][gc,phases     ] GC(10)   Pre Evacuate Collection Set: 0,0ms
[2021-01-25T23:05:15.598-0300][gc,phases     ] GC(10)   Evacuate Collection Set: 4,8ms
[2021-01-25T23:05:15.598-0300][gc,phases     ] GC(10)   Post Evacuate Collection Set: 7,7ms
[2021-01-25T23:05:15.598-0300][gc,phases     ] GC(10)   Other: 21,0ms
[2021-01-25T23:05:15.598-0300][gc,heap       ] GC(10) Eden regions: 48->0(48)
[2021-01-25T23:05:15.598-0300][gc,heap       ] GC(10) Survivor regions: 3->3(7)
[2021-01-25T23:05:15.598-0300][gc,heap       ] GC(10) Old regions: 14->14
[2021-01-25T23:05:15.598-0300][gc,heap       ] GC(10) Humongous regions: 129->129
[2021-01-25T23:05:15.598-0300][gc,metaspace  ] GC(10) Metaspace: 48330K->48330K(1093632K)
[2021-01-25T23:05:15.598-0300][gc            ] GC(10) Pause Young (Normal) (G1 Evacuation Pause) 192M->144M(1024M) 33,618ms
[2021-01-25T23:05:15.598-0300][gc,cpu        ] GC(10) User=0,04s Sys=0,00s Real=0,04s
[2021-01-25T23:07:21.500-0300][gc,heap,exit  ] Heap
[2021-01-25T23:07:21.501-0300][gc,heap,exit  ]  garbage-first heap   total 1048576K, used 172973K [0x00000000c0000000, 0x0000000100000000)
[2021-01-25T23:07:21.501-0300][gc,heap,exit  ]   region size 1024K, 28 young (28672K), 3 survivors (3072K)
[2021-01-25T23:07:21.501-0300][gc,heap,exit  ]  Metaspace       used 49046K, capacity 51472K, committed 51612K, reserved 1093632K
[2021-01-25T23:07:21.501-0300][gc,heap,exit  ]   class space    used 5902K, capacity 7092K, committed 7200K, reserved 1048576K
