[2021-01-25T23:08:02.389-0300][gc,heap] Heap region size: 1M
[2021-01-25T23:08:02.401-0300][gc     ] Using G1
[2021-01-25T23:08:02.401-0300][gc,heap,coops] Heap address: 0x00000000c0000000, size: 1024 MB, Compressed Oops mode: 32-bit
[2021-01-25T23:08:03.896-0300][gc,start     ] GC(0) Pause Young (Concurrent Start) (Metadata GC Threshold)
[2021-01-25T23:08:03.896-0300][gc,task      ] GC(0) Using 4 workers of 4 for evacuation
[2021-01-25T23:08:03.922-0300][gc,mmu       ] GC(0) MMU target violated: 21,0ms (20,0ms/21,0ms)
[2021-01-25T23:08:03.922-0300][gc,phases    ] GC(0)   Pre Evacuate Collection Set: 0,0ms
[2021-01-25T23:08:03.922-0300][gc,phases    ] GC(0)   Evacuate Collection Set: 25,4ms
[2021-01-25T23:08:03.922-0300][gc,phases    ] GC(0)   Post Evacuate Collection Set: 0,7ms
[2021-01-25T23:08:03.922-0300][gc,phases    ] GC(0)   Other: 0,7ms
[2021-01-25T23:08:03.922-0300][gc,heap      ] GC(0) Eden regions: 42->0(44)
[2021-01-25T23:08:03.922-0300][gc,heap      ] GC(0) Survivor regions: 0->7(7)
[2021-01-25T23:08:03.922-0300][gc,heap      ] GC(0) Old regions: 0->0
[2021-01-25T23:08:03.922-0300][gc,heap      ] GC(0) Humongous regions: 0->0
[2021-01-25T23:08:03.922-0300][gc,metaspace ] GC(0) Metaspace: 20825K->20825K(1069056K)
[2021-01-25T23:08:03.923-0300][gc           ] GC(0) Pause Young (Concurrent Start) (Metadata GC Threshold) 41M->6M(1024M) 26,932ms
[2021-01-25T23:08:03.923-0300][gc,cpu       ] GC(0) User=0,06s Sys=0,00s Real=0,02s
[2021-01-25T23:08:03.923-0300][gc           ] GC(1) Concurrent Cycle
[2021-01-25T23:08:03.923-0300][gc,marking   ] GC(1) Concurrent Clear Claimed Marks
[2021-01-25T23:08:03.923-0300][gc,marking   ] GC(1) Concurrent Clear Claimed Marks 0,056ms
[2021-01-25T23:08:03.923-0300][gc,marking   ] GC(1) Concurrent Scan Root Regions
[2021-01-25T23:08:03.927-0300][gc,marking   ] GC(1) Concurrent Scan Root Regions 4,414ms
[2021-01-25T23:08:03.927-0300][gc,marking   ] GC(1) Concurrent Mark (1,542s)
[2021-01-25T23:08:03.927-0300][gc,marking   ] GC(1) Concurrent Mark From Roots
[2021-01-25T23:08:03.927-0300][gc,task      ] GC(1) Using 1 workers of 1 for marking
[2021-01-25T23:08:03.930-0300][gc,marking   ] GC(1) Concurrent Mark From Roots 2,586ms
[2021-01-25T23:08:03.930-0300][gc,marking   ] GC(1) Concurrent Preclean
[2021-01-25T23:08:03.930-0300][gc,marking   ] GC(1) Concurrent Preclean 0,088ms
[2021-01-25T23:08:03.930-0300][gc,marking   ] GC(1) Concurrent Mark (1,542s, 1,544s) 2,738ms
[2021-01-25T23:08:03.931-0300][gc,start     ] GC(1) Pause Remark
[2021-01-25T23:08:03.935-0300][gc,stringtable] GC(1) Cleaned string and symbol table, strings: 7640 processed, 0 removed, symbols: 64578 processed, 33 removed
[2021-01-25T23:08:03.935-0300][gc            ] GC(1) Pause Remark 6M->6M(1024M) 3,686ms
[2021-01-25T23:08:03.935-0300][gc,cpu        ] GC(1) User=0,01s Sys=0,00s Real=0,01s
[2021-01-25T23:08:03.935-0300][gc,marking    ] GC(1) Concurrent Rebuild Remembered Sets
[2021-01-25T23:08:03.935-0300][gc,marking    ] GC(1) Concurrent Rebuild Remembered Sets 0,122ms
[2021-01-25T23:08:03.935-0300][gc,start      ] GC(1) Pause Cleanup
[2021-01-25T23:08:03.935-0300][gc            ] GC(1) Pause Cleanup 6M->6M(1024M) 0,183ms
[2021-01-25T23:08:03.935-0300][gc,cpu        ] GC(1) User=0,00s Sys=0,00s Real=0,00s
[2021-01-25T23:08:03.935-0300][gc,marking    ] GC(1) Concurrent Cleanup for Next Mark
[2021-01-25T23:08:03.947-0300][gc,marking    ] GC(1) Concurrent Cleanup for Next Mark 11,421ms
[2021-01-25T23:08:03.947-0300][gc            ] GC(1) Concurrent Cycle 24,248ms
[2021-01-25T23:08:06.860-0300][gc,start      ] GC(2) Pause Young (Normal) (G1 Evacuation Pause)
[2021-01-25T23:08:06.860-0300][gc,task       ] GC(2) Using 4 workers of 4 for evacuation
[2021-01-25T23:08:06.881-0300][gc,mmu        ] GC(2) MMU target violated: 21,0ms (20,0ms/21,0ms)
[2021-01-25T23:08:06.881-0300][gc,phases     ] GC(2)   Pre Evacuate Collection Set: 0,0ms
[2021-01-25T23:08:06.881-0300][gc,phases     ] GC(2)   Evacuate Collection Set: 20,1ms
[2021-01-25T23:08:06.881-0300][gc,phases     ] GC(2)   Post Evacuate Collection Set: 0,8ms
[2021-01-25T23:08:06.881-0300][gc,phases     ] GC(2)   Other: 0,2ms
[2021-01-25T23:08:06.881-0300][gc,heap       ] GC(2) Eden regions: 44->0(49)
[2021-01-25T23:08:06.881-0300][gc,heap       ] GC(2) Survivor regions: 7->2(7)
[2021-01-25T23:08:06.881-0300][gc,heap       ] GC(2) Old regions: 0->7
[2021-01-25T23:08:06.881-0300][gc,heap       ] GC(2) Humongous regions: 0->0
[2021-01-25T23:08:06.881-0300][gc,metaspace  ] GC(2) Metaspace: 29398K->29398K(1075200K)
[2021-01-25T23:08:06.881-0300][gc            ] GC(2) Pause Young (Normal) (G1 Evacuation Pause) 50M->8M(1024M) 21,235ms
[2021-01-25T23:08:06.881-0300][gc,cpu        ] GC(2) User=0,03s Sys=0,01s Real=0,02s
[2021-01-25T23:08:07.861-0300][gc,start      ] GC(3) Pause Young (Concurrent Start) (Metadata GC Threshold)
[2021-01-25T23:08:07.861-0300][gc,task       ] GC(3) Using 4 workers of 4 for evacuation
[2021-01-25T23:08:07.875-0300][gc,phases     ] GC(3)   Pre Evacuate Collection Set: 0,1ms
[2021-01-25T23:08:07.875-0300][gc,phases     ] GC(3)   Evacuate Collection Set: 13,0ms
[2021-01-25T23:08:07.875-0300][gc,phases     ] GC(3)   Post Evacuate Collection Set: 0,5ms
[2021-01-25T23:08:07.875-0300][gc,phases     ] GC(3)   Other: 0,3ms
[2021-01-25T23:08:07.875-0300][gc,heap       ] GC(3) Eden regions: 34->0(46)
[2021-01-25T23:08:07.875-0300][gc,heap       ] GC(3) Survivor regions: 2->5(7)
[2021-01-25T23:08:07.875-0300][gc,heap       ] GC(3) Old regions: 7->7
[2021-01-25T23:08:07.875-0300][gc,heap       ] GC(3) Humongous regions: 129->129
[2021-01-25T23:08:07.875-0300][gc,metaspace  ] GC(3) Metaspace: 35074K->35074K(1081344K)
[2021-01-25T23:08:07.875-0300][gc            ] GC(3) Pause Young (Concurrent Start) (Metadata GC Threshold) 171M->139M(1024M) 14,020ms
[2021-01-25T23:08:07.875-0300][gc,cpu        ] GC(3) User=0,04s Sys=0,00s Real=0,02s
[2021-01-25T23:08:07.875-0300][gc            ] GC(4) Concurrent Cycle
[2021-01-25T23:08:07.875-0300][gc,marking    ] GC(4) Concurrent Clear Claimed Marks
[2021-01-25T23:08:07.875-0300][gc,marking    ] GC(4) Concurrent Clear Claimed Marks 0,082ms
[2021-01-25T23:08:07.875-0300][gc,marking    ] GC(4) Concurrent Scan Root Regions
[2021-01-25T23:08:07.882-0300][gc,marking    ] GC(4) Concurrent Scan Root Regions 7,184ms
[2021-01-25T23:08:07.882-0300][gc,marking    ] GC(4) Concurrent Mark (5,497s)
[2021-01-25T23:08:07.882-0300][gc,marking    ] GC(4) Concurrent Mark From Roots
[2021-01-25T23:08:07.882-0300][gc,task       ] GC(4) Using 1 workers of 1 for marking
[2021-01-25T23:08:07.905-0300][gc,marking    ] GC(4) Concurrent Mark From Roots 22,650ms
[2021-01-25T23:08:07.905-0300][gc,marking    ] GC(4) Concurrent Preclean
[2021-01-25T23:08:07.905-0300][gc,marking    ] GC(4) Concurrent Preclean 0,155ms
[2021-01-25T23:08:07.905-0300][gc,marking    ] GC(4) Concurrent Mark (5,497s, 5,520s) 22,891ms
[2021-01-25T23:08:07.905-0300][gc,start      ] GC(4) Pause Remark
[2021-01-25T23:08:07.913-0300][gc,stringtable] GC(4) Cleaned string and symbol table, strings: 11966 processed, 8 removed, symbols: 97685 processed, 23 removed
[2021-01-25T23:08:07.913-0300][gc            ] GC(4) Pause Remark 141M->141M(1024M) 7,935ms
[2021-01-25T23:08:07.913-0300][gc,cpu        ] GC(4) User=0,01s Sys=0,00s Real=0,01s
[2021-01-25T23:08:07.913-0300][gc,marking    ] GC(4) Concurrent Rebuild Remembered Sets
[2021-01-25T23:08:07.925-0300][gc,marking    ] GC(4) Concurrent Rebuild Remembered Sets 12,025ms
[2021-01-25T23:08:07.939-0300][gc,start      ] GC(4) Pause Cleanup
[2021-01-25T23:08:07.940-0300][gc            ] GC(4) Pause Cleanup 141M->141M(1024M) 0,304ms
[2021-01-25T23:08:07.940-0300][gc,cpu        ] GC(4) User=0,00s Sys=0,00s Real=0,00s
[2021-01-25T23:08:07.940-0300][gc,marking    ] GC(4) Concurrent Cleanup for Next Mark
[2021-01-25T23:08:07.972-0300][gc,marking    ] GC(4) Concurrent Cleanup for Next Mark 32,319ms
[2021-01-25T23:08:07.972-0300][gc            ] GC(4) Concurrent Cycle 97,311ms
[2021-01-25T23:09:03.311-0300][gc,start      ] GC(5) Pause Young (Normal) (G1 Evacuation Pause)
[2021-01-25T23:09:03.311-0300][gc,task       ] GC(5) Using 4 workers of 4 for evacuation
[2021-01-25T23:09:03.328-0300][gc,phases     ] GC(5)   Pre Evacuate Collection Set: 0,0ms
[2021-01-25T23:09:03.328-0300][gc,phases     ] GC(5)   Evacuate Collection Set: 16,0ms
[2021-01-25T23:09:03.328-0300][gc,phases     ] GC(5)   Post Evacuate Collection Set: 0,6ms
[2021-01-25T23:09:03.328-0300][gc,phases     ] GC(5)   Other: 0,3ms
[2021-01-25T23:09:03.328-0300][gc,heap       ] GC(5) Eden regions: 46->0(46)
[2021-01-25T23:09:03.328-0300][gc,heap       ] GC(5) Survivor regions: 5->5(7)
[2021-01-25T23:09:03.328-0300][gc,heap       ] GC(5) Old regions: 7->8
[2021-01-25T23:09:03.328-0300][gc,heap       ] GC(5) Humongous regions: 153->129
[2021-01-25T23:09:03.328-0300][gc,metaspace  ] GC(5) Metaspace: 42924K->42924K(1087488K)
[2021-01-25T23:09:03.328-0300][gc            ] GC(5) Pause Young (Normal) (G1 Evacuation Pause) 209M->141M(1024M) 17,031ms
[2021-01-25T23:09:03.328-0300][gc,cpu        ] GC(5) User=0,04s Sys=0,00s Real=0,02s
[2021-01-25T23:09:06.668-0300][gc,heap,exit  ] Heap
[2021-01-25T23:09:06.668-0300][gc,heap,exit  ]  garbage-first heap   total 1048576K, used 152301K [0x00000000c0000000, 0x0000000100000000)
[2021-01-25T23:09:06.668-0300][gc,heap,exit  ]   region size 1024K, 13 young (13312K), 5 survivors (5120K)
[2021-01-25T23:09:06.668-0300][gc,heap,exit  ]  Metaspace       used 43379K, capacity 44912K, committed 45084K, reserved 1089536K
[2021-01-25T23:09:06.668-0300][gc,heap,exit  ]   class space    used 4932K, capacity 5655K, committed 5708K, reserved 1048576K
