[2021-01-25T23:09:09.665-0300][gc,heap] Heap region size: 1M
[2021-01-25T23:09:09.680-0300][gc     ] Using G1
[2021-01-25T23:09:09.680-0300][gc,heap,coops] Heap address: 0x00000000c0000000, size: 1024 MB, Compressed Oops mode: 32-bit
[2021-01-25T23:09:11.268-0300][gc,start     ] GC(0) Pause Young (Concurrent Start) (Metadata GC Threshold)
[2021-01-25T23:09:11.271-0300][gc,task      ] GC(0) Using 4 workers of 4 for evacuation
[2021-01-25T23:09:11.282-0300][gc,phases    ] GC(0)   Pre Evacuate Collection Set: 0,0ms
[2021-01-25T23:09:11.282-0300][gc,phases    ] GC(0)   Evacuate Collection Set: 10,2ms
[2021-01-25T23:09:11.282-0300][gc,phases    ] GC(0)   Post Evacuate Collection Set: 0,6ms
[2021-01-25T23:09:11.282-0300][gc,phases    ] GC(0)   Other: 3,3ms
[2021-01-25T23:09:11.282-0300][gc,heap      ] GC(0) Eden regions: 41->0(44)
[2021-01-25T23:09:11.282-0300][gc,heap      ] GC(0) Survivor regions: 0->7(7)
[2021-01-25T23:09:11.282-0300][gc,heap      ] GC(0) Old regions: 0->0
[2021-01-25T23:09:11.282-0300][gc,heap      ] GC(0) Humongous regions: 0->0
[2021-01-25T23:09:11.282-0300][gc,metaspace ] GC(0) Metaspace: 20688K->20688K(1069056K)
[2021-01-25T23:09:11.282-0300][gc           ] GC(0) Pause Young (Concurrent Start) (Metadata GC Threshold) 41M->6M(1024M) 14,230ms
[2021-01-25T23:09:11.282-0300][gc,cpu       ] GC(0) User=0,03s Sys=0,01s Real=0,01s
[2021-01-25T23:09:11.283-0300][gc           ] GC(1) Concurrent Cycle
[2021-01-25T23:09:11.283-0300][gc,marking   ] GC(1) Concurrent Clear Claimed Marks
[2021-01-25T23:09:11.283-0300][gc,marking   ] GC(1) Concurrent Clear Claimed Marks 0,034ms
[2021-01-25T23:09:11.283-0300][gc,marking   ] GC(1) Concurrent Scan Root Regions
[2021-01-25T23:09:11.287-0300][gc,marking   ] GC(1) Concurrent Scan Root Regions 3,957ms
[2021-01-25T23:09:11.287-0300][gc,marking   ] GC(1) Concurrent Mark (1,627s)
[2021-01-25T23:09:11.287-0300][gc,marking   ] GC(1) Concurrent Mark From Roots
[2021-01-25T23:09:11.287-0300][gc,task      ] GC(1) Using 1 workers of 1 for marking
[2021-01-25T23:09:11.288-0300][gc,marking   ] GC(1) Concurrent Mark From Roots 1,030ms
[2021-01-25T23:09:11.288-0300][gc,marking   ] GC(1) Concurrent Preclean
[2021-01-25T23:09:11.288-0300][gc,marking   ] GC(1) Concurrent Preclean 0,078ms
[2021-01-25T23:09:11.288-0300][gc,marking   ] GC(1) Concurrent Mark (1,627s, 1,628s) 1,147ms
[2021-01-25T23:09:11.291-0300][gc,start     ] GC(1) Pause Remark
[2021-01-25T23:09:11.305-0300][gc,stringtable] GC(1) Cleaned string and symbol table, strings: 7569 processed, 0 removed, symbols: 64243 processed, 34 removed
[2021-01-25T23:09:11.306-0300][gc            ] GC(1) Pause Remark 7M->7M(1024M) 14,474ms
[2021-01-25T23:09:11.306-0300][gc,cpu        ] GC(1) User=0,03s Sys=0,00s Real=0,02s
[2021-01-25T23:09:11.306-0300][gc,marking    ] GC(1) Concurrent Rebuild Remembered Sets
[2021-01-25T23:09:11.306-0300][gc,marking    ] GC(1) Concurrent Rebuild Remembered Sets 0,127ms
[2021-01-25T23:09:11.306-0300][gc,start      ] GC(1) Pause Cleanup
[2021-01-25T23:09:11.306-0300][gc            ] GC(1) Pause Cleanup 7M->7M(1024M) 0,311ms
[2021-01-25T23:09:11.306-0300][gc,cpu        ] GC(1) User=0,00s Sys=0,00s Real=0,00s
[2021-01-25T23:09:11.306-0300][gc,marking    ] GC(1) Concurrent Cleanup for Next Mark
[2021-01-25T23:09:11.325-0300][gc,marking    ] GC(1) Concurrent Cleanup for Next Mark 18,191ms
[2021-01-25T23:09:11.325-0300][gc            ] GC(1) Concurrent Cycle 41,983ms
[2021-01-25T23:09:14.092-0300][gc,start      ] GC(2) Pause Young (Normal) (G1 Evacuation Pause)
[2021-01-25T23:09:14.092-0300][gc,task       ] GC(2) Using 4 workers of 4 for evacuation
[2021-01-25T23:09:14.108-0300][gc,phases     ] GC(2)   Pre Evacuate Collection Set: 0,0ms
[2021-01-25T23:09:14.108-0300][gc,phases     ] GC(2)   Evacuate Collection Set: 14,5ms
[2021-01-25T23:09:14.108-0300][gc,phases     ] GC(2)   Post Evacuate Collection Set: 0,9ms
[2021-01-25T23:09:14.108-0300][gc,phases     ] GC(2)   Other: 0,3ms
[2021-01-25T23:09:14.108-0300][gc,heap       ] GC(2) Eden regions: 44->0(48)
[2021-01-25T23:09:14.108-0300][gc,heap       ] GC(2) Survivor regions: 7->3(7)
[2021-01-25T23:09:14.108-0300][gc,heap       ] GC(2) Old regions: 0->7
[2021-01-25T23:09:14.108-0300][gc,heap       ] GC(2) Humongous regions: 0->0
[2021-01-25T23:09:14.108-0300][gc,metaspace  ] GC(2) Metaspace: 29341K->29341K(1075200K)
[2021-01-25T23:09:14.108-0300][gc            ] GC(2) Pause Young (Normal) (G1 Evacuation Pause) 50M->8M(1024M) 15,942ms
[2021-01-25T23:09:14.108-0300][gc,cpu        ] GC(2) User=0,03s Sys=0,00s Real=0,02s
[2021-01-25T23:09:15.148-0300][gc,start      ] GC(3) Pause Young (Concurrent Start) (Metadata GC Threshold)
[2021-01-25T23:09:15.148-0300][gc,task       ] GC(3) Using 4 workers of 4 for evacuation
[2021-01-25T23:09:15.182-0300][gc,mmu        ] GC(3) MMU target violated: 21,0ms (20,0ms/21,0ms)
[2021-01-25T23:09:15.182-0300][gc,phases     ] GC(3)   Pre Evacuate Collection Set: 0,1ms
[2021-01-25T23:09:15.182-0300][gc,phases     ] GC(3)   Evacuate Collection Set: 32,7ms
[2021-01-25T23:09:15.182-0300][gc,phases     ] GC(3)   Post Evacuate Collection Set: 0,7ms
[2021-01-25T23:09:15.182-0300][gc,phases     ] GC(3)   Other: 0,4ms
[2021-01-25T23:09:15.182-0300][gc,heap       ] GC(3) Eden regions: 34->0(46)
[2021-01-25T23:09:15.182-0300][gc,heap       ] GC(3) Survivor regions: 3->5(7)
[2021-01-25T23:09:15.182-0300][gc,heap       ] GC(3) Old regions: 7->7
[2021-01-25T23:09:15.182-0300][gc,heap       ] GC(3) Humongous regions: 129->129
[2021-01-25T23:09:15.182-0300][gc,metaspace  ] GC(3) Metaspace: 34917K->34917K(1081344K)
[2021-01-25T23:09:15.182-0300][gc            ] GC(3) Pause Young (Concurrent Start) (Metadata GC Threshold) 171M->139M(1024M) 33,992ms
[2021-01-25T23:09:15.182-0300][gc,cpu        ] GC(3) User=0,07s Sys=0,00s Real=0,03s
[2021-01-25T23:09:15.182-0300][gc            ] GC(4) Concurrent Cycle
[2021-01-25T23:09:15.182-0300][gc,marking    ] GC(4) Concurrent Clear Claimed Marks
[2021-01-25T23:09:15.182-0300][gc,marking    ] GC(4) Concurrent Clear Claimed Marks 0,074ms
[2021-01-25T23:09:15.182-0300][gc,marking    ] GC(4) Concurrent Scan Root Regions
[2021-01-25T23:09:15.187-0300][gc,marking    ] GC(4) Concurrent Scan Root Regions 4,838ms
[2021-01-25T23:09:15.187-0300][gc,marking    ] GC(4) Concurrent Mark (5,527s)
[2021-01-25T23:09:15.187-0300][gc,marking    ] GC(4) Concurrent Mark From Roots
[2021-01-25T23:09:15.187-0300][gc,task       ] GC(4) Using 1 workers of 1 for marking
[2021-01-25T23:09:15.214-0300][gc,marking    ] GC(4) Concurrent Mark From Roots 26,454ms
[2021-01-25T23:09:15.214-0300][gc,marking    ] GC(4) Concurrent Preclean
[2021-01-25T23:09:15.214-0300][gc,marking    ] GC(4) Concurrent Preclean 0,161ms
[2021-01-25T23:09:15.214-0300][gc,marking    ] GC(4) Concurrent Mark (5,527s, 5,554s) 26,704ms
[2021-01-25T23:09:15.234-0300][gc,start      ] GC(4) Pause Remark
[2021-01-25T23:09:15.256-0300][gc,stringtable] GC(4) Cleaned string and symbol table, strings: 11838 processed, 6 removed, symbols: 97193 processed, 23 removed
[2021-01-25T23:09:15.256-0300][gc,mmu        ] GC(4) MMU target violated: 21,0ms (20,0ms/21,0ms)
[2021-01-25T23:09:15.256-0300][gc            ] GC(4) Pause Remark 140M->140M(1024M) 22,399ms
[2021-01-25T23:09:15.256-0300][gc,cpu        ] GC(4) User=0,02s Sys=0,00s Real=0,02s
[2021-01-25T23:09:15.256-0300][gc,marking    ] GC(4) Concurrent Rebuild Remembered Sets
[2021-01-25T23:09:15.280-0300][gc,marking    ] GC(4) Concurrent Rebuild Remembered Sets 23,923ms
[2021-01-25T23:09:15.280-0300][gc,start      ] GC(4) Pause Cleanup
[2021-01-25T23:09:15.281-0300][gc            ] GC(4) Pause Cleanup 141M->141M(1024M) 0,322ms
[2021-01-25T23:09:15.281-0300][gc,cpu        ] GC(4) User=0,00s Sys=0,00s Real=0,00s
[2021-01-25T23:09:15.281-0300][gc,marking    ] GC(4) Concurrent Cleanup for Next Mark
[2021-01-25T23:09:15.295-0300][gc,marking    ] GC(4) Concurrent Cleanup for Next Mark 14,247ms
[2021-01-25T23:09:15.295-0300][gc            ] GC(4) Concurrent Cycle 112,709ms
[2021-01-25T23:10:29.543-0300][gc,start      ] GC(5) Pause Young (Normal) (G1 Evacuation Pause)
[2021-01-25T23:10:29.543-0300][gc,task       ] GC(5) Using 4 workers of 4 for evacuation
[2021-01-25T23:10:29.562-0300][gc,phases     ] GC(5)   Pre Evacuate Collection Set: 0,0ms
[2021-01-25T23:10:29.562-0300][gc,phases     ] GC(5)   Evacuate Collection Set: 18,1ms
[2021-01-25T23:10:29.562-0300][gc,phases     ] GC(5)   Post Evacuate Collection Set: 0,6ms
[2021-01-25T23:10:29.562-0300][gc,phases     ] GC(5)   Other: 0,6ms
[2021-01-25T23:10:29.562-0300][gc,heap       ] GC(5) Eden regions: 46->0(45)
[2021-01-25T23:10:29.562-0300][gc,heap       ] GC(5) Survivor regions: 5->6(7)
[2021-01-25T23:10:29.562-0300][gc,heap       ] GC(5) Old regions: 7->8
[2021-01-25T23:10:29.562-0300][gc,heap       ] GC(5) Humongous regions: 153->129
[2021-01-25T23:10:29.562-0300][gc,metaspace  ] GC(5) Metaspace: 43000K->43000K(1089536K)
[2021-01-25T23:10:29.562-0300][gc            ] GC(5) Pause Young (Normal) (G1 Evacuation Pause) 209M->142M(1024M) 19,433ms
[2021-01-25T23:10:29.562-0300][gc,cpu        ] GC(5) User=0,06s Sys=0,00s Real=0,02s
[2021-01-25T23:14:42.044-0300][gc,heap,exit  ] Heap
[2021-01-25T23:14:42.044-0300][gc,heap,exit  ]  garbage-first heap   total 1048576K, used 169558K [0x00000000c0000000, 0x0000000100000000)
[2021-01-25T23:14:42.044-0300][gc,heap,exit  ]   region size 1024K, 30 young (30720K), 6 survivors (6144K)
[2021-01-25T23:14:42.044-0300][gc,heap,exit  ]  Metaspace       used 44091K, capacity 45645K, committed 45776K, reserved 1089536K
[2021-01-25T23:14:42.044-0300][gc,heap,exit  ]   class space    used 5005K, capacity 5741K, committed 5760K, reserved 1048576K
