[2020-12-29T19:35:38.538-0300][gc,heap] Heap region size: 1M
[2020-12-29T19:35:38.552-0300][gc     ] Using G1
[2020-12-29T19:35:38.552-0300][gc,heap,coops] Heap address: 0x00000000c0000000, size: 1024 MB, Compressed Oops mode: 32-bit
[2020-12-29T19:35:40.258-0300][gc,start     ] GC(0) Pause Young (Concurrent Start) (Metadata GC Threshold)
[2020-12-29T19:35:40.261-0300][gc,task      ] GC(0) Using 4 workers of 4 for evacuation
[2020-12-29T19:35:40.283-0300][gc,mmu       ] GC(0) MMU target violated: 21,0ms (20,0ms/21,0ms)
[2020-12-29T19:35:40.283-0300][gc,phases    ] GC(0)   Pre Evacuate Collection Set: 0,1ms
[2020-12-29T19:35:40.283-0300][gc,phases    ] GC(0)   Evacuate Collection Set: 20,4ms
[2020-12-29T19:35:40.283-0300][gc,phases    ] GC(0)   Post Evacuate Collection Set: 0,8ms
[2020-12-29T19:35:40.283-0300][gc,phases    ] GC(0)   Other: 3,7ms
[2020-12-29T19:35:40.283-0300][gc,heap      ] GC(0) Eden regions: 41->0(44)
[2020-12-29T19:35:40.283-0300][gc,heap      ] GC(0) Survivor regions: 0->7(7)
[2020-12-29T19:35:40.283-0300][gc,heap      ] GC(0) Old regions: 0->0
[2020-12-29T19:35:40.283-0300][gc,heap      ] GC(0) Humongous regions: 0->0
[2020-12-29T19:35:40.283-0300][gc,metaspace ] GC(0) Metaspace: 20669K->20669K(1069056K)
[2020-12-29T19:35:40.283-0300][gc           ] GC(0) Pause Young (Concurrent Start) (Metadata GC Threshold) 40M->6M(1024M) 25,075ms
[2020-12-29T19:35:40.283-0300][gc,cpu       ] GC(0) User=0,03s Sys=0,01s Real=0,03s
[2020-12-29T19:35:40.283-0300][gc           ] GC(1) Concurrent Cycle
[2020-12-29T19:35:40.283-0300][gc,marking   ] GC(1) Concurrent Clear Claimed Marks
[2020-12-29T19:35:40.283-0300][gc,marking   ] GC(1) Concurrent Clear Claimed Marks 0,047ms
[2020-12-29T19:35:40.283-0300][gc,marking   ] GC(1) Concurrent Scan Root Regions
[2020-12-29T19:35:40.289-0300][gc,marking   ] GC(1) Concurrent Scan Root Regions 5,395ms
[2020-12-29T19:35:40.289-0300][gc,marking   ] GC(1) Concurrent Mark (1,755s)
[2020-12-29T19:35:40.289-0300][gc,marking   ] GC(1) Concurrent Mark From Roots
[2020-12-29T19:35:40.289-0300][gc,task      ] GC(1) Using 1 workers of 1 for marking
[2020-12-29T19:35:40.290-0300][gc,marking   ] GC(1) Concurrent Mark From Roots 1,107ms
[2020-12-29T19:35:40.290-0300][gc,marking   ] GC(1) Concurrent Preclean
[2020-12-29T19:35:40.290-0300][gc,marking   ] GC(1) Concurrent Preclean 0,086ms
[2020-12-29T19:35:40.290-0300][gc,marking   ] GC(1) Concurrent Mark (1,755s, 1,756s) 1,276ms
[2020-12-29T19:35:40.301-0300][gc,start     ] GC(1) Pause Remark
[2020-12-29T19:35:40.306-0300][gc,stringtable] GC(1) Cleaned string and symbol table, strings: 7585 processed, 0 removed, symbols: 64328 processed, 34 removed
[2020-12-29T19:35:40.306-0300][gc            ] GC(1) Pause Remark 6M->6M(1024M) 5,137ms
[2020-12-29T19:35:40.306-0300][gc,cpu        ] GC(1) User=0,00s Sys=0,00s Real=0,01s
[2020-12-29T19:35:40.308-0300][gc,marking    ] GC(1) Concurrent Rebuild Remembered Sets
[2020-12-29T19:35:40.308-0300][gc,marking    ] GC(1) Concurrent Rebuild Remembered Sets 0,250ms
[2020-12-29T19:35:40.311-0300][gc,start      ] GC(1) Pause Cleanup
[2020-12-29T19:35:40.311-0300][gc            ] GC(1) Pause Cleanup 6M->6M(1024M) 0,411ms
[2020-12-29T19:35:40.311-0300][gc,cpu        ] GC(1) User=0,00s Sys=0,00s Real=0,00s
[2020-12-29T19:35:40.313-0300][gc,marking    ] GC(1) Concurrent Cleanup for Next Mark
[2020-12-29T19:35:40.327-0300][gc,marking    ] GC(1) Concurrent Cleanup for Next Mark 13,520ms
[2020-12-29T19:35:40.327-0300][gc            ] GC(1) Concurrent Cycle 43,756ms
[2020-12-29T19:35:41.586-0300][gc,start      ] GC(2) Pause Young (Normal) (G1 Evacuation Pause)
[2020-12-29T19:35:41.586-0300][gc,task       ] GC(2) Using 4 workers of 4 for evacuation
[2020-12-29T19:35:41.614-0300][gc,mmu        ] GC(2) MMU target violated: 21,0ms (20,0ms/21,0ms)
[2020-12-29T19:35:41.614-0300][gc,phases     ] GC(2)   Pre Evacuate Collection Set: 0,0ms
[2020-12-29T19:35:41.614-0300][gc,phases     ] GC(2)   Evacuate Collection Set: 27,2ms
[2020-12-29T19:35:41.614-0300][gc,phases     ] GC(2)   Post Evacuate Collection Set: 0,8ms
[2020-12-29T19:35:41.614-0300][gc,phases     ] GC(2)   Other: 0,3ms
[2020-12-29T19:35:41.614-0300][gc,heap       ] GC(2) Eden regions: 44->0(48)
[2020-12-29T19:35:41.614-0300][gc,heap       ] GC(2) Survivor regions: 7->3(7)
[2020-12-29T19:35:41.614-0300][gc,heap       ] GC(2) Old regions: 0->7
[2020-12-29T19:35:41.614-0300][gc,heap       ] GC(2) Humongous regions: 129->129
[2020-12-29T19:35:41.614-0300][gc,metaspace  ] GC(2) Metaspace: 30760K->30760K(1077248K)
[2020-12-29T19:35:41.614-0300][gc            ] GC(2) Pause Young (Normal) (G1 Evacuation Pause) 179M->137M(1024M) 28,456ms
[2020-12-29T19:35:41.614-0300][gc,cpu        ] GC(2) User=0,04s Sys=0,00s Real=0,03s
[2020-12-29T19:35:42.509-0300][gc,start      ] GC(3) Pause Young (Concurrent Start) (Metadata GC Threshold)
[2020-12-29T19:35:42.510-0300][gc,task       ] GC(3) Using 4 workers of 4 for evacuation
[2020-12-29T19:35:42.539-0300][gc,mmu        ] GC(3) MMU target violated: 21,0ms (20,0ms/21,0ms)
[2020-12-29T19:35:42.539-0300][gc,phases     ] GC(3)   Pre Evacuate Collection Set: 0,1ms
[2020-12-29T19:35:42.539-0300][gc,phases     ] GC(3)   Evacuate Collection Set: 28,6ms
[2020-12-29T19:35:42.539-0300][gc,phases     ] GC(3)   Post Evacuate Collection Set: 0,6ms
[2020-12-29T19:35:42.539-0300][gc,phases     ] GC(3)   Other: 0,4ms
[2020-12-29T19:35:42.539-0300][gc,heap       ] GC(3) Eden regions: 23->0(46)
[2020-12-29T19:35:42.539-0300][gc,heap       ] GC(3) Survivor regions: 3->5(7)
[2020-12-29T19:35:42.539-0300][gc,heap       ] GC(3) Old regions: 7->7
[2020-12-29T19:35:42.539-0300][gc,heap       ] GC(3) Humongous regions: 129->129
[2020-12-29T19:35:42.539-0300][gc,metaspace  ] GC(3) Metaspace: 34708K->34708K(1081344K)
[2020-12-29T19:35:42.539-0300][gc            ] GC(3) Pause Young (Concurrent Start) (Metadata GC Threshold) 160M->139M(1024M) 29,807ms
[2020-12-29T19:35:42.539-0300][gc,cpu        ] GC(3) User=0,03s Sys=0,00s Real=0,02s
[2020-12-29T19:35:42.539-0300][gc            ] GC(4) Concurrent Cycle
[2020-12-29T19:35:42.539-0300][gc,marking    ] GC(4) Concurrent Clear Claimed Marks
[2020-12-29T19:35:42.539-0300][gc,marking    ] GC(4) Concurrent Clear Claimed Marks 0,089ms
[2020-12-29T19:35:42.539-0300][gc,marking    ] GC(4) Concurrent Scan Root Regions
[2020-12-29T19:35:42.544-0300][gc,marking    ] GC(4) Concurrent Scan Root Regions 4,750ms
[2020-12-29T19:35:42.544-0300][gc,marking    ] GC(4) Concurrent Mark (4,010s)
[2020-12-29T19:35:42.544-0300][gc,marking    ] GC(4) Concurrent Mark From Roots
[2020-12-29T19:35:42.544-0300][gc,task       ] GC(4) Using 1 workers of 1 for marking
[2020-12-29T19:35:42.559-0300][gc,marking    ] GC(4) Concurrent Mark From Roots 14,702ms
[2020-12-29T19:35:42.559-0300][gc,marking    ] GC(4) Concurrent Preclean
[2020-12-29T19:35:42.559-0300][gc,marking    ] GC(4) Concurrent Preclean 0,149ms
[2020-12-29T19:35:42.559-0300][gc,marking    ] GC(4) Concurrent Mark (4,010s, 4,025s) 14,936ms
[2020-12-29T19:35:42.562-0300][gc,start      ] GC(4) Pause Remark
[2020-12-29T19:35:42.571-0300][gc,stringtable] GC(4) Cleaned string and symbol table, strings: 13068 processed, 6 removed, symbols: 98850 processed, 26 removed
[2020-12-29T19:35:42.571-0300][gc            ] GC(4) Pause Remark 140M->140M(1024M) 9,341ms
[2020-12-29T19:35:42.571-0300][gc,cpu        ] GC(4) User=0,02s Sys=0,00s Real=0,01s
[2020-12-29T19:35:42.572-0300][gc,marking    ] GC(4) Concurrent Rebuild Remembered Sets
[2020-12-29T19:35:42.580-0300][gc,marking    ] GC(4) Concurrent Rebuild Remembered Sets 8,254ms
[2020-12-29T19:35:42.580-0300][gc,start      ] GC(4) Pause Cleanup
[2020-12-29T19:35:42.580-0300][gc            ] GC(4) Pause Cleanup 140M->140M(1024M) 0,405ms
[2020-12-29T19:35:42.580-0300][gc,cpu        ] GC(4) User=0,00s Sys=0,00s Real=0,00s
[2020-12-29T19:35:42.581-0300][gc,marking    ] GC(4) Concurrent Cleanup for Next Mark
[2020-12-29T19:35:42.603-0300][gc,marking    ] GC(4) Concurrent Cleanup for Next Mark 22,620ms
[2020-12-29T19:35:42.603-0300][gc            ] GC(4) Concurrent Cycle 63,856ms
[2020-12-29T19:36:05.238-0300][gc,start      ] GC(5) Pause Young (Normal) (G1 Evacuation Pause)
[2020-12-29T19:36:05.239-0300][gc,task       ] GC(5) Using 4 workers of 4 for evacuation
[2020-12-29T19:36:05.272-0300][gc,mmu        ] GC(5) MMU target violated: 21,0ms (20,0ms/21,0ms)
[2020-12-29T19:36:05.272-0300][gc,phases     ] GC(5)   Pre Evacuate Collection Set: 0,0ms
[2020-12-29T19:36:05.272-0300][gc,phases     ] GC(5)   Evacuate Collection Set: 33,0ms
[2020-12-29T19:36:05.272-0300][gc,phases     ] GC(5)   Post Evacuate Collection Set: 0,6ms
[2020-12-29T19:36:05.272-0300][gc,phases     ] GC(5)   Other: 0,6ms
[2020-12-29T19:36:05.272-0300][gc,heap       ] GC(5) Eden regions: 46->0(46)
[2020-12-29T19:36:05.272-0300][gc,heap       ] GC(5) Survivor regions: 5->5(7)
[2020-12-29T19:36:05.272-0300][gc,heap       ] GC(5) Old regions: 7->9
[2020-12-29T19:36:05.272-0300][gc,heap       ] GC(5) Humongous regions: 129->129
[2020-12-29T19:36:05.272-0300][gc,metaspace  ] GC(5) Metaspace: 40088K->40088K(1085440K)
[2020-12-29T19:36:05.273-0300][gc            ] GC(5) Pause Young (Normal) (G1 Evacuation Pause) 185M->141M(1024M) 34,278ms
[2020-12-29T19:36:05.273-0300][gc,cpu        ] GC(5) User=0,06s Sys=0,01s Real=0,04s
[2020-12-29T19:36:49.519-0300][gc,start      ] GC(6) Pause Young (Normal) (G1 Evacuation Pause)
[2020-12-29T19:36:49.520-0300][gc,task       ] GC(6) Using 4 workers of 4 for evacuation
[2020-12-29T19:36:49.531-0300][gc,phases     ] GC(6)   Pre Evacuate Collection Set: 0,0ms
[2020-12-29T19:36:49.531-0300][gc,phases     ] GC(6)   Evacuate Collection Set: 10,2ms
[2020-12-29T19:36:49.531-0300][gc,phases     ] GC(6)   Post Evacuate Collection Set: 0,6ms
[2020-12-29T19:36:49.531-0300][gc,phases     ] GC(6)   Other: 0,2ms
[2020-12-29T19:36:49.531-0300][gc,heap       ] GC(6) Eden regions: 46->0(48)
[2020-12-29T19:36:49.531-0300][gc,heap       ] GC(6) Survivor regions: 5->3(7)
[2020-12-29T19:36:49.531-0300][gc,heap       ] GC(6) Old regions: 9->11
[2020-12-29T19:36:49.531-0300][gc,heap       ] GC(6) Humongous regions: 129->129
[2020-12-29T19:36:49.531-0300][gc,metaspace  ] GC(6) Metaspace: 40207K->40207K(1085440K)
[2020-12-29T19:36:49.531-0300][gc            ] GC(6) Pause Young (Normal) (G1 Evacuation Pause) 187M->142M(1024M) 11,174ms
[2020-12-29T19:36:49.531-0300][gc,cpu        ] GC(6) User=0,02s Sys=0,00s Real=0,02s
[2020-12-29T19:37:40.886-0300][gc,start      ] GC(7) Pause Young (Normal) (G1 Evacuation Pause)
[2020-12-29T19:37:40.886-0300][gc,task       ] GC(7) Using 4 workers of 4 for evacuation
[2020-12-29T19:37:40.902-0300][gc,phases     ] GC(7)   Pre Evacuate Collection Set: 0,0ms
[2020-12-29T19:37:40.902-0300][gc,phases     ] GC(7)   Evacuate Collection Set: 15,6ms
[2020-12-29T19:37:40.902-0300][gc,phases     ] GC(7)   Post Evacuate Collection Set: 0,8ms
[2020-12-29T19:37:40.902-0300][gc,phases     ] GC(7)   Other: 0,3ms
[2020-12-29T19:37:40.902-0300][gc,heap       ] GC(7) Eden regions: 48->0(48)
[2020-12-29T19:37:40.902-0300][gc,heap       ] GC(7) Survivor regions: 3->3(7)
[2020-12-29T19:37:40.902-0300][gc,heap       ] GC(7) Old regions: 11->11
[2020-12-29T19:37:40.902-0300][gc,heap       ] GC(7) Humongous regions: 129->129
[2020-12-29T19:37:40.902-0300][gc,metaspace  ] GC(7) Metaspace: 40211K->40211K(1085440K)
[2020-12-29T19:37:40.902-0300][gc            ] GC(7) Pause Young (Normal) (G1 Evacuation Pause) 190M->141M(1024M) 16,799ms
[2020-12-29T19:37:40.902-0300][gc,cpu        ] GC(7) User=0,05s Sys=0,00s Real=0,02s
[2020-12-29T19:38:33.716-0300][gc,start      ] GC(8) Pause Young (Normal) (G1 Evacuation Pause)
[2020-12-29T19:38:33.719-0300][gc,task       ] GC(8) Using 4 workers of 4 for evacuation
[2020-12-29T19:38:33.736-0300][gc,phases     ] GC(8)   Pre Evacuate Collection Set: 0,1ms
[2020-12-29T19:38:33.736-0300][gc,phases     ] GC(8)   Evacuate Collection Set: 15,1ms
[2020-12-29T19:38:33.736-0300][gc,phases     ] GC(8)   Post Evacuate Collection Set: 1,9ms
[2020-12-29T19:38:33.736-0300][gc,phases     ] GC(8)   Other: 3,3ms
[2020-12-29T19:38:33.736-0300][gc,heap       ] GC(8) Eden regions: 48->0(48)
[2020-12-29T19:38:33.736-0300][gc,heap       ] GC(8) Survivor regions: 3->3(7)
[2020-12-29T19:38:33.736-0300][gc,heap       ] GC(8) Old regions: 11->11
[2020-12-29T19:38:33.737-0300][gc,heap       ] GC(8) Humongous regions: 129->129
[2020-12-29T19:38:33.737-0300][gc,metaspace  ] GC(8) Metaspace: 40219K->40219K(1085440K)
[2020-12-29T19:38:33.737-0300][gc            ] GC(8) Pause Young (Normal) (G1 Evacuation Pause) 189M->141M(1024M) 20,587ms
[2020-12-29T19:38:33.737-0300][gc,cpu        ] GC(8) User=0,04s Sys=0,00s Real=0,02s
[2020-12-29T19:39:26.907-0300][gc,start      ] GC(9) Pause Young (Normal) (G1 Evacuation Pause)
[2020-12-29T19:39:26.907-0300][gc,task       ] GC(9) Using 4 workers of 4 for evacuation
[2020-12-29T19:39:26.912-0300][gc,phases     ] GC(9)   Pre Evacuate Collection Set: 0,0ms
[2020-12-29T19:39:26.912-0300][gc,phases     ] GC(9)   Evacuate Collection Set: 4,1ms
[2020-12-29T19:39:26.912-0300][gc,phases     ] GC(9)   Post Evacuate Collection Set: 0,8ms
[2020-12-29T19:39:26.913-0300][gc,phases     ] GC(9)   Other: 0,3ms
[2020-12-29T19:39:26.913-0300][gc,heap       ] GC(9) Eden regions: 48->0(48)
[2020-12-29T19:39:26.913-0300][gc,heap       ] GC(9) Survivor regions: 3->3(7)
[2020-12-29T19:39:26.913-0300][gc,heap       ] GC(9) Old regions: 11->11
[2020-12-29T19:39:26.913-0300][gc,heap       ] GC(9) Humongous regions: 129->129
[2020-12-29T19:39:26.913-0300][gc,metaspace  ] GC(9) Metaspace: 40248K->40248K(1085440K)
[2020-12-29T19:39:26.913-0300][gc            ] GC(9) Pause Young (Normal) (G1 Evacuation Pause) 189M->141M(1024M) 5,322ms
[2020-12-29T19:39:26.913-0300][gc,cpu        ] GC(9) User=0,02s Sys=0,00s Real=0,01s
[2020-12-29T19:40:19.855-0300][gc,start      ] GC(10) Pause Young (Normal) (G1 Evacuation Pause)
[2020-12-29T19:40:19.855-0300][gc,task       ] GC(10) Using 4 workers of 4 for evacuation
[2020-12-29T19:40:19.870-0300][gc,phases     ] GC(10)   Pre Evacuate Collection Set: 0,0ms
[2020-12-29T19:40:19.870-0300][gc,phases     ] GC(10)   Evacuate Collection Set: 14,9ms
[2020-12-29T19:40:19.870-0300][gc,phases     ] GC(10)   Post Evacuate Collection Set: 0,6ms
[2020-12-29T19:40:19.870-0300][gc,phases     ] GC(10)   Other: 0,3ms
[2020-12-29T19:40:19.870-0300][gc,heap       ] GC(10) Eden regions: 48->0(48)
[2020-12-29T19:40:19.870-0300][gc,heap       ] GC(10) Survivor regions: 3->3(7)
[2020-12-29T19:40:19.871-0300][gc,heap       ] GC(10) Old regions: 11->11
[2020-12-29T19:40:19.871-0300][gc,heap       ] GC(10) Humongous regions: 129->129
[2020-12-29T19:40:19.871-0300][gc,metaspace  ] GC(10) Metaspace: 40255K->40255K(1085440K)
[2020-12-29T19:40:19.871-0300][gc            ] GC(10) Pause Young (Normal) (G1 Evacuation Pause) 189M->141M(1024M) 16,054ms
[2020-12-29T19:40:19.871-0300][gc,cpu        ] GC(10) User=0,05s Sys=0,00s Real=0,02s
[2020-12-29T19:41:12.859-0300][gc,start      ] GC(11) Pause Young (Normal) (G1 Evacuation Pause)
[2020-12-29T19:41:12.859-0300][gc,task       ] GC(11) Using 4 workers of 4 for evacuation
[2020-12-29T19:41:12.873-0300][gc,phases     ] GC(11)   Pre Evacuate Collection Set: 0,1ms
[2020-12-29T19:41:12.873-0300][gc,phases     ] GC(11)   Evacuate Collection Set: 12,9ms
[2020-12-29T19:41:12.873-0300][gc,phases     ] GC(11)   Post Evacuate Collection Set: 0,8ms
[2020-12-29T19:41:12.873-0300][gc,phases     ] GC(11)   Other: 0,3ms
[2020-12-29T19:41:12.873-0300][gc,heap       ] GC(11) Eden regions: 48->0(51)
[2020-12-29T19:41:12.873-0300][gc,heap       ] GC(11) Survivor regions: 3->3(7)
[2020-12-29T19:41:12.873-0300][gc,heap       ] GC(11) Old regions: 11->11
[2020-12-29T19:41:12.873-0300][gc,heap       ] GC(11) Humongous regions: 129->129
[2020-12-29T19:41:12.873-0300][gc,metaspace  ] GC(11) Metaspace: 40256K->40256K(1085440K)
[2020-12-29T19:41:12.873-0300][gc            ] GC(11) Pause Young (Normal) (G1 Evacuation Pause) 189M->141M(1024M) 14,248ms
[2020-12-29T19:41:12.873-0300][gc,cpu        ] GC(11) User=0,02s Sys=0,00s Real=0,02s
[2020-12-29T19:42:09.312-0300][gc,start      ] GC(12) Pause Young (Normal) (G1 Evacuation Pause)
[2020-12-29T19:42:09.312-0300][gc,task       ] GC(12) Using 4 workers of 4 for evacuation
[2020-12-29T19:42:09.317-0300][gc,phases     ] GC(12)   Pre Evacuate Collection Set: 0,0ms
[2020-12-29T19:42:09.317-0300][gc,phases     ] GC(12)   Evacuate Collection Set: 3,7ms
[2020-12-29T19:42:09.317-0300][gc,phases     ] GC(12)   Post Evacuate Collection Set: 0,5ms
[2020-12-29T19:42:09.317-0300][gc,phases     ] GC(12)   Other: 0,2ms
[2020-12-29T19:42:09.317-0300][gc,heap       ] GC(12) Eden regions: 51->0(57)
[2020-12-29T19:42:09.317-0300][gc,heap       ] GC(12) Survivor regions: 3->3(7)
[2020-12-29T19:42:09.317-0300][gc,heap       ] GC(12) Old regions: 11->11
[2020-12-29T19:42:09.317-0300][gc,heap       ] GC(12) Humongous regions: 129->129
[2020-12-29T19:42:09.317-0300][gc,metaspace  ] GC(12) Metaspace: 40261K->40261K(1085440K)
[2020-12-29T19:42:09.317-0300][gc            ] GC(12) Pause Young (Normal) (G1 Evacuation Pause) 192M->141M(1024M) 4,537ms
[2020-12-29T19:42:09.317-0300][gc,cpu        ] GC(12) User=0,02s Sys=0,00s Real=0,00s
[2020-12-29T19:43:12.799-0300][gc,start      ] GC(13) Pause Young (Normal) (G1 Evacuation Pause)
[2020-12-29T19:43:12.799-0300][gc,task       ] GC(13) Using 4 workers of 4 for evacuation
[2020-12-29T19:43:12.808-0300][gc,phases     ] GC(13)   Pre Evacuate Collection Set: 0,0ms
[2020-12-29T19:43:12.808-0300][gc,phases     ] GC(13)   Evacuate Collection Set: 8,5ms
[2020-12-29T19:43:12.808-0300][gc,phases     ] GC(13)   Post Evacuate Collection Set: 0,6ms
[2020-12-29T19:43:12.809-0300][gc,phases     ] GC(13)   Other: 0,6ms
[2020-12-29T19:43:12.809-0300][gc,heap       ] GC(13) Eden regions: 57->0(64)
[2020-12-29T19:43:12.809-0300][gc,heap       ] GC(13) Survivor regions: 3->3(8)
[2020-12-29T19:43:12.809-0300][gc,heap       ] GC(13) Old regions: 11->11
[2020-12-29T19:43:12.809-0300][gc,heap       ] GC(13) Humongous regions: 129->129
[2020-12-29T19:43:12.809-0300][gc,metaspace  ] GC(13) Metaspace: 40262K->40262K(1085440K)
[2020-12-29T19:43:12.809-0300][gc            ] GC(13) Pause Young (Normal) (G1 Evacuation Pause) 198M->141M(1024M) 9,839ms
[2020-12-29T19:43:12.809-0300][gc,cpu        ] GC(13) User=0,02s Sys=0,00s Real=0,01s
[2020-12-29T19:44:25.012-0300][gc,start      ] GC(14) Pause Young (Normal) (G1 Evacuation Pause)
[2020-12-29T19:44:25.012-0300][gc,task       ] GC(14) Using 4 workers of 4 for evacuation
[2020-12-29T19:44:25.025-0300][gc,phases     ] GC(14)   Pre Evacuate Collection Set: 0,0ms
[2020-12-29T19:44:25.025-0300][gc,phases     ] GC(14)   Evacuate Collection Set: 11,7ms
[2020-12-29T19:44:25.025-0300][gc,phases     ] GC(14)   Post Evacuate Collection Set: 0,6ms
[2020-12-29T19:44:25.025-0300][gc,phases     ] GC(14)   Other: 0,5ms
[2020-12-29T19:44:25.025-0300][gc,heap       ] GC(14) Eden regions: 64->0(76)
[2020-12-29T19:44:25.025-0300][gc,heap       ] GC(14) Survivor regions: 3->3(9)
[2020-12-29T19:44:25.025-0300][gc,heap       ] GC(14) Old regions: 11->11
[2020-12-29T19:44:25.025-0300][gc,heap       ] GC(14) Humongous regions: 129->129
[2020-12-29T19:44:25.025-0300][gc,metaspace  ] GC(14) Metaspace: 40262K->40262K(1085440K)
[2020-12-29T19:44:25.025-0300][gc            ] GC(14) Pause Young (Normal) (G1 Evacuation Pause) 205M->141M(1024M) 13,079ms
[2020-12-29T19:44:25.025-0300][gc,cpu        ] GC(14) User=0,02s Sys=0,00s Real=0,01s
[2020-12-29T19:45:50.091-0300][gc,start      ] GC(15) Pause Young (Normal) (G1 Evacuation Pause)
[2020-12-29T19:45:50.091-0300][gc,task       ] GC(15) Using 4 workers of 4 for evacuation
[2020-12-29T19:45:50.096-0300][gc,phases     ] GC(15)   Pre Evacuate Collection Set: 0,0ms
[2020-12-29T19:45:50.096-0300][gc,phases     ] GC(15)   Evacuate Collection Set: 3,7ms
[2020-12-29T19:45:50.096-0300][gc,phases     ] GC(15)   Post Evacuate Collection Set: 0,7ms
[2020-12-29T19:45:50.096-0300][gc,phases     ] GC(15)   Other: 0,6ms
[2020-12-29T19:45:50.096-0300][gc,heap       ] GC(15) Eden regions: 76->0(85)
[2020-12-29T19:45:50.096-0300][gc,heap       ] GC(15) Survivor regions: 3->3(10)
[2020-12-29T19:45:50.096-0300][gc,heap       ] GC(15) Old regions: 11->11
[2020-12-29T19:45:50.096-0300][gc,heap       ] GC(15) Humongous regions: 129->129
[2020-12-29T19:45:50.096-0300][gc,metaspace  ] GC(15) Metaspace: 40262K->40262K(1085440K)
[2020-12-29T19:45:50.096-0300][gc            ] GC(15) Pause Young (Normal) (G1 Evacuation Pause) 217M->141M(1024M) 5,091ms
[2020-12-29T19:45:50.096-0300][gc,cpu        ] GC(15) User=0,02s Sys=0,00s Real=0,00s
[2020-12-29T19:47:26.002-0300][gc,start      ] GC(16) Pause Young (Normal) (G1 Evacuation Pause)
[2020-12-29T19:47:26.002-0300][gc,task       ] GC(16) Using 4 workers of 4 for evacuation
[2020-12-29T19:47:26.014-0300][gc,phases     ] GC(16)   Pre Evacuate Collection Set: 0,1ms
[2020-12-29T19:47:26.014-0300][gc,phases     ] GC(16)   Evacuate Collection Set: 8,7ms
[2020-12-29T19:47:26.014-0300][gc,phases     ] GC(16)   Post Evacuate Collection Set: 2,5ms
[2020-12-29T19:47:26.014-0300][gc,phases     ] GC(16)   Other: 0,4ms
[2020-12-29T19:47:26.014-0300][gc,heap       ] GC(16) Eden regions: 85->0(98)
[2020-12-29T19:47:26.014-0300][gc,heap       ] GC(16) Survivor regions: 3->3(11)
[2020-12-29T19:47:26.014-0300][gc,heap       ] GC(16) Old regions: 11->11
[2020-12-29T19:47:26.014-0300][gc,heap       ] GC(16) Humongous regions: 129->129
[2020-12-29T19:47:26.014-0300][gc,metaspace  ] GC(16) Metaspace: 40304K->40304K(1085440K)
[2020-12-29T19:47:26.014-0300][gc            ] GC(16) Pause Young (Normal) (G1 Evacuation Pause) 226M->141M(1024M) 11,671ms
[2020-12-29T19:47:26.014-0300][gc,cpu        ] GC(16) User=0,01s Sys=0,01s Real=0,01s
[2020-12-29T19:49:16.650-0300][gc,start      ] GC(17) Pause Young (Normal) (G1 Evacuation Pause)
[2020-12-29T19:49:16.651-0300][gc,task       ] GC(17) Using 4 workers of 4 for evacuation
[2020-12-29T19:49:16.664-0300][gc,phases     ] GC(17)   Pre Evacuate Collection Set: 0,2ms
[2020-12-29T19:49:16.664-0300][gc,phases     ] GC(17)   Evacuate Collection Set: 11,9ms
[2020-12-29T19:49:16.664-0300][gc,phases     ] GC(17)   Post Evacuate Collection Set: 0,6ms
[2020-12-29T19:49:16.664-0300][gc,phases     ] GC(17)   Other: 1,2ms
[2020-12-29T19:49:16.664-0300][gc,heap       ] GC(17) Eden regions: 98->0(111)
[2020-12-29T19:49:16.664-0300][gc,heap       ] GC(17) Survivor regions: 3->3(13)
[2020-12-29T19:49:16.664-0300][gc,heap       ] GC(17) Old regions: 11->11
[2020-12-29T19:49:16.664-0300][gc,heap       ] GC(17) Humongous regions: 129->129
[2020-12-29T19:49:16.664-0300][gc,metaspace  ] GC(17) Metaspace: 40307K->40307K(1085440K)
[2020-12-29T19:49:16.664-0300][gc            ] GC(17) Pause Young (Normal) (G1 Evacuation Pause) 239M->141M(1024M) 14,064ms
[2020-12-29T19:49:16.664-0300][gc,cpu        ] GC(17) User=0,02s Sys=0,01s Real=0,01s
[2020-12-29T19:51:21.674-0300][gc,start      ] GC(18) Pause Young (Normal) (G1 Evacuation Pause)
[2020-12-29T19:51:21.674-0300][gc,task       ] GC(18) Using 4 workers of 4 for evacuation
[2020-12-29T19:51:21.683-0300][gc,phases     ] GC(18)   Pre Evacuate Collection Set: 0,0ms
[2020-12-29T19:51:21.683-0300][gc,phases     ] GC(18)   Evacuate Collection Set: 7,6ms
[2020-12-29T19:51:21.683-0300][gc,phases     ] GC(18)   Post Evacuate Collection Set: 0,5ms
[2020-12-29T19:51:21.683-0300][gc,phases     ] GC(18)   Other: 0,9ms
[2020-12-29T19:51:21.683-0300][gc,heap       ] GC(18) Eden regions: 111->0(128)
[2020-12-29T19:51:21.683-0300][gc,heap       ] GC(18) Survivor regions: 3->3(15)
[2020-12-29T19:51:21.683-0300][gc,heap       ] GC(18) Old regions: 11->11
[2020-12-29T19:51:21.683-0300][gc,heap       ] GC(18) Humongous regions: 129->129
[2020-12-29T19:51:21.683-0300][gc,metaspace  ] GC(18) Metaspace: 40309K->40309K(1085440K)
[2020-12-29T19:51:21.683-0300][gc            ] GC(18) Pause Young (Normal) (G1 Evacuation Pause) 252M->141M(1024M) 9,044ms
[2020-12-29T19:51:21.683-0300][gc,cpu        ] GC(18) User=0,02s Sys=0,01s Real=0,01s
[2020-12-29T19:53:45.961-0300][gc,start      ] GC(19) Pause Young (Normal) (G1 Evacuation Pause)
[2020-12-29T19:53:45.961-0300][gc,task       ] GC(19) Using 4 workers of 4 for evacuation
[2020-12-29T19:53:45.974-0300][gc,phases     ] GC(19)   Pre Evacuate Collection Set: 0,0ms
[2020-12-29T19:53:45.974-0300][gc,phases     ] GC(19)   Evacuate Collection Set: 11,2ms
[2020-12-29T19:53:45.974-0300][gc,phases     ] GC(19)   Post Evacuate Collection Set: 0,8ms
[2020-12-29T19:53:45.974-0300][gc,phases     ] GC(19)   Other: 0,5ms
[2020-12-29T19:53:45.974-0300][gc,heap       ] GC(19) Eden regions: 128->0(139)
[2020-12-29T19:53:45.974-0300][gc,heap       ] GC(19) Survivor regions: 3->3(17)
[2020-12-29T19:53:45.974-0300][gc,heap       ] GC(19) Old regions: 11->11
[2020-12-29T19:53:45.974-0300][gc,heap       ] GC(19) Humongous regions: 129->129
[2020-12-29T19:53:45.974-0300][gc,metaspace  ] GC(19) Metaspace: 40318K->40318K(1085440K)
[2020-12-29T19:53:45.974-0300][gc            ] GC(19) Pause Young (Normal) (G1 Evacuation Pause) 269M->141M(1024M) 12,682ms
[2020-12-29T19:53:45.974-0300][gc,cpu        ] GC(19) User=0,03s Sys=0,00s Real=0,02s
[2020-12-29T19:56:22.100-0300][gc,start      ] GC(20) Pause Young (Normal) (G1 Evacuation Pause)
[2020-12-29T19:56:22.101-0300][gc,task       ] GC(20) Using 4 workers of 4 for evacuation
[2020-12-29T19:56:22.113-0300][gc,phases     ] GC(20)   Pre Evacuate Collection Set: 0,0ms
[2020-12-29T19:56:22.114-0300][gc,phases     ] GC(20)   Evacuate Collection Set: 8,9ms
[2020-12-29T19:56:22.114-0300][gc,phases     ] GC(20)   Post Evacuate Collection Set: 3,3ms
[2020-12-29T19:56:22.114-0300][gc,phases     ] GC(20)   Other: 0,8ms
[2020-12-29T19:56:22.114-0300][gc,heap       ] GC(20) Eden regions: 139->0(180)
[2020-12-29T19:56:22.114-0300][gc,heap       ] GC(20) Survivor regions: 3->2(18)
[2020-12-29T19:56:22.114-0300][gc,heap       ] GC(20) Old regions: 11->12
[2020-12-29T19:56:22.114-0300][gc,heap       ] GC(20) Humongous regions: 129->129
[2020-12-29T19:56:22.114-0300][gc,metaspace  ] GC(20) Metaspace: 40335K->40335K(1085440K)
[2020-12-29T19:56:22.114-0300][gc            ] GC(20) Pause Young (Normal) (G1 Evacuation Pause) 280M->141M(1024M) 13,255ms
[2020-12-29T19:56:22.114-0300][gc,cpu        ] GC(20) User=0,04s Sys=0,00s Real=0,02s
[2020-12-29T19:59:45.973-0300][gc,start      ] GC(21) Pause Young (Normal) (G1 Evacuation Pause)
[2020-12-29T19:59:45.973-0300][gc,task       ] GC(21) Using 4 workers of 4 for evacuation
[2020-12-29T19:59:45.988-0300][gc,phases     ] GC(21)   Pre Evacuate Collection Set: 0,1ms
[2020-12-29T19:59:45.988-0300][gc,phases     ] GC(21)   Evacuate Collection Set: 13,6ms
[2020-12-29T19:59:45.988-0300][gc,phases     ] GC(21)   Post Evacuate Collection Set: 0,5ms
[2020-12-29T19:59:45.988-0300][gc,phases     ] GC(21)   Other: 0,9ms
[2020-12-29T19:59:45.988-0300][gc,heap       ] GC(21) Eden regions: 180->0(277)
[2020-12-29T19:59:45.988-0300][gc,heap       ] GC(21) Survivor regions: 2->2(23)
[2020-12-29T19:59:45.988-0300][gc,heap       ] GC(21) Old regions: 12->12
[2020-12-29T19:59:45.988-0300][gc,heap       ] GC(21) Humongous regions: 129->129
[2020-12-29T19:59:45.988-0300][gc,metaspace  ] GC(21) Metaspace: 40355K->40355K(1085440K)
[2020-12-29T19:59:45.988-0300][gc            ] GC(21) Pause Young (Normal) (G1 Evacuation Pause) 321M->141M(1024M) 15,193ms
[2020-12-29T19:59:45.988-0300][gc,cpu        ] GC(21) User=0,04s Sys=0,00s Real=0,01s
[2020-12-29T20:05:00.328-0300][gc,start      ] GC(22) Pause Young (Normal) (G1 Evacuation Pause)
[2020-12-29T20:05:00.386-0300][gc,task       ] GC(22) Using 4 workers of 4 for evacuation
[2020-12-29T20:05:00.392-0300][gc,phases     ] GC(22)   Pre Evacuate Collection Set: 0,0ms
[2020-12-29T20:05:00.392-0300][gc,phases     ] GC(22)   Evacuate Collection Set: 4,6ms
[2020-12-29T20:05:00.392-0300][gc,phases     ] GC(22)   Post Evacuate Collection Set: 0,6ms
[2020-12-29T20:05:00.392-0300][gc,phases     ] GC(22)   Other: 58,2ms
[2020-12-29T20:05:00.392-0300][gc,heap       ] GC(22) Eden regions: 277->0(612)
[2020-12-29T20:05:00.392-0300][gc,heap       ] GC(22) Survivor regions: 2->2(35)
[2020-12-29T20:05:00.392-0300][gc,heap       ] GC(22) Old regions: 12->12
[2020-12-29T20:05:00.392-0300][gc,heap       ] GC(22) Humongous regions: 129->129
[2020-12-29T20:05:00.392-0300][gc,metaspace  ] GC(22) Metaspace: 40382K->40382K(1085440K)
[2020-12-29T20:05:00.392-0300][gc            ] GC(22) Pause Young (Normal) (G1 Evacuation Pause) 418M->141M(1024M) 63,492ms
[2020-12-29T20:05:00.392-0300][gc,cpu        ] GC(22) User=0,01s Sys=0,00s Real=0,07s
[2020-12-29T20:16:37.106-0300][gc,start      ] GC(23) Pause Young (Normal) (G1 Evacuation Pause)
[2020-12-29T20:16:37.106-0300][gc,task       ] GC(23) Using 4 workers of 4 for evacuation
[2020-12-29T20:16:37.112-0300][gc,phases     ] GC(23)   Pre Evacuate Collection Set: 0,0ms
[2020-12-29T20:16:37.112-0300][gc,phases     ] GC(23)   Evacuate Collection Set: 5,0ms
[2020-12-29T20:16:37.112-0300][gc,phases     ] GC(23)   Post Evacuate Collection Set: 1,1ms
[2020-12-29T20:16:37.112-0300][gc,phases     ] GC(23)   Other: 0,5ms
[2020-12-29T20:16:37.112-0300][gc,heap       ] GC(23) Eden regions: 612->0(613)
[2020-12-29T20:16:37.112-0300][gc,heap       ] GC(23) Survivor regions: 2->1(77)
[2020-12-29T20:16:37.112-0300][gc,heap       ] GC(23) Old regions: 12->12
[2020-12-29T20:16:37.112-0300][gc,heap       ] GC(23) Humongous regions: 129->129
[2020-12-29T20:16:37.112-0300][gc,metaspace  ] GC(23) Metaspace: 40398K->40398K(1085440K)
[2020-12-29T20:16:37.113-0300][gc            ] GC(23) Pause Young (Normal) (G1 Evacuation Pause) 753M->141M(1024M) 6,970ms
[2020-12-29T20:16:37.113-0300][gc,cpu        ] GC(23) User=0,01s Sys=0,01s Real=0,01s
[2020-12-29T20:28:14.583-0300][gc,start      ] GC(24) Pause Young (Normal) (G1 Evacuation Pause)
[2020-12-29T20:28:14.584-0300][gc,task       ] GC(24) Using 4 workers of 4 for evacuation
[2020-12-29T20:28:14.588-0300][gc,phases     ] GC(24)   Pre Evacuate Collection Set: 0,0ms
[2020-12-29T20:28:14.588-0300][gc,phases     ] GC(24)   Evacuate Collection Set: 2,6ms
[2020-12-29T20:28:14.588-0300][gc,phases     ] GC(24)   Post Evacuate Collection Set: 1,3ms
[2020-12-29T20:28:14.588-0300][gc,phases     ] GC(24)   Other: 0,9ms
[2020-12-29T20:28:14.588-0300][gc,heap       ] GC(24) Eden regions: 613->0(612)
[2020-12-29T20:28:14.588-0300][gc,heap       ] GC(24) Survivor regions: 1->2(77)
[2020-12-29T20:28:14.588-0300][gc,heap       ] GC(24) Old regions: 12->12
[2020-12-29T20:28:14.588-0300][gc,heap       ] GC(24) Humongous regions: 129->129
[2020-12-29T20:28:14.588-0300][gc,metaspace  ] GC(24) Metaspace: 40415K->40415K(1085440K)
[2020-12-29T20:28:14.611-0300][gc            ] GC(24) Pause Young (Normal) (G1 Evacuation Pause) 754M->141M(1024M) 5,146ms
[2020-12-29T20:28:14.611-0300][gc,cpu        ] GC(24) User=0,02s Sys=0,00s Real=0,03s
[2020-12-29T20:39:49.903-0300][gc,start      ] GC(25) Pause Young (Normal) (G1 Evacuation Pause)
[2020-12-29T20:39:49.909-0300][gc,task       ] GC(25) Using 4 workers of 4 for evacuation
[2020-12-29T20:39:49.925-0300][gc,phases     ] GC(25)   Pre Evacuate Collection Set: 0,0ms
[2020-12-29T20:39:49.925-0300][gc,phases     ] GC(25)   Evacuate Collection Set: 12,6ms
[2020-12-29T20:39:49.925-0300][gc,phases     ] GC(25)   Post Evacuate Collection Set: 3,1ms
[2020-12-29T20:39:49.925-0300][gc,phases     ] GC(25)   Other: 6,9ms
[2020-12-29T20:39:49.926-0300][gc,heap       ] GC(25) Eden regions: 612->0(612)
[2020-12-29T20:39:49.926-0300][gc,heap       ] GC(25) Survivor regions: 2->2(77)
[2020-12-29T20:39:49.926-0300][gc,heap       ] GC(25) Old regions: 12->12
[2020-12-29T20:39:49.926-0300][gc,heap       ] GC(25) Humongous regions: 129->129
[2020-12-29T20:39:49.926-0300][gc,metaspace  ] GC(25) Metaspace: 40551K->40551K(1085440K)
[2020-12-29T20:39:49.926-0300][gc            ] GC(25) Pause Young (Normal) (G1 Evacuation Pause) 753M->141M(1024M) 22,831ms
[2020-12-29T20:39:49.926-0300][gc,cpu        ] GC(25) User=0,04s Sys=0,00s Real=0,02s
[2020-12-29T20:51:27.165-0300][gc,start      ] GC(26) Pause Young (Normal) (G1 Evacuation Pause)
[2020-12-29T20:51:27.166-0300][gc,task       ] GC(26) Using 4 workers of 4 for evacuation
[2020-12-29T20:51:27.183-0300][gc,phases     ] GC(26)   Pre Evacuate Collection Set: 0,0ms
[2020-12-29T20:51:27.183-0300][gc,phases     ] GC(26)   Evacuate Collection Set: 16,2ms
[2020-12-29T20:51:27.183-0300][gc,phases     ] GC(26)   Post Evacuate Collection Set: 0,7ms
[2020-12-29T20:51:27.183-0300][gc,phases     ] GC(26)   Other: 0,6ms
[2020-12-29T20:51:27.183-0300][gc,heap       ] GC(26) Eden regions: 612->0(612)
[2020-12-29T20:51:27.183-0300][gc,heap       ] GC(26) Survivor regions: 2->2(77)
[2020-12-29T20:51:27.183-0300][gc,heap       ] GC(26) Old regions: 12->12
[2020-12-29T20:51:27.183-0300][gc,heap       ] GC(26) Humongous regions: 129->129
[2020-12-29T20:51:27.183-0300][gc,metaspace  ] GC(26) Metaspace: 40554K->40554K(1085440K)
[2020-12-29T20:51:27.183-0300][gc            ] GC(26) Pause Young (Normal) (G1 Evacuation Pause) 753M->141M(1024M) 17,723ms
[2020-12-29T20:51:27.183-0300][gc,cpu        ] GC(26) User=0,05s Sys=0,00s Real=0,02s
[2020-12-29T21:03:06.112-0300][gc,start      ] GC(27) Pause Young (Normal) (G1 Evacuation Pause)
[2020-12-29T21:03:06.112-0300][gc,task       ] GC(27) Using 4 workers of 4 for evacuation
[2020-12-29T21:03:06.129-0300][gc,phases     ] GC(27)   Pre Evacuate Collection Set: 0,0ms
[2020-12-29T21:03:06.129-0300][gc,phases     ] GC(27)   Evacuate Collection Set: 12,9ms
[2020-12-29T21:03:06.129-0300][gc,phases     ] GC(27)   Post Evacuate Collection Set: 3,8ms
[2020-12-29T21:03:06.129-0300][gc,phases     ] GC(27)   Other: 0,9ms
[2020-12-29T21:03:06.129-0300][gc,heap       ] GC(27) Eden regions: 612->0(612)
[2020-12-29T21:03:06.129-0300][gc,heap       ] GC(27) Survivor regions: 2->2(77)
[2020-12-29T21:03:06.129-0300][gc,heap       ] GC(27) Old regions: 12->12
[2020-12-29T21:03:06.129-0300][gc,heap       ] GC(27) Humongous regions: 129->129
[2020-12-29T21:03:06.129-0300][gc,metaspace  ] GC(27) Metaspace: 40557K->40557K(1085440K)
[2020-12-29T21:03:06.129-0300][gc            ] GC(27) Pause Young (Normal) (G1 Evacuation Pause) 753M->141M(1024M) 17,782ms
[2020-12-29T21:03:06.129-0300][gc,cpu        ] GC(27) User=0,04s Sys=0,00s Real=0,02s
[2020-12-29T21:14:44.469-0300][gc,start      ] GC(28) Pause Young (Normal) (G1 Evacuation Pause)
[2020-12-29T21:14:44.505-0300][gc,task       ] GC(28) Using 4 workers of 4 for evacuation
[2020-12-29T21:14:44.514-0300][gc,phases     ] GC(28)   Pre Evacuate Collection Set: 0,0ms
[2020-12-29T21:14:44.514-0300][gc,phases     ] GC(28)   Evacuate Collection Set: 5,9ms
[2020-12-29T21:14:44.514-0300][gc,phases     ] GC(28)   Post Evacuate Collection Set: 2,4ms
[2020-12-29T21:14:44.514-0300][gc,phases     ] GC(28)   Other: 36,9ms
[2020-12-29T21:14:44.514-0300][gc,heap       ] GC(28) Eden regions: 612->0(612)
[2020-12-29T21:14:44.514-0300][gc,heap       ] GC(28) Survivor regions: 2->2(77)
[2020-12-29T21:14:44.514-0300][gc,heap       ] GC(28) Old regions: 12->12
[2020-12-29T21:14:44.514-0300][gc,heap       ] GC(28) Humongous regions: 129->129
[2020-12-29T21:14:44.514-0300][gc,metaspace  ] GC(28) Metaspace: 40608K->40608K(1087488K)
[2020-12-29T21:14:44.515-0300][gc            ] GC(28) Pause Young (Normal) (G1 Evacuation Pause) 753M->141M(1024M) 45,522ms
[2020-12-29T21:14:44.515-0300][gc,cpu        ] GC(28) User=0,02s Sys=0,00s Real=0,05s
[2020-12-29T21:26:21.208-0300][gc,start      ] GC(29) Pause Young (Normal) (G1 Evacuation Pause)
[2020-12-29T21:26:21.209-0300][gc,task       ] GC(29) Using 4 workers of 4 for evacuation
[2020-12-29T21:26:21.226-0300][gc,phases     ] GC(29)   Pre Evacuate Collection Set: 0,1ms
[2020-12-29T21:26:21.226-0300][gc,phases     ] GC(29)   Evacuate Collection Set: 6,7ms
[2020-12-29T21:26:21.226-0300][gc,phases     ] GC(29)   Post Evacuate Collection Set: 10,4ms
[2020-12-29T21:26:21.226-0300][gc,phases     ] GC(29)   Other: 0,9ms
[2020-12-29T21:26:21.226-0300][gc,heap       ] GC(29) Eden regions: 612->0(612)
[2020-12-29T21:26:21.226-0300][gc,heap       ] GC(29) Survivor regions: 2->2(77)
[2020-12-29T21:26:21.226-0300][gc,heap       ] GC(29) Old regions: 12->12
[2020-12-29T21:26:21.226-0300][gc,heap       ] GC(29) Humongous regions: 129->129
[2020-12-29T21:26:21.226-0300][gc,metaspace  ] GC(29) Metaspace: 40608K->40608K(1087488K)
[2020-12-29T21:26:21.226-0300][gc            ] GC(29) Pause Young (Normal) (G1 Evacuation Pause) 753M->141M(1024M) 18,222ms
[2020-12-29T21:26:21.226-0300][gc,cpu        ] GC(29) User=0,04s Sys=0,00s Real=0,02s
[2020-12-29T21:30:58.937-0300][gc,heap,exit  ] Heap
[2020-12-29T21:30:58.938-0300][gc,heap,exit  ]  garbage-first heap   total 1048576K, used 401332K [0x00000000c0000000, 0x0000000100000000)
[2020-12-29T21:30:58.938-0300][gc,heap,exit  ]   region size 1024K, 253 young (259072K), 2 survivors (2048K)
[2020-12-29T21:30:58.938-0300][gc,heap,exit  ]  Metaspace       used 41423K, capacity 42737K, committed 42928K, reserved 1087488K
[2020-12-29T21:30:58.938-0300][gc,heap,exit  ]   class space    used 4523K, capacity 5099K, committed 5120K, reserved 1048576K
