[2021-01-25T22:17:59.653-0300][gc,heap] Heap region size: 1M
[2021-01-25T22:17:59.665-0300][gc     ] Using G1
[2021-01-25T22:17:59.665-0300][gc,heap,coops] Heap address: 0x00000000c0000000, size: 1024 MB, Compressed Oops mode: 32-bit
[2021-01-25T22:18:01.012-0300][gc,start     ] GC(0) Pause Young (Concurrent Start) (Metadata GC Threshold)
[2021-01-25T22:18:01.012-0300][gc,task      ] GC(0) Using 4 workers of 4 for evacuation
[2021-01-25T22:18:01.022-0300][gc,phases    ] GC(0)   Pre Evacuate Collection Set: 0,0ms
[2021-01-25T22:18:01.022-0300][gc,phases    ] GC(0)   Evacuate Collection Set: 8,3ms
[2021-01-25T22:18:01.022-0300][gc,phases    ] GC(0)   Post Evacuate Collection Set: 0,7ms
[2021-01-25T22:18:01.022-0300][gc,phases    ] GC(0)   Other: 0,7ms
[2021-01-25T22:18:01.022-0300][gc,heap      ] GC(0) Eden regions: 42->0(44)
[2021-01-25T22:18:01.022-0300][gc,heap      ] GC(0) Survivor regions: 0->7(7)
[2021-01-25T22:18:01.022-0300][gc,heap      ] GC(0) Old regions: 0->0
[2021-01-25T22:18:01.022-0300][gc,heap      ] GC(0) Humongous regions: 0->0
[2021-01-25T22:18:01.022-0300][gc,metaspace ] GC(0) Metaspace: 20843K->20843K(1069056K)
[2021-01-25T22:18:01.022-0300][gc           ] GC(0) Pause Young (Concurrent Start) (Metadata GC Threshold) 41M->6M(1024M) 9,793ms
[2021-01-25T22:18:01.022-0300][gc,cpu       ] GC(0) User=0,03s Sys=0,00s Real=0,01s
[2021-01-25T22:18:01.022-0300][gc           ] GC(1) Concurrent Cycle
[2021-01-25T22:18:01.022-0300][gc,marking   ] GC(1) Concurrent Clear Claimed Marks
[2021-01-25T22:18:01.022-0300][gc,marking   ] GC(1) Concurrent Clear Claimed Marks 0,043ms
[2021-01-25T22:18:01.022-0300][gc,marking   ] GC(1) Concurrent Scan Root Regions
[2021-01-25T22:18:01.026-0300][gc,marking   ] GC(1) Concurrent Scan Root Regions 4,292ms
[2021-01-25T22:18:01.026-0300][gc,marking   ] GC(1) Concurrent Mark (1,383s)
[2021-01-25T22:18:01.026-0300][gc,marking   ] GC(1) Concurrent Mark From Roots
[2021-01-25T22:18:01.026-0300][gc,task      ] GC(1) Using 1 workers of 1 for marking
[2021-01-25T22:18:01.027-0300][gc,marking   ] GC(1) Concurrent Mark From Roots 1,047ms
[2021-01-25T22:18:01.027-0300][gc,marking   ] GC(1) Concurrent Preclean
[2021-01-25T22:18:01.027-0300][gc,marking   ] GC(1) Concurrent Preclean 0,086ms
[2021-01-25T22:18:01.027-0300][gc,marking   ] GC(1) Concurrent Mark (1,383s, 1,384s) 1,202ms
[2021-01-25T22:18:01.027-0300][gc,start     ] GC(1) Pause Remark
[2021-01-25T22:18:01.032-0300][gc,stringtable] GC(1) Cleaned string and symbol table, strings: 7620 processed, 0 removed, symbols: 64383 processed, 33 removed
[2021-01-25T22:18:01.032-0300][gc            ] GC(1) Pause Remark 6M->6M(1024M) 4,911ms
[2021-01-25T22:18:01.034-0300][gc,cpu        ] GC(1) User=0,01s Sys=0,00s Real=0,01s
[2021-01-25T22:18:01.034-0300][gc,marking    ] GC(1) Concurrent Rebuild Remembered Sets
[2021-01-25T22:18:01.034-0300][gc,marking    ] GC(1) Concurrent Rebuild Remembered Sets 0,195ms
[2021-01-25T22:18:01.034-0300][gc,start      ] GC(1) Pause Cleanup
[2021-01-25T22:18:01.035-0300][gc            ] GC(1) Pause Cleanup 6M->6M(1024M) 0,425ms
[2021-01-25T22:18:01.035-0300][gc,cpu        ] GC(1) User=0,00s Sys=0,00s Real=0,00s
[2021-01-25T22:18:01.035-0300][gc,marking    ] GC(1) Concurrent Cleanup for Next Mark
[2021-01-25T22:18:01.050-0300][gc,marking    ] GC(1) Concurrent Cleanup for Next Mark 14,759ms
[2021-01-25T22:18:01.050-0300][gc            ] GC(1) Concurrent Cycle 27,963ms
[2021-01-25T22:18:02.482-0300][gc,start      ] GC(2) Pause Young (Normal) (G1 Evacuation Pause)
[2021-01-25T22:18:02.482-0300][gc,task       ] GC(2) Using 4 workers of 4 for evacuation
[2021-01-25T22:18:02.492-0300][gc,phases     ] GC(2)   Pre Evacuate Collection Set: 0,0ms
[2021-01-25T22:18:02.492-0300][gc,phases     ] GC(2)   Evacuate Collection Set: 8,9ms
[2021-01-25T22:18:02.492-0300][gc,phases     ] GC(2)   Post Evacuate Collection Set: 0,5ms
[2021-01-25T22:18:02.492-0300][gc,phases     ] GC(2)   Other: 0,2ms
[2021-01-25T22:18:02.492-0300][gc,heap       ] GC(2) Eden regions: 44->0(48)
[2021-01-25T22:18:02.492-0300][gc,heap       ] GC(2) Survivor regions: 7->3(7)
[2021-01-25T22:18:02.492-0300][gc,heap       ] GC(2) Old regions: 0->7
[2021-01-25T22:18:02.492-0300][gc,heap       ] GC(2) Humongous regions: 129->129
[2021-01-25T22:18:02.492-0300][gc,metaspace  ] GC(2) Metaspace: 30754K->30754K(1077248K)
[2021-01-25T22:18:02.492-0300][gc            ] GC(2) Pause Young (Normal) (G1 Evacuation Pause) 179M->137M(1024M) 9,718ms
[2021-01-25T22:18:02.492-0300][gc,cpu        ] GC(2) User=0,02s Sys=0,01s Real=0,01s
[2021-01-25T22:18:03.095-0300][gc,start      ] GC(3) Pause Young (Concurrent Start) (Metadata GC Threshold)
[2021-01-25T22:18:03.095-0300][gc,task       ] GC(3) Using 4 workers of 4 for evacuation
[2021-01-25T22:18:03.100-0300][gc,phases     ] GC(3)   Pre Evacuate Collection Set: 0,1ms
[2021-01-25T22:18:03.100-0300][gc,phases     ] GC(3)   Evacuate Collection Set: 5,1ms
[2021-01-25T22:18:03.100-0300][gc,phases     ] GC(3)   Post Evacuate Collection Set: 0,5ms
[2021-01-25T22:18:03.101-0300][gc,phases     ] GC(3)   Other: 0,2ms
[2021-01-25T22:18:03.101-0300][gc,heap       ] GC(3) Eden regions: 25->0(46)
[2021-01-25T22:18:03.101-0300][gc,heap       ] GC(3) Survivor regions: 3->5(7)
[2021-01-25T22:18:03.101-0300][gc,heap       ] GC(3) Old regions: 7->7
[2021-01-25T22:18:03.101-0300][gc,heap       ] GC(3) Humongous regions: 129->129
[2021-01-25T22:18:03.101-0300][gc,metaspace  ] GC(3) Metaspace: 35074K->35074K(1081344K)
[2021-01-25T22:18:03.101-0300][gc            ] GC(3) Pause Young (Concurrent Start) (Metadata GC Threshold) 162M->139M(1024M) 5,943ms
[2021-01-25T22:18:03.101-0300][gc,cpu        ] GC(3) User=0,02s Sys=0,00s Real=0,00s
[2021-01-25T22:18:03.101-0300][gc            ] GC(4) Concurrent Cycle
[2021-01-25T22:18:03.101-0300][gc,marking    ] GC(4) Concurrent Clear Claimed Marks
[2021-01-25T22:18:03.101-0300][gc,marking    ] GC(4) Concurrent Clear Claimed Marks 0,079ms
[2021-01-25T22:18:03.101-0300][gc,marking    ] GC(4) Concurrent Scan Root Regions
[2021-01-25T22:18:03.105-0300][gc,marking    ] GC(4) Concurrent Scan Root Regions 4,051ms
[2021-01-25T22:18:03.105-0300][gc,marking    ] GC(4) Concurrent Mark (3,462s)
[2021-01-25T22:18:03.105-0300][gc,marking    ] GC(4) Concurrent Mark From Roots
[2021-01-25T22:18:03.105-0300][gc,task       ] GC(4) Using 1 workers of 1 for marking
[2021-01-25T22:18:03.126-0300][gc,marking    ] GC(4) Concurrent Mark From Roots 21,329ms
[2021-01-25T22:18:03.126-0300][gc,marking    ] GC(4) Concurrent Preclean
[2021-01-25T22:18:03.126-0300][gc,marking    ] GC(4) Concurrent Preclean 0,180ms
[2021-01-25T22:18:03.126-0300][gc,marking    ] GC(4) Concurrent Mark (3,462s, 3,483s) 21,579ms
[2021-01-25T22:18:03.127-0300][gc,start      ] GC(4) Pause Remark
[2021-01-25T22:18:03.135-0300][gc,stringtable] GC(4) Cleaned string and symbol table, strings: 13269 processed, 6 removed, symbols: 100273 processed, 27 removed
[2021-01-25T22:18:03.135-0300][gc            ] GC(4) Pause Remark 142M->142M(1024M) 8,250ms
[2021-01-25T22:18:03.135-0300][gc,cpu        ] GC(4) User=0,02s Sys=0,00s Real=0,01s
[2021-01-25T22:18:03.135-0300][gc,marking    ] GC(4) Concurrent Rebuild Remembered Sets
[2021-01-25T22:18:03.143-0300][gc,marking    ] GC(4) Concurrent Rebuild Remembered Sets 8,213ms
[2021-01-25T22:18:03.145-0300][gc,start      ] GC(4) Pause Cleanup
[2021-01-25T22:18:03.147-0300][gc            ] GC(4) Pause Cleanup 143M->143M(1024M) 2,177ms
[2021-01-25T22:18:03.147-0300][gc,cpu        ] GC(4) User=0,01s Sys=0,00s Real=0,01s
[2021-01-25T22:18:03.147-0300][gc,marking    ] GC(4) Concurrent Cleanup for Next Mark
[2021-01-25T22:18:03.160-0300][gc,marking    ] GC(4) Concurrent Cleanup for Next Mark 12,534ms
[2021-01-25T22:18:03.160-0300][gc            ] GC(4) Concurrent Cycle 59,268ms
[2021-01-25T22:47:54.598-0300][gc,start      ] GC(5) Pause Young (Concurrent Start) (G1 Evacuation Pause)
[2021-01-25T22:47:54.599-0300][gc,task       ] GC(5) Using 4 workers of 4 for evacuation
[2021-01-25T22:47:54.623-0300][gc,mmu        ] GC(5) MMU target violated: 21,0ms (20,0ms/21,0ms)
[2021-01-25T22:47:54.623-0300][gc,phases     ] GC(5)   Pre Evacuate Collection Set: 0,2ms
[2021-01-25T22:47:54.623-0300][gc,phases     ] GC(5)   Evacuate Collection Set: 22,2ms
[2021-01-25T22:47:54.623-0300][gc,phases     ] GC(5)   Post Evacuate Collection Set: 0,6ms
[2021-01-25T22:47:54.623-0300][gc,phases     ] GC(5)   Other: 1,4ms
[2021-01-25T22:47:54.623-0300][gc,heap       ] GC(5) Eden regions: 46->0(46)
[2021-01-25T22:47:54.623-0300][gc,heap       ] GC(5) Survivor regions: 5->5(7)
[2021-01-25T22:47:54.623-0300][gc,heap       ] GC(5) Old regions: 7->9
[2021-01-25T22:47:54.623-0300][gc,heap       ] GC(5) Humongous regions: 129->129
[2021-01-25T22:47:54.623-0300][gc,metaspace  ] GC(5) Metaspace: 42260K->42260K(1087488K)
[2021-01-25T22:47:54.623-0300][gc            ] GC(5) Pause Young (Concurrent Start) (G1 Evacuation Pause) 185M->141M(1024M) 24,463ms
[2021-01-25T22:47:54.623-0300][gc,cpu        ] GC(5) User=0,04s Sys=0,01s Real=0,02s
[2021-01-25T22:47:54.623-0300][gc            ] GC(6) Concurrent Cycle
[2021-01-25T22:47:54.623-0300][gc,marking    ] GC(6) Concurrent Clear Claimed Marks
[2021-01-25T22:47:54.623-0300][gc,marking    ] GC(6) Concurrent Clear Claimed Marks 0,108ms
[2021-01-25T22:47:54.623-0300][gc,marking    ] GC(6) Concurrent Scan Root Regions
[2021-01-25T22:47:54.629-0300][gc,marking    ] GC(6) Concurrent Scan Root Regions 6,294ms
[2021-01-25T22:47:54.629-0300][gc,marking    ] GC(6) Concurrent Mark (1794,986s)
[2021-01-25T22:47:54.629-0300][gc,marking    ] GC(6) Concurrent Mark From Roots
[2021-01-25T22:47:54.629-0300][gc,task       ] GC(6) Using 1 workers of 1 for marking
[2021-01-25T22:47:54.654-0300][gc,marking    ] GC(6) Concurrent Mark From Roots 24,892ms
[2021-01-25T22:47:54.654-0300][gc,marking    ] GC(6) Concurrent Preclean
[2021-01-25T22:47:54.654-0300][gc,marking    ] GC(6) Concurrent Preclean 0,206ms
[2021-01-25T22:47:54.655-0300][gc,marking    ] GC(6) Concurrent Mark (1794,986s, 1795,011s) 25,177ms
[2021-01-25T22:47:54.655-0300][gc,start      ] GC(6) Pause Remark
[2021-01-25T22:47:54.688-0300][gc,stringtable] GC(6) Cleaned string and symbol table, strings: 14468 processed, 266 removed, symbols: 113178 processed, 13 removed
[2021-01-25T22:47:54.688-0300][gc,mmu        ] GC(6) MMU target violated: 21,0ms (20,0ms/21,0ms)
[2021-01-25T22:47:54.689-0300][gc            ] GC(6) Pause Remark 141M->141M(1024M) 33,862ms
[2021-01-25T22:47:54.689-0300][gc,cpu        ] GC(6) User=0,03s Sys=0,00s Real=0,03s
[2021-01-25T22:47:54.689-0300][gc,marking    ] GC(6) Concurrent Rebuild Remembered Sets
[2021-01-25T22:47:54.696-0300][gc,marking    ] GC(6) Concurrent Rebuild Remembered Sets 6,851ms
[2021-01-25T22:47:54.696-0300][gc,start      ] GC(6) Pause Cleanup
[2021-01-25T22:47:54.696-0300][gc            ] GC(6) Pause Cleanup 141M->141M(1024M) 0,228ms
[2021-01-25T22:47:54.696-0300][gc,cpu        ] GC(6) User=0,00s Sys=0,00s Real=0,00s
[2021-01-25T22:47:54.697-0300][gc,marking    ] GC(6) Concurrent Cleanup for Next Mark
[2021-01-25T22:47:54.699-0300][gc,marking    ] GC(6) Concurrent Cleanup for Next Mark 1,908ms
[2021-01-25T22:47:54.699-0300][gc            ] GC(6) Concurrent Cycle 76,346ms
[2021-01-25T22:56:18.968-0300][gc,start      ] GC(7) Pause Young (Normal) (G1 Evacuation Pause)
[2021-01-25T22:56:18.968-0300][gc,task       ] GC(7) Using 4 workers of 4 for evacuation
[2021-01-25T22:56:18.993-0300][gc,mmu        ] GC(7) MMU target violated: 21,0ms (20,0ms/21,0ms)
[2021-01-25T22:56:18.993-0300][gc,phases     ] GC(7)   Pre Evacuate Collection Set: 0,0ms
[2021-01-25T22:56:18.993-0300][gc,phases     ] GC(7)   Evacuate Collection Set: 23,5ms
[2021-01-25T22:56:18.993-0300][gc,phases     ] GC(7)   Post Evacuate Collection Set: 0,7ms
[2021-01-25T22:56:18.993-0300][gc,phases     ] GC(7)   Other: 0,7ms
[2021-01-25T22:56:18.993-0300][gc,heap       ] GC(7) Eden regions: 46->0(47)
[2021-01-25T22:56:18.993-0300][gc,heap       ] GC(7) Survivor regions: 5->4(7)
[2021-01-25T22:56:18.993-0300][gc,heap       ] GC(7) Old regions: 9->11
[2021-01-25T22:56:18.993-0300][gc,heap       ] GC(7) Humongous regions: 129->129
[2021-01-25T22:56:18.993-0300][gc,metaspace  ] GC(7) Metaspace: 43714K->43714K(1089536K)
[2021-01-25T22:56:18.993-0300][gc            ] GC(7) Pause Young (Normal) (G1 Evacuation Pause) 187M->143M(1024M) 24,990ms
[2021-01-25T22:56:18.993-0300][gc,cpu        ] GC(7) User=0,07s Sys=0,00s Real=0,02s
[2021-01-25T23:02:03.912-0300][gc,start      ] GC(8) Pause Young (Normal) (G1 Evacuation Pause)
[2021-01-25T23:02:03.913-0300][gc,task       ] GC(8) Using 4 workers of 4 for evacuation
[2021-01-25T23:02:03.922-0300][gc,phases     ] GC(8)   Pre Evacuate Collection Set: 0,0ms
[2021-01-25T23:02:03.922-0300][gc,phases     ] GC(8)   Evacuate Collection Set: 6,5ms
[2021-01-25T23:02:03.922-0300][gc,phases     ] GC(8)   Post Evacuate Collection Set: 1,3ms
[2021-01-25T23:02:03.922-0300][gc,phases     ] GC(8)   Other: 1,2ms
[2021-01-25T23:02:03.922-0300][gc,heap       ] GC(8) Eden regions: 47->0(46)
[2021-01-25T23:02:03.922-0300][gc,heap       ] GC(8) Survivor regions: 4->5(7)
[2021-01-25T23:02:03.922-0300][gc,heap       ] GC(8) Old regions: 11->11
[2021-01-25T23:02:03.922-0300][gc,heap       ] GC(8) Humongous regions: 129->129
[2021-01-25T23:02:03.922-0300][gc,metaspace  ] GC(8) Metaspace: 43896K->43896K(1089536K)
[2021-01-25T23:02:03.922-0300][gc            ] GC(8) Pause Young (Normal) (G1 Evacuation Pause) 190M->144M(1024M) 9,237ms
[2021-01-25T23:02:03.922-0300][gc,cpu        ] GC(8) User=0,02s Sys=0,00s Real=0,01s
[2021-01-25T23:05:22.377-0300][gc,start      ] GC(9) Pause Young (Normal) (G1 Evacuation Pause)
[2021-01-25T23:05:22.411-0300][gc,task       ] GC(9) Using 4 workers of 4 for evacuation
[2021-01-25T23:05:22.426-0300][gc,phases     ] GC(9)   Pre Evacuate Collection Set: 0,0ms
[2021-01-25T23:05:22.426-0300][gc,phases     ] GC(9)   Evacuate Collection Set: 14,1ms
[2021-01-25T23:05:22.426-0300][gc,phases     ] GC(9)   Post Evacuate Collection Set: 0,5ms
[2021-01-25T23:05:22.426-0300][gc,phases     ] GC(9)   Other: 34,7ms
[2021-01-25T23:05:22.426-0300][gc,heap       ] GC(9) Eden regions: 46->0(48)
[2021-01-25T23:05:22.426-0300][gc,heap       ] GC(9) Survivor regions: 5->3(7)
[2021-01-25T23:05:22.426-0300][gc,heap       ] GC(9) Old regions: 11->13
[2021-01-25T23:05:22.426-0300][gc,heap       ] GC(9) Humongous regions: 129->129
[2021-01-25T23:05:22.426-0300][gc,metaspace  ] GC(9) Metaspace: 43921K->43921K(1089536K)
[2021-01-25T23:05:22.426-0300][gc            ] GC(9) Pause Young (Normal) (G1 Evacuation Pause) 190M->144M(1024M) 49,479ms
[2021-01-25T23:05:22.426-0300][gc,cpu        ] GC(9) User=0,03s Sys=0,00s Real=0,05s
[2021-01-25T23:12:12.251-0300][gc,start      ] GC(10) Pause Young (Normal) (G1 Evacuation Pause)
[2021-01-25T23:12:12.251-0300][gc,task       ] GC(10) Using 4 workers of 4 for evacuation
[2021-01-25T23:12:12.276-0300][gc,mmu        ] GC(10) MMU target violated: 21,0ms (20,0ms/21,0ms)
[2021-01-25T23:12:12.276-0300][gc,phases     ] GC(10)   Pre Evacuate Collection Set: 0,2ms
[2021-01-25T23:12:12.276-0300][gc,phases     ] GC(10)   Evacuate Collection Set: 13,0ms
[2021-01-25T23:12:12.276-0300][gc,phases     ] GC(10)   Post Evacuate Collection Set: 10,6ms
[2021-01-25T23:12:12.276-0300][gc,phases     ] GC(10)   Other: 1,2ms
[2021-01-25T23:12:12.276-0300][gc,heap       ] GC(10) Eden regions: 48->0(46)
[2021-01-25T23:12:12.276-0300][gc,heap       ] GC(10) Survivor regions: 3->5(7)
[2021-01-25T23:12:12.276-0300][gc,heap       ] GC(10) Old regions: 13->13
[2021-01-25T23:12:12.276-0300][gc,heap       ] GC(10) Humongous regions: 129->129
[2021-01-25T23:12:12.276-0300][gc,metaspace  ] GC(10) Metaspace: 46063K->46063K(1091584K)
[2021-01-25T23:12:12.276-0300][gc            ] GC(10) Pause Young (Normal) (G1 Evacuation Pause) 192M->145M(1024M) 25,144ms
[2021-01-25T23:12:12.276-0300][gc,cpu        ] GC(10) User=0,05s Sys=0,00s Real=0,03s
[2021-01-25T23:24:46.876-0300][gc,start      ] GC(11) Pause Young (Normal) (G1 Evacuation Pause)
[2021-01-25T23:24:46.876-0300][gc,task       ] GC(11) Using 4 workers of 4 for evacuation
[2021-01-25T23:24:46.886-0300][gc,phases     ] GC(11)   Pre Evacuate Collection Set: 0,0ms
[2021-01-25T23:24:46.886-0300][gc,phases     ] GC(11)   Evacuate Collection Set: 8,8ms
[2021-01-25T23:24:46.886-0300][gc,phases     ] GC(11)   Post Evacuate Collection Set: 0,7ms
[2021-01-25T23:24:46.886-0300][gc,phases     ] GC(11)   Other: 0,4ms
[2021-01-25T23:24:46.886-0300][gc,heap       ] GC(11) Eden regions: 46->0(47)
[2021-01-25T23:24:46.886-0300][gc,heap       ] GC(11) Survivor regions: 5->4(7)
[2021-01-25T23:24:46.886-0300][gc,heap       ] GC(11) Old regions: 13->13
[2021-01-25T23:24:46.886-0300][gc,heap       ] GC(11) Humongous regions: 129->129
[2021-01-25T23:24:46.886-0300][gc,metaspace  ] GC(11) Metaspace: 46400K->46400K(1091584K)
[2021-01-25T23:24:46.886-0300][gc            ] GC(11) Pause Young (Normal) (G1 Evacuation Pause) 191M->145M(1024M) 10,033ms
[2021-01-25T23:24:46.886-0300][gc,cpu        ] GC(11) User=0,03s Sys=0,00s Real=0,01s
