[2020-12-29T19:35:14.103-0300][gc,heap] Heap region size: 1M
[2020-12-29T19:35:14.117-0300][gc     ] Using G1
[2020-12-29T19:35:14.117-0300][gc,heap,coops] Heap address: 0x00000000c0000000, size: 1024 MB, Compressed Oops mode: 32-bit
[2020-12-29T19:35:15.639-0300][gc,start     ] GC(0) Pause Young (Concurrent Start) (Metadata GC Threshold)
[2020-12-29T19:35:15.642-0300][gc,task      ] GC(0) Using 4 workers of 4 for evacuation
[2020-12-29T19:35:15.658-0300][gc,phases    ] GC(0)   Pre Evacuate Collection Set: 0,1ms
[2020-12-29T19:35:15.658-0300][gc,phases    ] GC(0)   Evacuate Collection Set: 15,4ms
[2020-12-29T19:35:15.658-0300][gc,phases    ] GC(0)   Post Evacuate Collection Set: 0,6ms
[2020-12-29T19:35:15.658-0300][gc,phases    ] GC(0)   Other: 2,6ms
[2020-12-29T19:35:15.658-0300][gc,heap      ] GC(0) Eden regions: 41->0(44)
[2020-12-29T19:35:15.658-0300][gc,heap      ] GC(0) Survivor regions: 0->7(7)
[2020-12-29T19:35:15.658-0300][gc,heap      ] GC(0) Old regions: 0->0
[2020-12-29T19:35:15.658-0300][gc,heap      ] GC(0) Humongous regions: 0->0
[2020-12-29T19:35:15.658-0300][gc,metaspace ] GC(0) Metaspace: 20618K->20618K(1069056K)
[2020-12-29T19:35:15.658-0300][gc           ] GC(0) Pause Young (Concurrent Start) (Metadata GC Threshold) 40M->6M(1024M) 18,809ms
[2020-12-29T19:35:15.658-0300][gc,cpu       ] GC(0) User=0,02s Sys=0,01s Real=0,02s
[2020-12-29T19:35:15.658-0300][gc           ] GC(1) Concurrent Cycle
[2020-12-29T19:35:15.658-0300][gc,marking   ] GC(1) Concurrent Clear Claimed Marks
[2020-12-29T19:35:15.658-0300][gc,marking   ] GC(1) Concurrent Clear Claimed Marks 0,040ms
[2020-12-29T19:35:15.658-0300][gc,marking   ] GC(1) Concurrent Scan Root Regions
[2020-12-29T19:35:15.663-0300][gc,marking   ] GC(1) Concurrent Scan Root Regions 4,389ms
[2020-12-29T19:35:15.663-0300][gc,marking   ] GC(1) Concurrent Mark (1,563s)
[2020-12-29T19:35:15.663-0300][gc,marking   ] GC(1) Concurrent Mark From Roots
[2020-12-29T19:35:15.663-0300][gc,task      ] GC(1) Using 1 workers of 1 for marking
[2020-12-29T19:35:15.664-0300][gc,marking   ] GC(1) Concurrent Mark From Roots 1,052ms
[2020-12-29T19:35:15.664-0300][gc,marking   ] GC(1) Concurrent Preclean
[2020-12-29T19:35:15.664-0300][gc,marking   ] GC(1) Concurrent Preclean 0,083ms
[2020-12-29T19:35:15.664-0300][gc,marking   ] GC(1) Concurrent Mark (1,563s, 1,564s) 1,195ms
[2020-12-29T19:35:15.664-0300][gc,start     ] GC(1) Pause Remark
[2020-12-29T19:35:15.690-0300][gc,stringtable] GC(1) Cleaned string and symbol table, strings: 7545 processed, 0 removed, symbols: 64030 processed, 36 removed
[2020-12-29T19:35:15.690-0300][gc,mmu        ] GC(1) MMU target violated: 21,0ms (20,0ms/21,0ms)
[2020-12-29T19:35:15.690-0300][gc            ] GC(1) Pause Remark 6M->6M(1024M) 25,902ms
[2020-12-29T19:35:15.690-0300][gc,cpu        ] GC(1) User=0,05s Sys=0,01s Real=0,03s
[2020-12-29T19:35:15.692-0300][gc,marking    ] GC(1) Concurrent Rebuild Remembered Sets
[2020-12-29T19:35:15.692-0300][gc,marking    ] GC(1) Concurrent Rebuild Remembered Sets 0,374ms
[2020-12-29T19:35:15.694-0300][gc,start      ] GC(1) Pause Cleanup
[2020-12-29T19:35:15.694-0300][gc            ] GC(1) Pause Cleanup 6M->6M(1024M) 0,365ms
[2020-12-29T19:35:15.695-0300][gc,cpu        ] GC(1) User=0,00s Sys=0,00s Real=0,00s
[2020-12-29T19:35:15.695-0300][gc,marking    ] GC(1) Concurrent Cleanup for Next Mark
[2020-12-29T19:35:15.708-0300][gc,marking    ] GC(1) Concurrent Cleanup for Next Mark 13,475ms
[2020-12-29T19:35:15.708-0300][gc            ] GC(1) Concurrent Cycle 49,940ms
[2020-12-29T19:35:17.935-0300][gc,start      ] GC(2) Pause Young (Normal) (G1 Evacuation Pause)
[2020-12-29T19:35:17.935-0300][gc,task       ] GC(2) Using 4 workers of 4 for evacuation
[2020-12-29T19:35:17.962-0300][gc,mmu        ] GC(2) MMU target violated: 21,0ms (20,0ms/21,0ms)
[2020-12-29T19:35:17.962-0300][gc,phases     ] GC(2)   Pre Evacuate Collection Set: 0,1ms
[2020-12-29T19:35:17.962-0300][gc,phases     ] GC(2)   Evacuate Collection Set: 25,8ms
[2020-12-29T19:35:17.962-0300][gc,phases     ] GC(2)   Post Evacuate Collection Set: 0,8ms
[2020-12-29T19:35:17.962-0300][gc,phases     ] GC(2)   Other: 0,4ms
[2020-12-29T19:35:17.962-0300][gc,heap       ] GC(2) Eden regions: 44->0(48)
[2020-12-29T19:35:17.962-0300][gc,heap       ] GC(2) Survivor regions: 7->3(7)
[2020-12-29T19:35:17.962-0300][gc,heap       ] GC(2) Old regions: 0->7
[2020-12-29T19:35:17.962-0300][gc,heap       ] GC(2) Humongous regions: 129->129
[2020-12-29T19:35:17.962-0300][gc,metaspace  ] GC(2) Metaspace: 30020K->30020K(1077248K)
[2020-12-29T19:35:17.962-0300][gc            ] GC(2) Pause Young (Normal) (G1 Evacuation Pause) 179M->137M(1024M) 27,235ms
[2020-12-29T19:35:17.963-0300][gc,cpu        ] GC(2) User=0,02s Sys=0,01s Real=0,03s
[2020-12-29T19:35:18.882-0300][gc,start      ] GC(3) Pause Young (Concurrent Start) (Metadata GC Threshold)
[2020-12-29T19:35:18.882-0300][gc,task       ] GC(3) Using 4 workers of 4 for evacuation
[2020-12-29T19:35:18.901-0300][gc,phases     ] GC(3)   Pre Evacuate Collection Set: 0,1ms
[2020-12-29T19:35:18.901-0300][gc,phases     ] GC(3)   Evacuate Collection Set: 18,4ms
[2020-12-29T19:35:18.901-0300][gc,phases     ] GC(3)   Post Evacuate Collection Set: 0,6ms
[2020-12-29T19:35:18.901-0300][gc,phases     ] GC(3)   Other: 0,3ms
[2020-12-29T19:35:18.901-0300][gc,heap       ] GC(3) Eden regions: 29->0(46)
[2020-12-29T19:35:18.901-0300][gc,heap       ] GC(3) Survivor regions: 3->5(7)
[2020-12-29T19:35:18.901-0300][gc,heap       ] GC(3) Old regions: 7->7
[2020-12-29T19:35:18.901-0300][gc,heap       ] GC(3) Humongous regions: 129->129
[2020-12-29T19:35:18.901-0300][gc,metaspace  ] GC(3) Metaspace: 34884K->34884K(1081344K)
[2020-12-29T19:35:18.902-0300][gc            ] GC(3) Pause Young (Concurrent Start) (Metadata GC Threshold) 166M->139M(1024M) 19,469ms
[2020-12-29T19:35:18.902-0300][gc,cpu        ] GC(3) User=0,03s Sys=0,00s Real=0,02s
[2020-12-29T19:35:18.902-0300][gc            ] GC(4) Concurrent Cycle
[2020-12-29T19:35:18.902-0300][gc,marking    ] GC(4) Concurrent Clear Claimed Marks
[2020-12-29T19:35:18.902-0300][gc,marking    ] GC(4) Concurrent Clear Claimed Marks 0,073ms
[2020-12-29T19:35:18.902-0300][gc,marking    ] GC(4) Concurrent Scan Root Regions
[2020-12-29T19:35:18.908-0300][gc,marking    ] GC(4) Concurrent Scan Root Regions 6,419ms
[2020-12-29T19:35:18.908-0300][gc,marking    ] GC(4) Concurrent Mark (4,808s)
[2020-12-29T19:35:18.908-0300][gc,marking    ] GC(4) Concurrent Mark From Roots
[2020-12-29T19:35:18.908-0300][gc,task       ] GC(4) Using 1 workers of 1 for marking
[2020-12-29T19:35:18.935-0300][gc,marking    ] GC(4) Concurrent Mark From Roots 26,841ms
[2020-12-29T19:35:18.935-0300][gc,marking    ] GC(4) Concurrent Preclean
[2020-12-29T19:35:18.935-0300][gc,marking    ] GC(4) Concurrent Preclean 0,226ms
[2020-12-29T19:35:18.935-0300][gc,marking    ] GC(4) Concurrent Mark (4,808s, 4,835s) 27,149ms
[2020-12-29T19:35:18.936-0300][gc,start      ] GC(4) Pause Remark
[2020-12-29T19:35:18.944-0300][gc,stringtable] GC(4) Cleaned string and symbol table, strings: 11780 processed, 7 removed, symbols: 97625 processed, 24 removed
[2020-12-29T19:35:18.945-0300][gc            ] GC(4) Pause Remark 140M->140M(1024M) 8,259ms
[2020-12-29T19:35:18.945-0300][gc,cpu        ] GC(4) User=0,01s Sys=0,00s Real=0,01s
[2020-12-29T19:35:18.945-0300][gc,marking    ] GC(4) Concurrent Rebuild Remembered Sets
[2020-12-29T19:35:18.959-0300][gc,marking    ] GC(4) Concurrent Rebuild Remembered Sets 14,025ms
[2020-12-29T19:35:18.959-0300][gc,start      ] GC(4) Pause Cleanup
[2020-12-29T19:35:18.959-0300][gc            ] GC(4) Pause Cleanup 140M->140M(1024M) 0,341ms
[2020-12-29T19:35:18.959-0300][gc,cpu        ] GC(4) User=0,01s Sys=0,00s Real=0,00s
[2020-12-29T19:35:18.959-0300][gc,marking    ] GC(4) Concurrent Cleanup for Next Mark
[2020-12-29T19:35:19.011-0300][gc,marking    ] GC(4) Concurrent Cleanup for Next Mark 51,650ms
[2020-12-29T19:35:19.011-0300][gc            ] GC(4) Concurrent Cycle 109,458ms
[2020-12-29T19:51:02.953-0300][gc,start      ] GC(5) Pause Young (Normal) (G1 Evacuation Pause)
[2020-12-29T19:51:02.953-0300][gc,task       ] GC(5) Using 4 workers of 4 for evacuation
[2020-12-29T19:51:02.971-0300][gc,phases     ] GC(5)   Pre Evacuate Collection Set: 0,1ms
[2020-12-29T19:51:02.971-0300][gc,phases     ] GC(5)   Evacuate Collection Set: 16,1ms
[2020-12-29T19:51:02.971-0300][gc,phases     ] GC(5)   Post Evacuate Collection Set: 0,7ms
[2020-12-29T19:51:02.971-0300][gc,phases     ] GC(5)   Other: 0,9ms
[2020-12-29T19:51:02.971-0300][gc,heap       ] GC(5) Eden regions: 46->0(46)
[2020-12-29T19:51:02.971-0300][gc,heap       ] GC(5) Survivor regions: 5->5(7)
[2020-12-29T19:51:02.971-0300][gc,heap       ] GC(5) Old regions: 7->9
[2020-12-29T19:51:02.971-0300][gc,heap       ] GC(5) Humongous regions: 129->129
[2020-12-29T19:51:02.971-0300][gc,metaspace  ] GC(5) Metaspace: 41534K->41534K(1087488K)
[2020-12-29T19:51:02.971-0300][gc            ] GC(5) Pause Young (Normal) (G1 Evacuation Pause) 185M->141M(1024M) 17,834ms
[2020-12-29T19:51:02.971-0300][gc,cpu        ] GC(5) User=0,05s Sys=0,00s Real=0,02s
[2020-12-29T20:34:40.919-0300][gc,start      ] GC(6) Pause Young (Normal) (G1 Evacuation Pause)
[2020-12-29T20:34:40.956-0300][gc,task       ] GC(6) Using 4 workers of 4 for evacuation
[2020-12-29T20:34:40.976-0300][gc,phases     ] GC(6)   Pre Evacuate Collection Set: 0,1ms
[2020-12-29T20:34:40.976-0300][gc,phases     ] GC(6)   Evacuate Collection Set: 14,6ms
[2020-12-29T20:34:40.976-0300][gc,phases     ] GC(6)   Post Evacuate Collection Set: 4,8ms
[2020-12-29T20:34:40.976-0300][gc,phases     ] GC(6)   Other: 37,5ms
[2020-12-29T20:34:40.976-0300][gc,heap       ] GC(6) Eden regions: 46->0(48)
[2020-12-29T20:34:40.976-0300][gc,heap       ] GC(6) Survivor regions: 5->3(7)
[2020-12-29T20:34:40.976-0300][gc,heap       ] GC(6) Old regions: 9->11
[2020-12-29T20:34:40.976-0300][gc,heap       ] GC(6) Humongous regions: 129->129
[2020-12-29T20:34:40.976-0300][gc,metaspace  ] GC(6) Metaspace: 41818K->41818K(1087488K)
[2020-12-29T20:34:40.976-0300][gc            ] GC(6) Pause Young (Normal) (G1 Evacuation Pause) 187M->141M(1024M) 56,939ms
[2020-12-29T20:34:40.976-0300][gc,cpu        ] GC(6) User=0,04s Sys=0,01s Real=0,06s
[2020-12-29T21:20:45.286-0300][gc,start      ] GC(7) Pause Young (Normal) (G1 Evacuation Pause)
[2020-12-29T21:20:45.287-0300][gc,task       ] GC(7) Using 4 workers of 4 for evacuation
[2020-12-29T21:20:45.302-0300][gc,phases     ] GC(7)   Pre Evacuate Collection Set: 0,1ms
[2020-12-29T21:20:45.302-0300][gc,phases     ] GC(7)   Evacuate Collection Set: 6,3ms
[2020-12-29T21:20:45.302-0300][gc,phases     ] GC(7)   Post Evacuate Collection Set: 8,1ms
[2020-12-29T21:20:45.302-0300][gc,phases     ] GC(7)   Other: 1,0ms
[2020-12-29T21:20:45.302-0300][gc,heap       ] GC(7) Eden regions: 48->0(49)
[2020-12-29T21:20:45.302-0300][gc,heap       ] GC(7) Survivor regions: 3->2(7)
[2020-12-29T21:20:45.302-0300][gc,heap       ] GC(7) Old regions: 11->11
[2020-12-29T21:20:45.302-0300][gc,heap       ] GC(7) Humongous regions: 129->129
[2020-12-29T21:20:45.302-0300][gc,metaspace  ] GC(7) Metaspace: 42010K->42010K(1087488K)
[2020-12-29T21:20:45.302-0300][gc            ] GC(7) Pause Young (Normal) (G1 Evacuation Pause) 189M->141M(1024M) 15,831ms
[2020-12-29T21:20:45.302-0300][gc,cpu        ] GC(7) User=0,02s Sys=0,00s Real=0,02s
[2020-12-29T21:31:14.488-0300][gc,heap,exit  ] Heap
[2020-12-29T21:31:14.488-0300][gc,heap,exit  ]  garbage-first heap   total 1048576K, used 162380K [0x00000000c0000000, 0x0000000100000000)
[2020-12-29T21:31:14.488-0300][gc,heap,exit  ]   region size 1024K, 21 young (21504K), 2 survivors (2048K)
[2020-12-29T21:31:14.488-0300][gc,heap,exit  ]  Metaspace       used 42619K, capacity 44041K, committed 44240K, reserved 1087488K
[2020-12-29T21:31:14.488-0300][gc,heap,exit  ]   class space    used 4800K, capacity 5487K, committed 5504K, reserved 1048576K
