[2020-10-19T02:33:08.873-0300][gc,heap] Heap region size: 1M
[2020-10-19T02:33:08.885-0300][gc     ] Using G1
[2020-10-19T02:33:08.885-0300][gc,heap,coops] Heap address: 0x00000000e0000000, size: 512 MB, Compressed Oops mode: 32-bit
[2020-10-19T02:33:08.886-0300][gc,cds       ] Mark closed archive regions in map: [0x00000000fff00000, 0x00000000fff71ff8]
[2020-10-19T02:33:08.886-0300][gc,cds       ] Mark open archive regions in map: [0x00000000ffe00000, 0x00000000ffe48ff8]
[2020-10-19T02:33:08.901-0300][gc           ] Periodic GC disabled
[2020-10-19T02:33:13.142-0300][gc,start     ] GC(0) Pause Young (Normal) (G1 Evacuation Pause)
[2020-10-19T02:33:13.151-0300][gc,task      ] GC(0) Using 4 workers of 4 for evacuation
[2020-10-19T02:33:13.185-0300][gc,mmu       ] GC(0) MMU target violated: 21,0ms (20,0ms/21,0ms)
[2020-10-19T02:33:13.185-0300][gc,phases    ] GC(0)   Pre Evacuate Collection Set: 0,0ms
[2020-10-19T02:33:13.185-0300][gc,phases    ] GC(0)   Evacuate Collection Set: 33,2ms
[2020-10-19T02:33:13.185-0300][gc,phases    ] GC(0)   Post Evacuate Collection Set: 0,6ms
[2020-10-19T02:33:13.186-0300][gc,phases    ] GC(0)   Other: 9,5ms
[2020-10-19T02:33:13.186-0300][gc,heap      ] GC(0) Eden regions: 25->0(21)
[2020-10-19T02:33:13.186-0300][gc,heap      ] GC(0) Survivor regions: 0->4(4)
[2020-10-19T02:33:13.186-0300][gc,heap      ] GC(0) Old regions: 0->1
[2020-10-19T02:33:13.186-0300][gc,heap      ] GC(0) Archive regions: 2->2
[2020-10-19T02:33:13.187-0300][gc,heap      ] GC(0) Humongous regions: 0->0
[2020-10-19T02:33:13.188-0300][gc,metaspace ] GC(0) Metaspace: 7340K->7340K(1056768K)
[2020-10-19T02:33:13.189-0300][gc           ] GC(0) Pause Young (Normal) (G1 Evacuation Pause) 25M->5M(512M) 46,463ms
[2020-10-19T02:33:13.189-0300][gc,cpu       ] GC(0) User=0,03s Sys=0,01s Real=0,05s
[2020-10-19T12:20:26.301-0300][gc,heap,exit ] Heap
[2020-10-19T12:20:26.303-0300][gc,heap,exit ]  garbage-first heap   total 524288K, used 26279K [0x00000000e0000000, 0x0000000100000000)
[2020-10-19T12:20:26.303-0300][gc,heap,exit ]   region size 1024K, 25 young (25600K), 4 survivors (4096K)
[2020-10-19T12:20:26.303-0300][gc,heap,exit ]  Metaspace       used 8111K, capacity 8451K, committed 8704K, reserved 1056768K
[2020-10-19T12:20:26.303-0300][gc,heap,exit ]   class space    used 857K, capacity 943K, committed 1024K, reserved 1048576K
