[2021-01-25T23:13:55.105-0300][gc,heap] Heap region size: 1M
[2021-01-25T23:13:55.116-0300][gc     ] Using G1
[2021-01-25T23:13:55.116-0300][gc,heap,coops] Heap address: 0x00000000e0000000, size: 512 MB, Compressed Oops mode: 32-bit
[2021-01-25T23:13:56.271-0300][gc,heap,exit ] Heap
[2021-01-25T23:13:56.271-0300][gc,heap,exit ]  garbage-first heap   total 524288K, used 15360K [0x00000000e0000000, 0x0000000100000000)
[2021-01-25T23:13:56.271-0300][gc,heap,exit ]   region size 1024K, 16 young (16384K), 0 survivors (0K)
[2021-01-25T23:13:56.271-0300][gc,heap,exit ]  Metaspace       used 13513K, capacity 13892K, committed 14080K, reserved 1062912K
[2021-01-25T23:13:56.271-0300][gc,heap,exit ]   class space    used 1366K, capacity 1479K, committed 1536K, reserved 1048576K
