[2020-12-29T17:03:29.998-0300][gc,heap] Heap region size: 1M
[2020-12-29T17:03:30.004-0300][gc     ] Using G1
[2020-12-29T17:03:30.004-0300][gc,heap,coops] Heap address: 0x00000000e0000000, size: 512 MB, Compressed Oops mode: 32-bit
[2020-12-29T17:04:28.171-0300][gc,start     ] GC(0) Pause Young (Normal) (G1 Evacuation Pause)
[2020-12-29T17:04:28.172-0300][gc,task      ] GC(0) Using 4 workers of 4 for evacuation
[2020-12-29T17:04:28.181-0300][gc,phases    ] GC(0)   Pre Evacuate Collection Set: 0,0ms
[2020-12-29T17:04:28.181-0300][gc,phases    ] GC(0)   Evacuate Collection Set: 8,3ms
[2020-12-29T17:04:28.181-0300][gc,phases    ] GC(0)   Post Evacuate Collection Set: 0,6ms
[2020-12-29T17:04:28.181-0300][gc,phases    ] GC(0)   Other: 0,6ms
[2020-12-29T17:04:28.181-0300][gc,heap      ] GC(0) Eden regions: 25->0(21)
[2020-12-29T17:04:28.181-0300][gc,heap      ] GC(0) Survivor regions: 0->4(4)
[2020-12-29T17:04:28.181-0300][gc,heap      ] GC(0) Old regions: 0->2
[2020-12-29T17:04:28.181-0300][gc,heap      ] GC(0) Humongous regions: 0->0
[2020-12-29T17:04:28.181-0300][gc,metaspace ] GC(0) Metaspace: 15438K->15438K(1062912K)
[2020-12-29T17:04:28.181-0300][gc           ] GC(0) Pause Young (Normal) (G1 Evacuation Pause) 25M->5M(512M) 9,813ms
[2020-12-29T17:04:28.181-0300][gc,cpu       ] GC(0) User=0,03s Sys=0,00s Real=0,01s
[2020-12-29T17:29:22.011-0300][gc,heap,exit ] Heap
[2020-12-29T17:29:22.166-0300][gc,heap,exit ]  garbage-first heap   total 524288K, used 10847K [0x00000000e0000000, 0x0000000100000000)
[2020-12-29T17:29:22.166-0300][gc,heap,exit ]   region size 1024K, 10 young (10240K), 4 survivors (4096K)
[2020-12-29T17:29:22.166-0300][gc,heap,exit ]  Metaspace       used 16022K, capacity 16400K, committed 16640K, reserved 1064960K
[2020-12-29T17:29:22.166-0300][gc,heap,exit ]   class space    used 1595K, capacity 1718K, committed 1792K, reserved 1048576K
