[2020-10-18T15:37:26.916-0300][gc,heap] Heap region size: 1M
[2020-10-18T15:37:26.926-0300][gc     ] Using G1
[2020-10-18T15:37:26.926-0300][gc,heap,coops] Heap address: 0x00000000e0000000, size: 512 MB, Compressed Oops mode: 32-bit
[2020-10-18T15:37:26.926-0300][gc,cds       ] Mark closed archive regions in map: [0x00000000fff00000, 0x00000000fff71ff8]
[2020-10-18T15:37:26.926-0300][gc,cds       ] Mark open archive regions in map: [0x00000000ffe00000, 0x00000000ffe48ff8]
[2020-10-18T15:37:26.945-0300][gc           ] Periodic GC disabled
[2020-10-18T15:38:05.339-0300][gc,start     ] GC(0) Pause Young (Normal) (G1 Evacuation Pause)
[2020-10-18T15:38:05.343-0300][gc,task      ] GC(0) Using 4 workers of 4 for evacuation
[2020-10-18T15:38:05.358-0300][gc,phases    ] GC(0)   Pre Evacuate Collection Set: 0,0ms
[2020-10-18T15:38:05.358-0300][gc,phases    ] GC(0)   Evacuate Collection Set: 14,2ms
[2020-10-18T15:38:05.358-0300][gc,phases    ] GC(0)   Post Evacuate Collection Set: 0,5ms
[2020-10-18T15:38:05.358-0300][gc,phases    ] GC(0)   Other: 4,1ms
[2020-10-18T15:38:05.358-0300][gc,heap      ] GC(0) Eden regions: 25->0(21)
[2020-10-18T15:38:05.358-0300][gc,heap      ] GC(0) Survivor regions: 0->4(4)
[2020-10-18T15:38:05.358-0300][gc,heap      ] GC(0) Old regions: 0->2
[2020-10-18T15:38:05.358-0300][gc,heap      ] GC(0) Archive regions: 2->2
[2020-10-18T15:38:05.358-0300][gc,heap      ] GC(0) Humongous regions: 0->0
[2020-10-18T15:38:05.358-0300][gc,metaspace ] GC(0) Metaspace: 7385K->7385K(1056768K)
[2020-10-18T15:38:05.358-0300][gc           ] GC(0) Pause Young (Normal) (G1 Evacuation Pause) 25M->5M(512M) 19,006ms
[2020-10-18T15:38:05.358-0300][gc,cpu       ] GC(0) User=0,04s Sys=0,00s Real=0,02s
[2020-10-18T19:38:30.483-0300][gc,heap,exit ] Heap
[2020-10-18T19:38:30.504-0300][gc,heap,exit ]  garbage-first heap   total 524288K, used 20248K [0x00000000e0000000, 0x0000000100000000)
[2020-10-18T19:38:30.504-0300][gc,heap,exit ]   region size 1024K, 19 young (19456K), 4 survivors (4096K)
[2020-10-18T19:38:30.504-0300][gc,heap,exit ]  Metaspace       used 8027K, capacity 8388K, committed 8704K, reserved 1056768K
[2020-10-18T19:38:30.504-0300][gc,heap,exit ]   class space    used 857K, capacity 943K, committed 1024K, reserved 1048576K
