[2021-01-25T22:16:52.875-0300][gc,heap] Heap region size: 1M
[2021-01-25T22:16:52.883-0300][gc     ] Using G1
[2021-01-25T22:16:52.883-0300][gc,heap,coops] Heap address: 0x00000000e0000000, size: 512 MB, Compressed Oops mode: 32-bit
[2021-01-25T22:16:56.968-0300][gc,start     ] GC(0) Pause Young (Normal) (G1 Evacuation Pause)
[2021-01-25T22:16:56.969-0300][gc,task      ] GC(0) Using 4 workers of 4 for evacuation
[2021-01-25T22:16:56.977-0300][gc,phases    ] GC(0)   Pre Evacuate Collection Set: 0,0ms
[2021-01-25T22:16:56.977-0300][gc,phases    ] GC(0)   Evacuate Collection Set: 7,5ms
[2021-01-25T22:16:56.977-0300][gc,phases    ] GC(0)   Post Evacuate Collection Set: 0,6ms
[2021-01-25T22:16:56.977-0300][gc,phases    ] GC(0)   Other: 0,6ms
[2021-01-25T22:16:56.977-0300][gc,heap      ] GC(0) Eden regions: 25->0(21)
[2021-01-25T22:16:56.977-0300][gc,heap      ] GC(0) Survivor regions: 0->4(4)
[2021-01-25T22:16:56.977-0300][gc,heap      ] GC(0) Old regions: 0->2
[2021-01-25T22:16:56.977-0300][gc,heap      ] GC(0) Humongous regions: 0->0
[2021-01-25T22:16:56.977-0300][gc,metaspace ] GC(0) Metaspace: 15347K->15347K(1062912K)
[2021-01-25T22:16:56.977-0300][gc           ] GC(0) Pause Young (Normal) (G1 Evacuation Pause) 25M->5M(512M) 8,807ms
[2021-01-25T22:16:56.977-0300][gc,cpu       ] GC(0) User=0,02s Sys=0,00s Real=0,01s
[2021-01-25T23:07:21.208-0300][gc,heap,exit ] Heap
[2021-01-25T23:07:21.209-0300][gc,heap,exit ]  garbage-first heap   total 524288K, used 24296K [0x00000000e0000000, 0x0000000100000000)
[2021-01-25T23:07:21.210-0300][gc,heap,exit ]   region size 1024K, 23 young (23552K), 4 survivors (4096K)
[2021-01-25T23:07:21.210-0300][gc,heap,exit ]  Metaspace       used 16273K, capacity 16660K, committed 16896K, reserved 1064960K
[2021-01-25T23:07:21.210-0300][gc,heap,exit ]   class space    used 1595K, capacity 1718K, committed 1792K, reserved 1048576K
