[2020-12-29T19:33:54.866-0300][gc,heap] Heap region size: 1M
[2020-12-29T19:33:54.876-0300][gc     ] Using G1
[2020-12-29T19:33:54.876-0300][gc,heap,coops] Heap address: 0x00000000e0000000, size: 512 MB, Compressed Oops mode: 32-bit
[2020-12-29T19:33:56.918-0300][gc,start     ] GC(0) Pause Young (Normal) (G1 Evacuation Pause)
[2020-12-29T19:33:56.919-0300][gc,task      ] GC(0) Using 4 workers of 4 for evacuation
[2020-12-29T19:33:56.955-0300][gc,mmu       ] GC(0) MMU target violated: 21,0ms (20,0ms/21,0ms)
[2020-12-29T19:33:56.955-0300][gc,phases    ] GC(0)   Pre Evacuate Collection Set: 0,0ms
[2020-12-29T19:33:56.955-0300][gc,phases    ] GC(0)   Evacuate Collection Set: 35,6ms
[2020-12-29T19:33:56.955-0300][gc,phases    ] GC(0)   Post Evacuate Collection Set: 0,6ms
[2020-12-29T19:33:56.955-0300][gc,phases    ] GC(0)   Other: 0,8ms
[2020-12-29T19:33:56.955-0300][gc,heap      ] GC(0) Eden regions: 25->0(21)
[2020-12-29T19:33:56.955-0300][gc,heap      ] GC(0) Survivor regions: 0->4(4)
[2020-12-29T19:33:56.955-0300][gc,heap      ] GC(0) Old regions: 0->2
[2020-12-29T19:33:56.955-0300][gc,heap      ] GC(0) Humongous regions: 0->0
[2020-12-29T19:33:56.955-0300][gc,metaspace ] GC(0) Metaspace: 15311K->15311K(1062912K)
[2020-12-29T19:33:56.955-0300][gc           ] GC(0) Pause Young (Normal) (G1 Evacuation Pause) 25M->5M(512M) 37,090ms
[2020-12-29T19:33:56.955-0300][gc,cpu       ] GC(0) User=0,02s Sys=0,01s Real=0,04s
[2020-12-29T21:08:41.596-0300][gc,start     ] GC(1) Pause Young (Normal) (G1 Evacuation Pause)
[2020-12-29T21:08:41.597-0300][gc,task      ] GC(1) Using 4 workers of 4 for evacuation
[2020-12-29T21:08:41.610-0300][gc,phases    ] GC(1)   Pre Evacuate Collection Set: 0,1ms
[2020-12-29T21:08:41.610-0300][gc,phases    ] GC(1)   Evacuate Collection Set: 11,5ms
[2020-12-29T21:08:41.610-0300][gc,phases    ] GC(1)   Post Evacuate Collection Set: 0,9ms
[2020-12-29T21:08:41.610-0300][gc,phases    ] GC(1)   Other: 1,3ms
[2020-12-29T21:08:41.610-0300][gc,heap      ] GC(1) Eden regions: 21->0(24)
[2020-12-29T21:08:41.610-0300][gc,heap      ] GC(1) Survivor regions: 4->1(4)
[2020-12-29T21:08:41.610-0300][gc,heap      ] GC(1) Old regions: 2->6
[2020-12-29T21:08:41.610-0300][gc,heap      ] GC(1) Humongous regions: 0->0
[2020-12-29T21:08:41.610-0300][gc,metaspace ] GC(1) Metaspace: 16121K->16121K(1064960K)
[2020-12-29T21:08:41.610-0300][gc           ] GC(1) Pause Young (Normal) (G1 Evacuation Pause) 26M->6M(512M) 13,799ms
[2020-12-29T21:08:41.610-0300][gc,cpu       ] GC(1) User=0,04s Sys=0,00s Real=0,02s
[2020-12-29T21:48:32.192-0300][gc,heap,exit ] Heap
[2020-12-29T21:48:32.192-0300][gc,heap,exit ]  garbage-first heap   total 524288K, used 12704K [0x00000000e0000000, 0x0000000100000000)
[2020-12-29T21:48:32.192-0300][gc,heap,exit ]   region size 1024K, 8 young (8192K), 1 survivors (1024K)
[2020-12-29T21:48:32.192-0300][gc,heap,exit ]  Metaspace       used 16150K, capacity 16591K, committed 16896K, reserved 1064960K
[2020-12-29T21:48:32.192-0300][gc,heap,exit ]   class space    used 1594K, capacity 1718K, committed 1792K, reserved 1048576K
