[2020-10-15T11:37:27.596-0300][gc,heap] Heap region size: 1M
[2020-10-15T11:37:27.602-0300][gc     ] Using G1
[2020-10-15T11:37:27.603-0300][gc,heap,coops] Heap address: 0x00000000e0000000, size: 512 MB, Compressed Oops mode: 32-bit
[2020-10-15T11:37:27.603-0300][gc,cds       ] Mark closed archive regions in map: [0x00000000fff00000, 0x00000000fff71ff8]
[2020-10-15T11:37:27.603-0300][gc,cds       ] Mark open archive regions in map: [0x00000000ffe00000, 0x00000000ffe48ff8]
[2020-10-15T11:37:27.617-0300][gc           ] Periodic GC disabled
[2020-10-15T11:37:30.132-0300][gc,start     ] GC(0) Pause Young (Normal) (G1 Evacuation Pause)
[2020-10-15T11:37:30.133-0300][gc,task      ] GC(0) Using 4 workers of 4 for evacuation
[2020-10-15T11:37:30.149-0300][gc,phases    ] GC(0)   Pre Evacuate Collection Set: 0,0ms
[2020-10-15T11:37:30.149-0300][gc,phases    ] GC(0)   Evacuate Collection Set: 15,2ms
[2020-10-15T11:37:30.149-0300][gc,phases    ] GC(0)   Post Evacuate Collection Set: 0,4ms
[2020-10-15T11:37:30.149-0300][gc,phases    ] GC(0)   Other: 1,4ms
[2020-10-15T11:37:30.149-0300][gc,heap      ] GC(0) Eden regions: 25->0(21)
[2020-10-15T11:37:30.149-0300][gc,heap      ] GC(0) Survivor regions: 0->4(4)
[2020-10-15T11:37:30.149-0300][gc,heap      ] GC(0) Old regions: 0->2
[2020-10-15T11:37:30.149-0300][gc,heap      ] GC(0) Archive regions: 2->2
[2020-10-15T11:37:30.149-0300][gc,heap      ] GC(0) Humongous regions: 0->0
[2020-10-15T11:37:30.149-0300][gc,metaspace ] GC(0) Metaspace: 7397K->7397K(1056768K)
[2020-10-15T11:37:30.149-0300][gc           ] GC(0) Pause Young (Normal) (G1 Evacuation Pause) 25M->5M(512M) 17,210ms
[2020-10-15T11:37:30.149-0300][gc,cpu       ] GC(0) User=0,03s Sys=0,01s Real=0,02s
[2020-10-15T18:36:01.005-0300][gc,start     ] GC(1) Pause Young (Normal) (G1 Evacuation Pause)
[2020-10-15T18:36:01.005-0300][gc,task      ] GC(1) Using 4 workers of 4 for evacuation
[2020-10-15T18:36:01.017-0300][gc,phases    ] GC(1)   Pre Evacuate Collection Set: 0,0ms
[2020-10-15T18:36:01.017-0300][gc,phases    ] GC(1)   Evacuate Collection Set: 11,6ms
[2020-10-15T18:36:01.017-0300][gc,phases    ] GC(1)   Post Evacuate Collection Set: 0,3ms
[2020-10-15T18:36:01.017-0300][gc,phases    ] GC(1)   Other: 0,3ms
[2020-10-15T18:36:01.018-0300][gc,heap      ] GC(1) Eden regions: 21->0(24)
[2020-10-15T18:36:01.018-0300][gc,heap      ] GC(1) Survivor regions: 4->1(4)
[2020-10-15T18:36:01.018-0300][gc,heap      ] GC(1) Old regions: 2->6
[2020-10-15T18:36:01.018-0300][gc,heap      ] GC(1) Archive regions: 2->2
[2020-10-15T18:36:01.018-0300][gc,heap      ] GC(1) Humongous regions: 0->0
[2020-10-15T18:36:01.018-0300][gc,metaspace ] GC(1) Metaspace: 8057K->8057K(1056768K)
[2020-10-15T18:36:01.018-0300][gc           ] GC(1) Pause Young (Normal) (G1 Evacuation Pause) 26M->6M(512M) 12,307ms
[2020-10-15T18:36:01.018-0300][gc,cpu       ] GC(1) User=0,04s Sys=0,00s Real=0,01s
[2020-10-16T19:50:02.113-0300][gc,heap,exit ] Heap
[2020-10-16T19:50:02.152-0300][gc,heap,exit ]  garbage-first heap   total 524288K, used 28864K [0x00000000e0000000, 0x0000000100000000)
[2020-10-16T19:50:02.152-0300][gc,heap,exit ]   region size 1024K, 24 young (24576K), 1 survivors (1024K)
[2020-10-16T19:50:02.152-0300][gc,heap,exit ]  Metaspace       used 8062K, capacity 8388K, committed 8704K, reserved 1056768K
[2020-10-16T19:50:02.152-0300][gc,heap,exit ]   class space    used 858K, capacity 943K, committed 1024K, reserved 1048576K
