[2020-10-18T21:37:42.294-0300][gc,heap] Heap region size: 1M
[2020-10-18T21:37:42.304-0300][gc     ] Using G1
[2020-10-18T21:37:42.304-0300][gc,heap,coops] Heap address: 0x00000000e0000000, size: 512 MB, Compressed Oops mode: 32-bit
[2020-10-18T21:37:42.304-0300][gc,cds       ] Mark closed archive regions in map: [0x00000000fff00000, 0x00000000fff71ff8]
[2020-10-18T21:37:42.304-0300][gc,cds       ] Mark open archive regions in map: [0x00000000ffe00000, 0x00000000ffe48ff8]
[2020-10-18T21:37:42.321-0300][gc           ] Periodic GC disabled
[2020-10-18T21:38:29.869-0300][gc,start     ] GC(0) Pause Young (Normal) (G1 Evacuation Pause)
[2020-10-18T21:38:29.870-0300][gc,task      ] GC(0) Using 4 workers of 4 for evacuation
[2020-10-18T21:38:29.884-0300][gc,phases    ] GC(0)   Pre Evacuate Collection Set: 0,0ms
[2020-10-18T21:38:29.884-0300][gc,phases    ] GC(0)   Evacuate Collection Set: 13,4ms
[2020-10-18T21:38:29.884-0300][gc,phases    ] GC(0)   Post Evacuate Collection Set: 0,5ms
[2020-10-18T21:38:29.884-0300][gc,phases    ] GC(0)   Other: 1,2ms
[2020-10-18T21:38:29.884-0300][gc,heap      ] GC(0) Eden regions: 25->0(21)
[2020-10-18T21:38:29.884-0300][gc,heap      ] GC(0) Survivor regions: 0->4(4)
[2020-10-18T21:38:29.884-0300][gc,heap      ] GC(0) Old regions: 0->2
[2020-10-18T21:38:29.884-0300][gc,heap      ] GC(0) Archive regions: 2->2
[2020-10-18T21:38:29.884-0300][gc,heap      ] GC(0) Humongous regions: 0->0
[2020-10-18T21:38:29.884-0300][gc,metaspace ] GC(0) Metaspace: 7368K->7368K(1056768K)
[2020-10-18T21:38:29.884-0300][gc           ] GC(0) Pause Young (Normal) (G1 Evacuation Pause) 25M->5M(512M) 15,335ms
[2020-10-18T21:38:29.884-0300][gc,cpu       ] GC(0) User=0,04s Sys=0,00s Real=0,01s
[2020-10-19T02:20:58.437-0300][gc,start     ] GC(1) Pause Young (Normal) (G1 Evacuation Pause)
[2020-10-19T02:20:58.453-0300][gc,task      ] GC(1) Using 4 workers of 4 for evacuation
[2020-10-19T02:20:58.476-0300][gc,mmu       ] GC(1) MMU target violated: 21,0ms (20,0ms/21,0ms)
[2020-10-19T02:20:58.476-0300][gc,phases    ] GC(1)   Pre Evacuate Collection Set: 0,1ms
[2020-10-19T02:20:58.476-0300][gc,phases    ] GC(1)   Evacuate Collection Set: 21,7ms
[2020-10-19T02:20:58.476-0300][gc,phases    ] GC(1)   Post Evacuate Collection Set: 0,5ms
[2020-10-19T02:20:58.476-0300][gc,phases    ] GC(1)   Other: 16,2ms
[2020-10-19T02:20:58.476-0300][gc,heap      ] GC(1) Eden regions: 21->0(24)
[2020-10-19T02:20:58.476-0300][gc,heap      ] GC(1) Survivor regions: 4->1(4)
[2020-10-19T02:20:58.476-0300][gc,heap      ] GC(1) Old regions: 2->6
[2020-10-19T02:20:58.476-0300][gc,heap      ] GC(1) Archive regions: 2->2
[2020-10-19T02:20:58.476-0300][gc,heap      ] GC(1) Humongous regions: 0->0
[2020-10-19T02:20:58.476-0300][gc,metaspace ] GC(1) Metaspace: 8094K->8094K(1056768K)
[2020-10-19T02:20:58.476-0300][gc           ] GC(1) Pause Young (Normal) (G1 Evacuation Pause) 26M->6M(512M) 38,552ms
[2020-10-19T02:20:58.476-0300][gc,cpu       ] GC(1) User=0,03s Sys=0,00s Real=0,04s
[2020-10-19T02:32:42.065-0300][gc,heap,exit ] Heap
[2020-10-19T02:32:42.065-0300][gc,heap,exit ]  garbage-first heap   total 524288K, used 11522K [0x00000000e0000000, 0x0000000100000000)
[2020-10-19T02:32:42.065-0300][gc,heap,exit ]   region size 1024K, 7 young (7168K), 1 survivors (1024K)
[2020-10-19T02:32:42.065-0300][gc,heap,exit ]  Metaspace       used 8152K, capacity 8515K, committed 8704K, reserved 1056768K
[2020-10-19T02:32:42.065-0300][gc,heap,exit ]   class space    used 858K, capacity 943K, committed 1024K, reserved 1048576K
