[2021-01-25T23:07:24.763-0300][gc,heap] Heap region size: 1M
[2021-01-25T23:07:24.769-0300][gc     ] Using G1
[2021-01-25T23:07:24.769-0300][gc,heap,coops] Heap address: 0x00000000e0000000, size: 512 MB, Compressed Oops mode: 32-bit
[2021-01-25T23:07:26.498-0300][gc,start     ] GC(0) Pause Young (Normal) (G1 Evacuation Pause)
[2021-01-25T23:07:26.499-0300][gc,task      ] GC(0) Using 4 workers of 4 for evacuation
[2021-01-25T23:07:26.510-0300][gc,phases    ] GC(0)   Pre Evacuate Collection Set: 0,0ms
[2021-01-25T23:07:26.510-0300][gc,phases    ] GC(0)   Evacuate Collection Set: 10,3ms
[2021-01-25T23:07:26.510-0300][gc,phases    ] GC(0)   Post Evacuate Collection Set: 0,5ms
[2021-01-25T23:07:26.510-0300][gc,phases    ] GC(0)   Other: 0,5ms
[2021-01-25T23:07:26.510-0300][gc,heap      ] GC(0) Eden regions: 25->0(21)
[2021-01-25T23:07:26.510-0300][gc,heap      ] GC(0) Survivor regions: 0->4(4)
[2021-01-25T23:07:26.510-0300][gc,heap      ] GC(0) Old regions: 0->2
[2021-01-25T23:07:26.510-0300][gc,heap      ] GC(0) Humongous regions: 0->0
[2021-01-25T23:07:26.510-0300][gc,metaspace ] GC(0) Metaspace: 15347K->15347K(1062912K)
[2021-01-25T23:07:26.510-0300][gc           ] GC(0) Pause Young (Normal) (G1 Evacuation Pause) 25M->5M(512M) 11,379ms
[2021-01-25T23:07:26.510-0300][gc,cpu       ] GC(0) User=0,02s Sys=0,00s Real=0,01s
[2021-01-25T23:13:31.663-0300][gc,heap,exit ] Heap
[2021-01-25T23:13:31.663-0300][gc,heap,exit ]  garbage-first heap   total 524288K, used 17200K [0x00000000e0000000, 0x0000000100000000)
[2021-01-25T23:13:31.663-0300][gc,heap,exit ]   region size 1024K, 16 young (16384K), 4 survivors (4096K)
[2021-01-25T23:13:31.663-0300][gc,heap,exit ]  Metaspace       used 16263K, capacity 16656K, committed 16896K, reserved 1064960K
[2021-01-25T23:13:31.663-0300][gc,heap,exit ]   class space    used 1598K, capacity 1718K, committed 1792K, reserved 1048576K
