[2020-12-29T17:39:22.547-0300][gc,heap] Heap region size: 1M
[2020-12-29T17:39:22.554-0300][gc     ] Using G1
[2020-12-29T17:39:22.554-0300][gc,heap,coops] Heap address: 0x00000000e0000000, size: 512 MB, Compressed Oops mode: 32-bit
[2020-12-29T17:39:41.639-0300][gc,start     ] GC(0) Pause Young (Normal) (G1 Evacuation Pause)
[2020-12-29T17:39:41.641-0300][gc,task      ] GC(0) Using 4 workers of 4 for evacuation
[2020-12-29T17:39:41.651-0300][gc,phases    ] GC(0)   Pre Evacuate Collection Set: 0,0ms
[2020-12-29T17:39:41.651-0300][gc,phases    ] GC(0)   Evacuate Collection Set: 9,5ms
[2020-12-29T17:39:41.651-0300][gc,phases    ] GC(0)   Post Evacuate Collection Set: 0,7ms
[2020-12-29T17:39:41.651-0300][gc,phases    ] GC(0)   Other: 1,8ms
[2020-12-29T17:39:41.651-0300][gc,heap      ] GC(0) Eden regions: 25->0(21)
[2020-12-29T17:39:41.651-0300][gc,heap      ] GC(0) Survivor regions: 0->4(4)
[2020-12-29T17:39:41.651-0300][gc,heap      ] GC(0) Old regions: 0->2
[2020-12-29T17:39:41.651-0300][gc,heap      ] GC(0) Humongous regions: 0->0
[2020-12-29T17:39:41.651-0300][gc,metaspace ] GC(0) Metaspace: 15398K->15398K(1062912K)
[2020-12-29T17:39:41.651-0300][gc           ] GC(0) Pause Young (Normal) (G1 Evacuation Pause) 25M->5M(512M) 12,126ms
[2020-12-29T17:39:41.651-0300][gc,cpu       ] GC(0) User=0,04s Sys=0,00s Real=0,02s
[2020-12-29T19:26:35.486-0300][gc,start     ] GC(1) Pause Young (Normal) (G1 Evacuation Pause)
[2020-12-29T19:26:35.508-0300][gc,task      ] GC(1) Using 4 workers of 4 for evacuation
[2020-12-29T19:26:35.531-0300][gc,mmu       ] GC(1) MMU target violated: 21,0ms (20,0ms/21,0ms)
[2020-12-29T19:26:35.531-0300][gc,phases    ] GC(1)   Pre Evacuate Collection Set: 0,0ms
[2020-12-29T19:26:35.531-0300][gc,phases    ] GC(1)   Evacuate Collection Set: 21,4ms
[2020-12-29T19:26:35.531-0300][gc,phases    ] GC(1)   Post Evacuate Collection Set: 0,5ms
[2020-12-29T19:26:35.531-0300][gc,phases    ] GC(1)   Other: 22,8ms
[2020-12-29T19:26:35.531-0300][gc,heap      ] GC(1) Eden regions: 21->0(24)
[2020-12-29T19:26:35.531-0300][gc,heap      ] GC(1) Survivor regions: 4->1(4)
[2020-12-29T19:26:35.531-0300][gc,heap      ] GC(1) Old regions: 2->6
[2020-12-29T19:26:35.531-0300][gc,heap      ] GC(1) Humongous regions: 0->0
[2020-12-29T19:26:35.531-0300][gc,metaspace ] GC(1) Metaspace: 16247K->16247K(1064960K)
[2020-12-29T19:26:35.531-0300][gc           ] GC(1) Pause Young (Normal) (G1 Evacuation Pause) 26M->6M(512M) 44,834ms
[2020-12-29T19:26:35.531-0300][gc,cpu       ] GC(1) User=0,01s Sys=0,01s Real=0,05s
[2020-12-29T19:33:48.436-0300][gc,heap,exit ] Heap
[2020-12-29T19:33:48.436-0300][gc,heap,exit ]  garbage-first heap   total 524288K, used 10775K [0x00000000e0000000, 0x0000000100000000)
[2020-12-29T19:33:48.436-0300][gc,heap,exit ]   region size 1024K, 6 young (6144K), 1 survivors (1024K)
[2020-12-29T19:33:48.436-0300][gc,heap,exit ]  Metaspace       used 16271K, capacity 16659K, committed 16896K, reserved 1064960K
[2020-12-29T19:33:48.436-0300][gc,heap,exit ]   class space    used 1595K, capacity 1718K, committed 1792K, reserved 1048576K
